M48
; DRILL file {KiCad 8.0.1} date 2024-04-13T17:59:16+0200
; FORMAT={-:-/ absolute / metric / decimal}
; #@! TF.CreationDate,2024-04-13T17:59:16+02:00
; #@! TF.GenerationSoftware,Kicad,Pcbnew,8.0.1
; #@! TF.FileFunction,MixedPlating,1,2
FMAT,2
METRIC
; #@! TA.AperFunction,Plated,PTH,ComponentDrill
T1C0.800
; #@! TA.AperFunction,Plated,PTH,ComponentDrill
T2C0.900
; #@! TA.AperFunction,Plated,PTH,ComponentDrill
T3C0.950
; #@! TA.AperFunction,Plated,PTH,ComponentDrill
T4C1.000
; #@! TA.AperFunction,Plated,PTH,ComponentDrill
T5C1.100
; #@! TA.AperFunction,Plated,PTH,ComponentDrill
T6C2.300
; #@! TA.AperFunction,NonPlated,NPTH,ComponentDrill
T7C2.200
%
G90
G05
T1
X23.172Y12.602
X23.172Y10.062
X23.172Y7.522
X23.172Y4.982
X30.792Y12.602
X30.792Y10.062
X30.792Y7.522
X30.792Y4.982
T2
X37.56Y14.4
X40.1Y14.4
T3
X45.205Y18.4
X45.205Y15.9
X45.205Y13.9
X45.205Y11.4
T4
X35.045Y7.815
X35.045Y5.275
X37.585Y7.815
X37.585Y5.275
X40.125Y7.815
X40.125Y5.275
T5
X16.0Y20.8
X16.0Y16.2
X16.0Y11.6
X16.0Y7.0
X34.05Y24.95
X34.05Y20.45
X40.55Y24.95
X40.55Y20.45
T6
X47.915Y21.47
X47.915Y8.33
T7
X8.5Y24.1
X8.5Y3.6
X52.5Y3.6
M30
