G04 #@! TF.GenerationSoftware,KiCad,Pcbnew,8.0.1*
G04 #@! TF.CreationDate,2024-04-13T17:59:14+02:00*
G04 #@! TF.ProjectId,powerbank-attiny,706f7765-7262-4616-9e6b-2d617474696e,rev?*
G04 #@! TF.SameCoordinates,PX1e0a6e0PY3398020*
G04 #@! TF.FileFunction,Soldermask,Top*
G04 #@! TF.FilePolarity,Negative*
%FSLAX46Y46*%
G04 Gerber Fmt 4.6, Leading zero omitted, Abs format (unit mm)*
G04 Created by KiCad (PCBNEW 8.0.1) date 2024-04-13 17:59:14*
%MOMM*%
%LPD*%
G01*
G04 APERTURE LIST*
G04 Aperture macros list*
%AMRoundRect*
0 Rectangle with rounded corners*
0 $1 Rounding radius*
0 $2 $3 $4 $5 $6 $7 $8 $9 X,Y pos of 4 corners*
0 Add a 4 corners polygon primitive as box body*
4,1,4,$2,$3,$4,$5,$6,$7,$8,$9,$2,$3,0*
0 Add four circle primitives for the rounded corners*
1,1,$1+$1,$2,$3*
1,1,$1+$1,$4,$5*
1,1,$1+$1,$6,$7*
1,1,$1+$1,$8,$9*
0 Add four rect primitives between the rounded corners*
20,1,$1+$1,$2,$3,$4,$5,0*
20,1,$1+$1,$4,$5,$6,$7,0*
20,1,$1+$1,$6,$7,$8,$9,0*
20,1,$1+$1,$8,$9,$2,$3,0*%
G04 Aperture macros list end*
%ADD10C,2.200000*%
%ADD11RoundRect,0.250000X0.625000X-0.400000X0.625000X0.400000X-0.625000X0.400000X-0.625000X-0.400000X0*%
%ADD12RoundRect,0.250000X0.475000X-0.337500X0.475000X0.337500X-0.475000X0.337500X-0.475000X-0.337500X0*%
%ADD13RoundRect,0.150000X0.150000X-0.587500X0.150000X0.587500X-0.150000X0.587500X-0.150000X-0.587500X0*%
%ADD14RoundRect,0.250000X-0.625000X0.400000X-0.625000X-0.400000X0.625000X-0.400000X0.625000X0.400000X0*%
%ADD15RoundRect,0.250001X-0.799999X0.799999X-0.799999X-0.799999X0.799999X-0.799999X0.799999X0.799999X0*%
%ADD16C,2.100000*%
%ADD17R,1.700000X1.700000*%
%ADD18O,1.700000X1.700000*%
%ADD19R,1.800000X1.800000*%
%ADD20C,1.800000*%
%ADD21R,1.600000X1.600000*%
%ADD22O,1.600000X1.600000*%
%ADD23C,2.000000*%
%ADD24R,1.500000X1.600000*%
%ADD25C,1.700000*%
%ADD26O,5.000000X3.000000*%
G04 APERTURE END LIST*
D10*
G04 #@! TO.C,H1*
X8500000Y24100000D03*
G04 #@! TD*
D11*
G04 #@! TO.C,R4*
X22400000Y16150000D03*
X22400000Y19250000D03*
G04 #@! TD*
D12*
G04 #@! TO.C,C2*
X19900000Y7562500D03*
X19900000Y9637500D03*
G04 #@! TD*
D10*
G04 #@! TO.C,H2*
X8500000Y3600000D03*
G04 #@! TD*
G04 #@! TO.C,H3*
X52500000Y3600000D03*
G04 #@! TD*
D13*
G04 #@! TO.C,Q1*
X24350000Y21962500D03*
X26250000Y21962500D03*
X25300000Y23837500D03*
G04 #@! TD*
D11*
G04 #@! TO.C,R3*
X26100000Y16050000D03*
X26100000Y19150000D03*
G04 #@! TD*
D14*
G04 #@! TO.C,R1*
X29400000Y19150000D03*
X29400000Y16050000D03*
G04 #@! TD*
D15*
G04 #@! TO.C,J3*
X16000000Y20800000D03*
D16*
X16000000Y16200000D03*
X16000000Y11600000D03*
X16000000Y7000000D03*
G04 #@! TD*
D17*
G04 #@! TO.C,J4*
X40125000Y5275000D03*
D18*
X40125000Y7815000D03*
X37585000Y5275000D03*
X37585000Y7815000D03*
X35045000Y5275000D03*
X35045000Y7815000D03*
G04 #@! TD*
D19*
G04 #@! TO.C,D1*
X40100000Y14400000D03*
D20*
X37560000Y14400000D03*
G04 #@! TD*
D21*
G04 #@! TO.C,U2*
X23171792Y4982500D03*
D22*
X23171792Y7522500D03*
X23171792Y10062500D03*
X23171792Y12602500D03*
X30791792Y12602500D03*
X30791792Y10062500D03*
X30791792Y7522500D03*
X30791792Y4982500D03*
G04 #@! TD*
D23*
G04 #@! TO.C,SW1*
X40550000Y24950000D03*
X34050000Y24950000D03*
X40550000Y20450000D03*
X34050000Y20450000D03*
G04 #@! TD*
D24*
G04 #@! TO.C,J2*
X45205000Y18400000D03*
D25*
X45205000Y15900000D03*
X45205000Y13900000D03*
X45205000Y11400000D03*
D26*
X47915000Y21470000D03*
X47915000Y8330000D03*
G04 #@! TD*
M02*
