G04 #@! TF.GenerationSoftware,KiCad,Pcbnew,8.0.1*
G04 #@! TF.CreationDate,2024-04-13T17:59:14+02:00*
G04 #@! TF.ProjectId,powerbank-attiny,706f7765-7262-4616-9e6b-2d617474696e,rev?*
G04 #@! TF.SameCoordinates,PX1e0a6e0PY3398020*
G04 #@! TF.FileFunction,Legend,Top*
G04 #@! TF.FilePolarity,Positive*
%FSLAX46Y46*%
G04 Gerber Fmt 4.6, Leading zero omitted, Abs format (unit mm)*
G04 Created by KiCad (PCBNEW 8.0.1) date 2024-04-13 17:59:14*
%MOMM*%
%LPD*%
G01*
G04 APERTURE LIST*
%ADD10C,0.150000*%
%ADD11C,0.120000*%
G04 APERTURE END LIST*
D10*
X7738095Y26845181D02*
X7738095Y27845181D01*
X7738095Y27368991D02*
X8309523Y27368991D01*
X8309523Y26845181D02*
X8309523Y27845181D01*
X9309523Y26845181D02*
X8738095Y26845181D01*
X9023809Y26845181D02*
X9023809Y27845181D01*
X9023809Y27845181D02*
X8928571Y27702324D01*
X8928571Y27702324D02*
X8833333Y27607086D01*
X8833333Y27607086D02*
X8738095Y27559467D01*
X21034819Y17533334D02*
X20558628Y17200001D01*
X21034819Y16961906D02*
X20034819Y16961906D01*
X20034819Y16961906D02*
X20034819Y17342858D01*
X20034819Y17342858D02*
X20082438Y17438096D01*
X20082438Y17438096D02*
X20130057Y17485715D01*
X20130057Y17485715D02*
X20225295Y17533334D01*
X20225295Y17533334D02*
X20368152Y17533334D01*
X20368152Y17533334D02*
X20463390Y17485715D01*
X20463390Y17485715D02*
X20511009Y17438096D01*
X20511009Y17438096D02*
X20558628Y17342858D01*
X20558628Y17342858D02*
X20558628Y16961906D01*
X20368152Y18390477D02*
X21034819Y18390477D01*
X19987200Y18152382D02*
X20701485Y17914287D01*
X20701485Y17914287D02*
X20701485Y18533334D01*
X18579580Y8433334D02*
X18627200Y8385715D01*
X18627200Y8385715D02*
X18674819Y8242858D01*
X18674819Y8242858D02*
X18674819Y8147620D01*
X18674819Y8147620D02*
X18627200Y8004763D01*
X18627200Y8004763D02*
X18531961Y7909525D01*
X18531961Y7909525D02*
X18436723Y7861906D01*
X18436723Y7861906D02*
X18246247Y7814287D01*
X18246247Y7814287D02*
X18103390Y7814287D01*
X18103390Y7814287D02*
X17912914Y7861906D01*
X17912914Y7861906D02*
X17817676Y7909525D01*
X17817676Y7909525D02*
X17722438Y8004763D01*
X17722438Y8004763D02*
X17674819Y8147620D01*
X17674819Y8147620D02*
X17674819Y8242858D01*
X17674819Y8242858D02*
X17722438Y8385715D01*
X17722438Y8385715D02*
X17770057Y8433334D01*
X17770057Y8814287D02*
X17722438Y8861906D01*
X17722438Y8861906D02*
X17674819Y8957144D01*
X17674819Y8957144D02*
X17674819Y9195239D01*
X17674819Y9195239D02*
X17722438Y9290477D01*
X17722438Y9290477D02*
X17770057Y9338096D01*
X17770057Y9338096D02*
X17865295Y9385715D01*
X17865295Y9385715D02*
X17960533Y9385715D01*
X17960533Y9385715D02*
X18103390Y9338096D01*
X18103390Y9338096D02*
X18674819Y8766668D01*
X18674819Y8766668D02*
X18674819Y9385715D01*
X7738095Y6345181D02*
X7738095Y7345181D01*
X7738095Y6868991D02*
X8309523Y6868991D01*
X8309523Y6345181D02*
X8309523Y7345181D01*
X8738095Y7249943D02*
X8785714Y7297562D01*
X8785714Y7297562D02*
X8880952Y7345181D01*
X8880952Y7345181D02*
X9119047Y7345181D01*
X9119047Y7345181D02*
X9214285Y7297562D01*
X9214285Y7297562D02*
X9261904Y7249943D01*
X9261904Y7249943D02*
X9309523Y7154705D01*
X9309523Y7154705D02*
X9309523Y7059467D01*
X9309523Y7059467D02*
X9261904Y6916610D01*
X9261904Y6916610D02*
X8690476Y6345181D01*
X8690476Y6345181D02*
X9309523Y6345181D01*
X51738095Y6345181D02*
X51738095Y7345181D01*
X51738095Y6868991D02*
X52309523Y6868991D01*
X52309523Y6345181D02*
X52309523Y7345181D01*
X52690476Y7345181D02*
X53309523Y7345181D01*
X53309523Y7345181D02*
X52976190Y6964229D01*
X52976190Y6964229D02*
X53119047Y6964229D01*
X53119047Y6964229D02*
X53214285Y6916610D01*
X53214285Y6916610D02*
X53261904Y6868991D01*
X53261904Y6868991D02*
X53309523Y6773753D01*
X53309523Y6773753D02*
X53309523Y6535658D01*
X53309523Y6535658D02*
X53261904Y6440420D01*
X53261904Y6440420D02*
X53214285Y6392800D01*
X53214285Y6392800D02*
X53119047Y6345181D01*
X53119047Y6345181D02*
X52833333Y6345181D01*
X52833333Y6345181D02*
X52738095Y6392800D01*
X52738095Y6392800D02*
X52690476Y6440420D01*
X23450057Y22804762D02*
X23402438Y22709524D01*
X23402438Y22709524D02*
X23307200Y22614286D01*
X23307200Y22614286D02*
X23164342Y22471429D01*
X23164342Y22471429D02*
X23116723Y22376191D01*
X23116723Y22376191D02*
X23116723Y22280953D01*
X23354819Y22328572D02*
X23307200Y22233334D01*
X23307200Y22233334D02*
X23211961Y22138096D01*
X23211961Y22138096D02*
X23021485Y22090477D01*
X23021485Y22090477D02*
X22688152Y22090477D01*
X22688152Y22090477D02*
X22497676Y22138096D01*
X22497676Y22138096D02*
X22402438Y22233334D01*
X22402438Y22233334D02*
X22354819Y22328572D01*
X22354819Y22328572D02*
X22354819Y22519048D01*
X22354819Y22519048D02*
X22402438Y22614286D01*
X22402438Y22614286D02*
X22497676Y22709524D01*
X22497676Y22709524D02*
X22688152Y22757143D01*
X22688152Y22757143D02*
X23021485Y22757143D01*
X23021485Y22757143D02*
X23211961Y22709524D01*
X23211961Y22709524D02*
X23307200Y22614286D01*
X23307200Y22614286D02*
X23354819Y22519048D01*
X23354819Y22519048D02*
X23354819Y22328572D01*
X23354819Y23709524D02*
X23354819Y23138096D01*
X23354819Y23423810D02*
X22354819Y23423810D01*
X22354819Y23423810D02*
X22497676Y23328572D01*
X22497676Y23328572D02*
X22592914Y23233334D01*
X22592914Y23233334D02*
X22640533Y23138096D01*
X24734819Y17433334D02*
X24258628Y17100001D01*
X24734819Y16861906D02*
X23734819Y16861906D01*
X23734819Y16861906D02*
X23734819Y17242858D01*
X23734819Y17242858D02*
X23782438Y17338096D01*
X23782438Y17338096D02*
X23830057Y17385715D01*
X23830057Y17385715D02*
X23925295Y17433334D01*
X23925295Y17433334D02*
X24068152Y17433334D01*
X24068152Y17433334D02*
X24163390Y17385715D01*
X24163390Y17385715D02*
X24211009Y17338096D01*
X24211009Y17338096D02*
X24258628Y17242858D01*
X24258628Y17242858D02*
X24258628Y16861906D01*
X23734819Y17766668D02*
X23734819Y18385715D01*
X23734819Y18385715D02*
X24115771Y18052382D01*
X24115771Y18052382D02*
X24115771Y18195239D01*
X24115771Y18195239D02*
X24163390Y18290477D01*
X24163390Y18290477D02*
X24211009Y18338096D01*
X24211009Y18338096D02*
X24306247Y18385715D01*
X24306247Y18385715D02*
X24544342Y18385715D01*
X24544342Y18385715D02*
X24639580Y18338096D01*
X24639580Y18338096D02*
X24687200Y18290477D01*
X24687200Y18290477D02*
X24734819Y18195239D01*
X24734819Y18195239D02*
X24734819Y17909525D01*
X24734819Y17909525D02*
X24687200Y17814287D01*
X24687200Y17814287D02*
X24639580Y17766668D01*
X31674819Y17433334D02*
X31198628Y17100001D01*
X31674819Y16861906D02*
X30674819Y16861906D01*
X30674819Y16861906D02*
X30674819Y17242858D01*
X30674819Y17242858D02*
X30722438Y17338096D01*
X30722438Y17338096D02*
X30770057Y17385715D01*
X30770057Y17385715D02*
X30865295Y17433334D01*
X30865295Y17433334D02*
X31008152Y17433334D01*
X31008152Y17433334D02*
X31103390Y17385715D01*
X31103390Y17385715D02*
X31151009Y17338096D01*
X31151009Y17338096D02*
X31198628Y17242858D01*
X31198628Y17242858D02*
X31198628Y16861906D01*
X31674819Y18385715D02*
X31674819Y17814287D01*
X31674819Y18100001D02*
X30674819Y18100001D01*
X30674819Y18100001D02*
X30817676Y18004763D01*
X30817676Y18004763D02*
X30912914Y17909525D01*
X30912914Y17909525D02*
X30960533Y17814287D01*
X17704819Y13566667D02*
X18419104Y13566667D01*
X18419104Y13566667D02*
X18561961Y13519048D01*
X18561961Y13519048D02*
X18657200Y13423810D01*
X18657200Y13423810D02*
X18704819Y13280953D01*
X18704819Y13280953D02*
X18704819Y13185715D01*
X17704819Y13947620D02*
X17704819Y14566667D01*
X17704819Y14566667D02*
X18085771Y14233334D01*
X18085771Y14233334D02*
X18085771Y14376191D01*
X18085771Y14376191D02*
X18133390Y14471429D01*
X18133390Y14471429D02*
X18181009Y14519048D01*
X18181009Y14519048D02*
X18276247Y14566667D01*
X18276247Y14566667D02*
X18514342Y14566667D01*
X18514342Y14566667D02*
X18609580Y14519048D01*
X18609580Y14519048D02*
X18657200Y14471429D01*
X18657200Y14471429D02*
X18704819Y14376191D01*
X18704819Y14376191D02*
X18704819Y14090477D01*
X18704819Y14090477D02*
X18657200Y13995239D01*
X18657200Y13995239D02*
X18609580Y13947620D01*
D11*
G04 #@! TO.C,R4*
X21490000Y16972936D02*
X21490000Y18427064D01*
X23310000Y16972936D02*
X23310000Y18427064D01*
G04 #@! TO.C,C2*
X19165000Y8338748D02*
X19165000Y8861252D01*
X20635000Y8338748D02*
X20635000Y8861252D01*
G04 #@! TO.C,Q1*
X23740000Y22900000D02*
X23740000Y23550000D01*
X23740000Y22900000D02*
X23740000Y22250000D01*
X26860000Y22900000D02*
X26860000Y23550000D01*
X26860000Y22900000D02*
X26860000Y22250000D01*
X23790000Y21737500D02*
X23460000Y21497500D01*
X23460000Y21977500D01*
X23790000Y21737500D01*
G36*
X23790000Y21737500D02*
G01*
X23460000Y21497500D01*
X23460000Y21977500D01*
X23790000Y21737500D01*
G37*
G04 #@! TO.C,R3*
X25190000Y16872936D02*
X25190000Y18327064D01*
X27010000Y16872936D02*
X27010000Y18327064D01*
G04 #@! TO.C,R1*
X28490000Y18327064D02*
X28490000Y16872936D01*
X30310000Y18327064D02*
X30310000Y16872936D01*
G04 #@! TD*
M02*
