Designator,Mid X,Mid Y,Rotation,Layer
D1,84.168,-74.488,0.0,top
D2,74.168,-81.154666,0.0,top
D3,84.168,-81.154666,0.0,top
D4,94.168,-81.154666,0.0,top
D5,74.168,-87.821332,0.0,top
D6,84.168,-87.821332,0.0,top
D7,94.168,-87.821332,0.0,top
D8,84.168,-94.488,0.0,top
