(kicad_sch
	(version 20231120)
	(generator "eeschema")
	(generator_version "8.0")
	(uuid "f2ac4f55-de25-4c8a-b6e1-20c8a25b9685")
	(paper "A4")
	(lib_symbols
		(symbol "Connector:Conn_01x06_Pin"
			(pin_names
				(offset 1.016) hide)
			(exclude_from_sim no)
			(in_bom yes)
			(on_board yes)
			(property "Reference" "J"
				(at 0 7.62 0)
				(effects
					(font
						(size 1.27 1.27)
					)
				)
			)
			(property "Value" "Conn_01x06_Pin"
				(at 0 -10.16 0)
				(effects
					(font
						(size 1.27 1.27)
					)
				)
			)
			(property "Footprint" ""
				(at 0 0 0)
				(effects
					(font
						(size 1.27 1.27)
					)
					(hide yes)
				)
			)
			(property "Datasheet" "~"
				(at 0 0 0)
				(effects
					(font
						(size 1.27 1.27)
					)
					(hide yes)
				)
			)
			(property "Description" "Generic connector, single row, 01x06, script generated"
				(at 0 0 0)
				(effects
					(font
						(size 1.27 1.27)
					)
					(hide yes)
				)
			)
			(property "ki_locked" ""
				(at 0 0 0)
				(effects
					(font
						(size 1.27 1.27)
					)
				)
			)
			(property "ki_keywords" "connector"
				(at 0 0 0)
				(effects
					(font
						(size 1.27 1.27)
					)
					(hide yes)
				)
			)
			(property "ki_fp_filters" "Connector*:*_1x??_*"
				(at 0 0 0)
				(effects
					(font
						(size 1.27 1.27)
					)
					(hide yes)
				)
			)
			(symbol "Conn_01x06_Pin_1_1"
				(polyline
					(pts
						(xy 1.27 -7.62) (xy 0.8636 -7.62)
					)
					(stroke
						(width 0.1524)
						(type default)
					)
					(fill
						(type none)
					)
				)
				(polyline
					(pts
						(xy 1.27 -5.08) (xy 0.8636 -5.08)
					)
					(stroke
						(width 0.1524)
						(type default)
					)
					(fill
						(type none)
					)
				)
				(polyline
					(pts
						(xy 1.27 -2.54) (xy 0.8636 -2.54)
					)
					(stroke
						(width 0.1524)
						(type default)
					)
					(fill
						(type none)
					)
				)
				(polyline
					(pts
						(xy 1.27 0) (xy 0.8636 0)
					)
					(stroke
						(width 0.1524)
						(type default)
					)
					(fill
						(type none)
					)
				)
				(polyline
					(pts
						(xy 1.27 2.54) (xy 0.8636 2.54)
					)
					(stroke
						(width 0.1524)
						(type default)
					)
					(fill
						(type none)
					)
				)
				(polyline
					(pts
						(xy 1.27 5.08) (xy 0.8636 5.08)
					)
					(stroke
						(width 0.1524)
						(type default)
					)
					(fill
						(type none)
					)
				)
				(rectangle
					(start 0.8636 -7.493)
					(end 0 -7.747)
					(stroke
						(width 0.1524)
						(type default)
					)
					(fill
						(type outline)
					)
				)
				(rectangle
					(start 0.8636 -4.953)
					(end 0 -5.207)
					(stroke
						(width 0.1524)
						(type default)
					)
					(fill
						(type outline)
					)
				)
				(rectangle
					(start 0.8636 -2.413)
					(end 0 -2.667)
					(stroke
						(width 0.1524)
						(type default)
					)
					(fill
						(type outline)
					)
				)
				(rectangle
					(start 0.8636 0.127)
					(end 0 -0.127)
					(stroke
						(width 0.1524)
						(type default)
					)
					(fill
						(type outline)
					)
				)
				(rectangle
					(start 0.8636 2.667)
					(end 0 2.413)
					(stroke
						(width 0.1524)
						(type default)
					)
					(fill
						(type outline)
					)
				)
				(rectangle
					(start 0.8636 5.207)
					(end 0 4.953)
					(stroke
						(width 0.1524)
						(type default)
					)
					(fill
						(type outline)
					)
				)
				(pin passive line
					(at 5.08 5.08 180)
					(length 3.81)
					(name "Pin_1"
						(effects
							(font
								(size 1.27 1.27)
							)
						)
					)
					(number "1"
						(effects
							(font
								(size 1.27 1.27)
							)
						)
					)
				)
				(pin passive line
					(at 5.08 2.54 180)
					(length 3.81)
					(name "Pin_2"
						(effects
							(font
								(size 1.27 1.27)
							)
						)
					)
					(number "2"
						(effects
							(font
								(size 1.27 1.27)
							)
						)
					)
				)
				(pin passive line
					(at 5.08 0 180)
					(length 3.81)
					(name "Pin_3"
						(effects
							(font
								(size 1.27 1.27)
							)
						)
					)
					(number "3"
						(effects
							(font
								(size 1.27 1.27)
							)
						)
					)
				)
				(pin passive line
					(at 5.08 -2.54 180)
					(length 3.81)
					(name "Pin_4"
						(effects
							(font
								(size 1.27 1.27)
							)
						)
					)
					(number "4"
						(effects
							(font
								(size 1.27 1.27)
							)
						)
					)
				)
				(pin passive line
					(at 5.08 -5.08 180)
					(length 3.81)
					(name "Pin_5"
						(effects
							(font
								(size 1.27 1.27)
							)
						)
					)
					(number "5"
						(effects
							(font
								(size 1.27 1.27)
							)
						)
					)
				)
				(pin passive line
					(at 5.08 -7.62 180)
					(length 3.81)
					(name "Pin_6"
						(effects
							(font
								(size 1.27 1.27)
							)
						)
					)
					(number "6"
						(effects
							(font
								(size 1.27 1.27)
							)
						)
					)
				)
			)
		)
		(symbol "Connector:Conn_01x07_Pin"
			(pin_names
				(offset 1.016) hide)
			(exclude_from_sim no)
			(in_bom yes)
			(on_board yes)
			(property "Reference" "J"
				(at 0 10.16 0)
				(effects
					(font
						(size 1.27 1.27)
					)
				)
			)
			(property "Value" "Conn_01x07_Pin"
				(at 0 -10.16 0)
				(effects
					(font
						(size 1.27 1.27)
					)
				)
			)
			(property "Footprint" ""
				(at 0 0 0)
				(effects
					(font
						(size 1.27 1.27)
					)
					(hide yes)
				)
			)
			(property "Datasheet" "~"
				(at 0 0 0)
				(effects
					(font
						(size 1.27 1.27)
					)
					(hide yes)
				)
			)
			(property "Description" "Generic connector, single row, 01x07, script generated"
				(at 0 0 0)
				(effects
					(font
						(size 1.27 1.27)
					)
					(hide yes)
				)
			)
			(property "ki_locked" ""
				(at 0 0 0)
				(effects
					(font
						(size 1.27 1.27)
					)
				)
			)
			(property "ki_keywords" "connector"
				(at 0 0 0)
				(effects
					(font
						(size 1.27 1.27)
					)
					(hide yes)
				)
			)
			(property "ki_fp_filters" "Connector*:*_1x??_*"
				(at 0 0 0)
				(effects
					(font
						(size 1.27 1.27)
					)
					(hide yes)
				)
			)
			(symbol "Conn_01x07_Pin_1_1"
				(polyline
					(pts
						(xy 1.27 -7.62) (xy 0.8636 -7.62)
					)
					(stroke
						(width 0.1524)
						(type default)
					)
					(fill
						(type none)
					)
				)
				(polyline
					(pts
						(xy 1.27 -5.08) (xy 0.8636 -5.08)
					)
					(stroke
						(width 0.1524)
						(type default)
					)
					(fill
						(type none)
					)
				)
				(polyline
					(pts
						(xy 1.27 -2.54) (xy 0.8636 -2.54)
					)
					(stroke
						(width 0.1524)
						(type default)
					)
					(fill
						(type none)
					)
				)
				(polyline
					(pts
						(xy 1.27 0) (xy 0.8636 0)
					)
					(stroke
						(width 0.1524)
						(type default)
					)
					(fill
						(type none)
					)
				)
				(polyline
					(pts
						(xy 1.27 2.54) (xy 0.8636 2.54)
					)
					(stroke
						(width 0.1524)
						(type default)
					)
					(fill
						(type none)
					)
				)
				(polyline
					(pts
						(xy 1.27 5.08) (xy 0.8636 5.08)
					)
					(stroke
						(width 0.1524)
						(type default)
					)
					(fill
						(type none)
					)
				)
				(polyline
					(pts
						(xy 1.27 7.62) (xy 0.8636 7.62)
					)
					(stroke
						(width 0.1524)
						(type default)
					)
					(fill
						(type none)
					)
				)
				(rectangle
					(start 0.8636 -7.493)
					(end 0 -7.747)
					(stroke
						(width 0.1524)
						(type default)
					)
					(fill
						(type outline)
					)
				)
				(rectangle
					(start 0.8636 -4.953)
					(end 0 -5.207)
					(stroke
						(width 0.1524)
						(type default)
					)
					(fill
						(type outline)
					)
				)
				(rectangle
					(start 0.8636 -2.413)
					(end 0 -2.667)
					(stroke
						(width 0.1524)
						(type default)
					)
					(fill
						(type outline)
					)
				)
				(rectangle
					(start 0.8636 0.127)
					(end 0 -0.127)
					(stroke
						(width 0.1524)
						(type default)
					)
					(fill
						(type outline)
					)
				)
				(rectangle
					(start 0.8636 2.667)
					(end 0 2.413)
					(stroke
						(width 0.1524)
						(type default)
					)
					(fill
						(type outline)
					)
				)
				(rectangle
					(start 0.8636 5.207)
					(end 0 4.953)
					(stroke
						(width 0.1524)
						(type default)
					)
					(fill
						(type outline)
					)
				)
				(rectangle
					(start 0.8636 7.747)
					(end 0 7.493)
					(stroke
						(width 0.1524)
						(type default)
					)
					(fill
						(type outline)
					)
				)
				(pin passive line
					(at 5.08 7.62 180)
					(length 3.81)
					(name "Pin_1"
						(effects
							(font
								(size 1.27 1.27)
							)
						)
					)
					(number "1"
						(effects
							(font
								(size 1.27 1.27)
							)
						)
					)
				)
				(pin passive line
					(at 5.08 5.08 180)
					(length 3.81)
					(name "Pin_2"
						(effects
							(font
								(size 1.27 1.27)
							)
						)
					)
					(number "2"
						(effects
							(font
								(size 1.27 1.27)
							)
						)
					)
				)
				(pin passive line
					(at 5.08 2.54 180)
					(length 3.81)
					(name "Pin_3"
						(effects
							(font
								(size 1.27 1.27)
							)
						)
					)
					(number "3"
						(effects
							(font
								(size 1.27 1.27)
							)
						)
					)
				)
				(pin passive line
					(at 5.08 0 180)
					(length 3.81)
					(name "Pin_4"
						(effects
							(font
								(size 1.27 1.27)
							)
						)
					)
					(number "4"
						(effects
							(font
								(size 1.27 1.27)
							)
						)
					)
				)
				(pin passive line
					(at 5.08 -2.54 180)
					(length 3.81)
					(name "Pin_5"
						(effects
							(font
								(size 1.27 1.27)
							)
						)
					)
					(number "5"
						(effects
							(font
								(size 1.27 1.27)
							)
						)
					)
				)
				(pin passive line
					(at 5.08 -5.08 180)
					(length 3.81)
					(name "Pin_6"
						(effects
							(font
								(size 1.27 1.27)
							)
						)
					)
					(number "6"
						(effects
							(font
								(size 1.27 1.27)
							)
						)
					)
				)
				(pin passive line
					(at 5.08 -7.62 180)
					(length 3.81)
					(name "Pin_7"
						(effects
							(font
								(size 1.27 1.27)
							)
						)
					)
					(number "7"
						(effects
							(font
								(size 1.27 1.27)
							)
						)
					)
				)
			)
		)
		(symbol "Connector_Generic:Conn_02x03_Odd_Even"
			(pin_names
				(offset 1.016) hide)
			(exclude_from_sim no)
			(in_bom yes)
			(on_board yes)
			(property "Reference" "J"
				(at 1.27 5.08 0)
				(effects
					(font
						(size 1.27 1.27)
					)
				)
			)
			(property "Value" "Conn_02x03_Odd_Even"
				(at 1.27 -5.08 0)
				(effects
					(font
						(size 1.27 1.27)
					)
				)
			)
			(property "Footprint" ""
				(at 0 0 0)
				(effects
					(font
						(size 1.27 1.27)
					)
					(hide yes)
				)
			)
			(property "Datasheet" "~"
				(at 0 0 0)
				(effects
					(font
						(size 1.27 1.27)
					)
					(hide yes)
				)
			)
			(property "Description" "Generic connector, double row, 02x03, odd/even pin numbering scheme (row 1 odd numbers, row 2 even numbers), script generated (kicad-library-utils/schlib/autogen/connector/)"
				(at 0 0 0)
				(effects
					(font
						(size 1.27 1.27)
					)
					(hide yes)
				)
			)
			(property "ki_keywords" "connector"
				(at 0 0 0)
				(effects
					(font
						(size 1.27 1.27)
					)
					(hide yes)
				)
			)
			(property "ki_fp_filters" "Connector*:*_2x??_*"
				(at 0 0 0)
				(effects
					(font
						(size 1.27 1.27)
					)
					(hide yes)
				)
			)
			(symbol "Conn_02x03_Odd_Even_1_1"
				(rectangle
					(start -1.27 -2.413)
					(end 0 -2.667)
					(stroke
						(width 0.1524)
						(type default)
					)
					(fill
						(type none)
					)
				)
				(rectangle
					(start -1.27 0.127)
					(end 0 -0.127)
					(stroke
						(width 0.1524)
						(type default)
					)
					(fill
						(type none)
					)
				)
				(rectangle
					(start -1.27 2.667)
					(end 0 2.413)
					(stroke
						(width 0.1524)
						(type default)
					)
					(fill
						(type none)
					)
				)
				(rectangle
					(start -1.27 3.81)
					(end 3.81 -3.81)
					(stroke
						(width 0.254)
						(type default)
					)
					(fill
						(type background)
					)
				)
				(rectangle
					(start 3.81 -2.413)
					(end 2.54 -2.667)
					(stroke
						(width 0.1524)
						(type default)
					)
					(fill
						(type none)
					)
				)
				(rectangle
					(start 3.81 0.127)
					(end 2.54 -0.127)
					(stroke
						(width 0.1524)
						(type default)
					)
					(fill
						(type none)
					)
				)
				(rectangle
					(start 3.81 2.667)
					(end 2.54 2.413)
					(stroke
						(width 0.1524)
						(type default)
					)
					(fill
						(type none)
					)
				)
				(pin passive line
					(at -5.08 2.54 0)
					(length 3.81)
					(name "Pin_1"
						(effects
							(font
								(size 1.27 1.27)
							)
						)
					)
					(number "1"
						(effects
							(font
								(size 1.27 1.27)
							)
						)
					)
				)
				(pin passive line
					(at 7.62 2.54 180)
					(length 3.81)
					(name "Pin_2"
						(effects
							(font
								(size 1.27 1.27)
							)
						)
					)
					(number "2"
						(effects
							(font
								(size 1.27 1.27)
							)
						)
					)
				)
				(pin passive line
					(at -5.08 0 0)
					(length 3.81)
					(name "Pin_3"
						(effects
							(font
								(size 1.27 1.27)
							)
						)
					)
					(number "3"
						(effects
							(font
								(size 1.27 1.27)
							)
						)
					)
				)
				(pin passive line
					(at 7.62 0 180)
					(length 3.81)
					(name "Pin_4"
						(effects
							(font
								(size 1.27 1.27)
							)
						)
					)
					(number "4"
						(effects
							(font
								(size 1.27 1.27)
							)
						)
					)
				)
				(pin passive line
					(at -5.08 -2.54 0)
					(length 3.81)
					(name "Pin_5"
						(effects
							(font
								(size 1.27 1.27)
							)
						)
					)
					(number "5"
						(effects
							(font
								(size 1.27 1.27)
							)
						)
					)
				)
				(pin passive line
					(at 7.62 -2.54 180)
					(length 3.81)
					(name "Pin_6"
						(effects
							(font
								(size 1.27 1.27)
							)
						)
					)
					(number "6"
						(effects
							(font
								(size 1.27 1.27)
							)
						)
					)
				)
			)
		)
		(symbol "Device:R_Small"
			(pin_numbers hide)
			(pin_names
				(offset 0.254) hide)
			(exclude_from_sim no)
			(in_bom yes)
			(on_board yes)
			(property "Reference" "R"
				(at 0.762 0.508 0)
				(effects
					(font
						(size 1.27 1.27)
					)
					(justify left)
				)
			)
			(property "Value" "R_Small"
				(at 0.762 -1.016 0)
				(effects
					(font
						(size 1.27 1.27)
					)
					(justify left)
				)
			)
			(property "Footprint" ""
				(at 0 0 0)
				(effects
					(font
						(size 1.27 1.27)
					)
					(hide yes)
				)
			)
			(property "Datasheet" "~"
				(at 0 0 0)
				(effects
					(font
						(size 1.27 1.27)
					)
					(hide yes)
				)
			)
			(property "Description" "Resistor, small symbol"
				(at 0 0 0)
				(effects
					(font
						(size 1.27 1.27)
					)
					(hide yes)
				)
			)
			(property "ki_keywords" "R resistor"
				(at 0 0 0)
				(effects
					(font
						(size 1.27 1.27)
					)
					(hide yes)
				)
			)
			(property "ki_fp_filters" "R_*"
				(at 0 0 0)
				(effects
					(font
						(size 1.27 1.27)
					)
					(hide yes)
				)
			)
			(symbol "R_Small_0_1"
				(rectangle
					(start -0.762 1.778)
					(end 0.762 -1.778)
					(stroke
						(width 0.2032)
						(type default)
					)
					(fill
						(type none)
					)
				)
			)
			(symbol "R_Small_1_1"
				(pin passive line
					(at 0 2.54 270)
					(length 0.762)
					(name "~"
						(effects
							(font
								(size 1.27 1.27)
							)
						)
					)
					(number "1"
						(effects
							(font
								(size 1.27 1.27)
							)
						)
					)
				)
				(pin passive line
					(at 0 -2.54 90)
					(length 0.762)
					(name "~"
						(effects
							(font
								(size 1.27 1.27)
							)
						)
					)
					(number "2"
						(effects
							(font
								(size 1.27 1.27)
							)
						)
					)
				)
			)
		)
		(symbol "power:GND"
			(power)
			(pin_names
				(offset 0)
			)
			(exclude_from_sim no)
			(in_bom yes)
			(on_board yes)
			(property "Reference" "#PWR"
				(at 0 -6.35 0)
				(effects
					(font
						(size 1.27 1.27)
					)
					(hide yes)
				)
			)
			(property "Value" "GND"
				(at 0 -3.81 0)
				(effects
					(font
						(size 1.27 1.27)
					)
				)
			)
			(property "Footprint" ""
				(at 0 0 0)
				(effects
					(font
						(size 1.27 1.27)
					)
					(hide yes)
				)
			)
			(property "Datasheet" ""
				(at 0 0 0)
				(effects
					(font
						(size 1.27 1.27)
					)
					(hide yes)
				)
			)
			(property "Description" "Power symbol creates a global label with name \"GND\" , ground"
				(at 0 0 0)
				(effects
					(font
						(size 1.27 1.27)
					)
					(hide yes)
				)
			)
			(property "ki_keywords" "global power"
				(at 0 0 0)
				(effects
					(font
						(size 1.27 1.27)
					)
					(hide yes)
				)
			)
			(symbol "GND_0_1"
				(polyline
					(pts
						(xy 0 0) (xy 0 -1.27) (xy 1.27 -1.27) (xy 0 -2.54) (xy -1.27 -1.27) (xy 0 -1.27)
					)
					(stroke
						(width 0)
						(type default)
					)
					(fill
						(type none)
					)
				)
			)
			(symbol "GND_1_1"
				(pin power_in line
					(at 0 0 270)
					(length 0) hide
					(name "GND"
						(effects
							(font
								(size 1.27 1.27)
							)
						)
					)
					(number "1"
						(effects
							(font
								(size 1.27 1.27)
							)
						)
					)
				)
			)
		)
		(symbol "power:PWR_FLAG"
			(power)
			(pin_numbers hide)
			(pin_names
				(offset 0) hide)
			(exclude_from_sim no)
			(in_bom yes)
			(on_board yes)
			(property "Reference" "#FLG"
				(at 0 1.905 0)
				(effects
					(font
						(size 1.27 1.27)
					)
					(hide yes)
				)
			)
			(property "Value" "PWR_FLAG"
				(at 0 3.81 0)
				(effects
					(font
						(size 1.27 1.27)
					)
				)
			)
			(property "Footprint" ""
				(at 0 0 0)
				(effects
					(font
						(size 1.27 1.27)
					)
					(hide yes)
				)
			)
			(property "Datasheet" "~"
				(at 0 0 0)
				(effects
					(font
						(size 1.27 1.27)
					)
					(hide yes)
				)
			)
			(property "Description" "Special symbol for telling ERC where power comes from"
				(at 0 0 0)
				(effects
					(font
						(size 1.27 1.27)
					)
					(hide yes)
				)
			)
			(property "ki_keywords" "flag power"
				(at 0 0 0)
				(effects
					(font
						(size 1.27 1.27)
					)
					(hide yes)
				)
			)
			(symbol "PWR_FLAG_0_0"
				(pin power_out line
					(at 0 0 90)
					(length 0)
					(name "pwr"
						(effects
							(font
								(size 1.27 1.27)
							)
						)
					)
					(number "1"
						(effects
							(font
								(size 1.27 1.27)
							)
						)
					)
				)
			)
			(symbol "PWR_FLAG_0_1"
				(polyline
					(pts
						(xy 0 0) (xy 0 1.27) (xy -1.016 1.905) (xy 0 2.54) (xy 1.016 1.905) (xy 0 1.27)
					)
					(stroke
						(width 0)
						(type default)
					)
					(fill
						(type none)
					)
				)
			)
		)
		(symbol "power:VCC"
			(power)
			(pin_names
				(offset 0)
			)
			(exclude_from_sim no)
			(in_bom yes)
			(on_board yes)
			(property "Reference" "#PWR"
				(at 0 -3.81 0)
				(effects
					(font
						(size 1.27 1.27)
					)
					(hide yes)
				)
			)
			(property "Value" "VCC"
				(at 0 3.81 0)
				(effects
					(font
						(size 1.27 1.27)
					)
				)
			)
			(property "Footprint" ""
				(at 0 0 0)
				(effects
					(font
						(size 1.27 1.27)
					)
					(hide yes)
				)
			)
			(property "Datasheet" ""
				(at 0 0 0)
				(effects
					(font
						(size 1.27 1.27)
					)
					(hide yes)
				)
			)
			(property "Description" "Power symbol creates a global label with name \"VCC\""
				(at 0 0 0)
				(effects
					(font
						(size 1.27 1.27)
					)
					(hide yes)
				)
			)
			(property "ki_keywords" "global power"
				(at 0 0 0)
				(effects
					(font
						(size 1.27 1.27)
					)
					(hide yes)
				)
			)
			(symbol "VCC_0_1"
				(polyline
					(pts
						(xy -0.762 1.27) (xy 0 2.54)
					)
					(stroke
						(width 0)
						(type default)
					)
					(fill
						(type none)
					)
				)
				(polyline
					(pts
						(xy 0 0) (xy 0 2.54)
					)
					(stroke
						(width 0)
						(type default)
					)
					(fill
						(type none)
					)
				)
				(polyline
					(pts
						(xy 0 2.54) (xy 0.762 1.27)
					)
					(stroke
						(width 0)
						(type default)
					)
					(fill
						(type none)
					)
				)
			)
			(symbol "VCC_1_1"
				(pin power_in line
					(at 0 0 90)
					(length 0) hide
					(name "VCC"
						(effects
							(font
								(size 1.27 1.27)
							)
						)
					)
					(number "1"
						(effects
							(font
								(size 1.27 1.27)
							)
						)
					)
				)
			)
		)
	)
	(junction
		(at 72.39 34.29)
		(diameter 0)
		(color 0 0 0 0)
		(uuid "2716dd1a-74a0-44bf-ba5d-3e33e4fa97ad")
	)
	(junction
		(at 100.33 87.63)
		(diameter 0)
		(color 0 0 0 0)
		(uuid "56507f04-4966-42d7-b2dc-df10a0f8c8a2")
	)
	(junction
		(at 63.5 87.63)
		(diameter 0)
		(color 0 0 0 0)
		(uuid "7830baf8-cbf9-4b88-9103-789777ab5da9")
	)
	(junction
		(at 63.5 95.25)
		(diameter 0)
		(color 0 0 0 0)
		(uuid "b98e220d-256e-4162-abd4-90adab1ec5f8")
	)
	(junction
		(at 90.17 35.56)
		(diameter 0)
		(color 0 0 0 0)
		(uuid "c296570f-89b6-44d7-bc41-e0c0ba1ff591")
	)
	(wire
		(pts
			(xy 100.33 100.33) (xy 127 100.33)
		)
		(stroke
			(width 0)
			(type default)
		)
		(uuid "41816fdb-26e7-4c61-845d-c2cb42d1c193")
	)
	(wire
		(pts
			(xy 35.56 87.63) (xy 63.5 87.63)
		)
		(stroke
			(width 0)
			(type default)
		)
		(uuid "4d0d0d52-68cf-4422-9b94-eaf7c0d7010f")
	)
	(wire
		(pts
			(xy 35.56 97.79) (xy 63.5 97.79)
		)
		(stroke
			(width 0)
			(type default)
		)
		(uuid "4f1378cd-348e-4ebd-bd5e-fc202f4bc147")
	)
	(wire
		(pts
			(xy 100.33 97.79) (xy 127 97.79)
		)
		(stroke
			(width 0)
			(type default)
		)
		(uuid "50abd300-f655-4556-b99d-b704f247e049")
	)
	(wire
		(pts
			(xy 100.33 90.17) (xy 127 90.17)
		)
		(stroke
			(width 0)
			(type default)
		)
		(uuid "5767730d-9185-4220-bac6-96e00fd6dcf3")
	)
	(wire
		(pts
			(xy 90.17 35.56) (xy 90.17 41.91)
		)
		(stroke
			(width 0)
			(type default)
		)
		(uuid "5bd014c5-11f2-4c1c-8e37-3e8ec72438c9")
	)
	(wire
		(pts
			(xy 35.56 100.33) (xy 63.5 100.33)
		)
		(stroke
			(width 0)
			(type default)
		)
		(uuid "5faf3524-fea6-47f7-89bc-234a29a9af6d")
	)
	(wire
		(pts
			(xy 91.44 87.63) (xy 100.33 87.63)
		)
		(stroke
			(width 0)
			(type default)
		)
		(uuid "62e1b69b-479e-4818-99d3-fdfe5968db44")
	)
	(wire
		(pts
			(xy 82.55 77.47) (xy 82.55 73.66)
		)
		(stroke
			(width 0)
			(type default)
		)
		(uuid "6b2b1f6c-fdc5-4df2-b4a1-2a250d22f2fc")
	)
	(wire
		(pts
			(xy 63.5 87.63) (xy 73.66 87.63)
		)
		(stroke
			(width 0)
			(type default)
		)
		(uuid "6f0e54ff-409b-430c-8cc8-b34db34ec598")
	)
	(wire
		(pts
			(xy 35.56 102.87) (xy 63.5 102.87)
		)
		(stroke
			(width 0)
			(type default)
		)
		(uuid "85107ab7-006d-49b0-8a6a-ff306ac39c04")
	)
	(wire
		(pts
			(xy 82.55 95.25) (xy 63.5 95.25)
		)
		(stroke
			(width 0)
			(type default)
		)
		(uuid "933283ea-1c86-4242-a779-29463771597b")
	)
	(wire
		(pts
			(xy 35.56 90.17) (xy 63.5 90.17)
		)
		(stroke
			(width 0)
			(type default)
		)
		(uuid "95586a03-5c91-4bac-ad1a-e7aa5184ec94")
	)
	(wire
		(pts
			(xy 35.56 92.71) (xy 63.5 92.71)
		)
		(stroke
			(width 0)
			(type default)
		)
		(uuid "a3ce83f9-a8ca-4ce7-9828-7cce5e77c841")
	)
	(wire
		(pts
			(xy 82.55 73.66) (xy 85.09 73.66)
		)
		(stroke
			(width 0)
			(type default)
		)
		(uuid "a55f59eb-6539-4b3c-bff5-dc1e681eec0b")
	)
	(wire
		(pts
			(xy 35.56 95.25) (xy 63.5 95.25)
		)
		(stroke
			(width 0)
			(type default)
		)
		(uuid "ab744ad4-09ea-4c50-ba6e-e94c206926b4")
	)
	(wire
		(pts
			(xy 90.17 41.91) (xy 85.09 41.91)
		)
		(stroke
			(width 0)
			(type default)
		)
		(uuid "bcce5beb-9a1a-4783-94b2-43256b50957b")
	)
	(wire
		(pts
			(xy 82.55 82.55) (xy 82.55 95.25)
		)
		(stroke
			(width 0)
			(type default)
		)
		(uuid "be8a98fd-e69c-4495-9c24-238420c2ae2c")
	)
	(wire
		(pts
			(xy 72.39 34.29) (xy 72.39 41.91)
		)
		(stroke
			(width 0)
			(type default)
		)
		(uuid "c00c2ea4-b662-46d1-b808-005a169dff11")
	)
	(wire
		(pts
			(xy 91.44 82.55) (xy 91.44 87.63)
		)
		(stroke
			(width 0)
			(type default)
		)
		(uuid "e402761d-a1e6-4e12-abc0-52d64d66447b")
	)
	(wire
		(pts
			(xy 100.33 95.25) (xy 127 95.25)
		)
		(stroke
			(width 0)
			(type default)
		)
		(uuid "e4beff07-33de-46c5-850f-74b98a4312be")
	)
	(wire
		(pts
			(xy 100.33 92.71) (xy 127 92.71)
		)
		(stroke
			(width 0)
			(type default)
		)
		(uuid "e83813a0-edf4-4d4c-b3aa-78f9cc0ebed7")
	)
	(wire
		(pts
			(xy 100.33 87.63) (xy 127 87.63)
		)
		(stroke
			(width 0)
			(type default)
		)
		(uuid "ea7cd7ff-35bf-4e47-8051-871542951794")
	)
	(wire
		(pts
			(xy 73.66 87.63) (xy 73.66 81.28)
		)
		(stroke
			(width 0)
			(type default)
		)
		(uuid "ee5c100c-6f0c-407e-ad82-fb75aee20315")
	)
	(wire
		(pts
			(xy 72.39 41.91) (xy 80.01 41.91)
		)
		(stroke
			(width 0)
			(type default)
		)
		(uuid "f1046e3b-89bd-4522-8f9d-f15f9a6ca1f1")
	)
	(wire
		(pts
			(xy 85.09 54.61) (xy 85.09 73.66)
		)
		(stroke
			(width 0)
			(type default)
		)
		(uuid "fee906cb-9495-46f2-92e8-fd4cf1d5d8a0")
	)
	(global_label "PB3 - RESET"
		(shape input)
		(at 85.09 54.61 0)
		(fields_autoplaced yes)
		(effects
			(font
				(size 1.27 1.27)
			)
			(justify left)
		)
		(uuid "58224cbc-40a3-4073-8b9c-6dd36eaa2743")
		(property "Intersheetrefs" "${INTERSHEET_REFS}"
			(at 101.0774 54.61 0)
			(effects
				(font
					(size 1.27 1.27)
				)
				(justify left)
				(hide yes)
			)
		)
	)
	(global_label "PA6 - MOSI"
		(shape input)
		(at 63.5 102.87 0)
		(fields_autoplaced yes)
		(effects
			(font
				(size 1.27 1.27)
			)
			(justify left)
		)
		(uuid "5cd1268a-fbc7-41a8-889e-7d80b8256364")
		(property "Intersheetrefs" "${INTERSHEET_REFS}"
			(at 77.6665 102.87 0)
			(effects
				(font
					(size 1.27 1.27)
				)
				(justify left)
				(hide yes)
			)
		)
	)
	(global_label "PB0"
		(shape input)
		(at 63.5 90.17 0)
		(fields_autoplaced yes)
		(effects
			(font
				(size 1.27 1.27)
			)
			(justify left)
		)
		(uuid "6070486d-0f4b-43be-a89a-70ba1a094579")
		(property "Intersheetrefs" "${INTERSHEET_REFS}"
			(at 70.1553 90.17 0)
			(effects
				(font
					(size 1.27 1.27)
				)
				(justify left)
				(hide yes)
			)
		)
	)
	(global_label "PA2"
		(shape input)
		(at 100.33 95.25 180)
		(fields_autoplaced yes)
		(effects
			(font
				(size 1.27 1.27)
			)
			(justify right)
		)
		(uuid "65e0e1b3-d996-4acd-8a6d-4ef059e0b7f2")
		(property "Intersheetrefs" "${INTERSHEET_REFS}"
			(at 93.8561 95.25 0)
			(effects
				(font
					(size 1.27 1.27)
				)
				(justify right)
				(hide yes)
			)
		)
	)
	(global_label "PB1"
		(shape input)
		(at 63.5 92.71 0)
		(fields_autoplaced yes)
		(effects
			(font
				(size 1.27 1.27)
			)
			(justify left)
		)
		(uuid "6a24b802-ea92-4515-824a-bf77cb5d2d11")
		(property "Intersheetrefs" "${INTERSHEET_REFS}"
			(at 70.1553 92.71 0)
			(effects
				(font
					(size 1.27 1.27)
				)
				(justify left)
				(hide yes)
			)
		)
	)
	(global_label "PB2"
		(shape input)
		(at 63.5 97.79 0)
		(fields_autoplaced yes)
		(effects
			(font
				(size 1.27 1.27)
			)
			(justify left)
		)
		(uuid "939edcbf-9dbc-494b-af2f-78a1bed84b5b")
		(property "Intersheetrefs" "${INTERSHEET_REFS}"
			(at 70.1553 97.79 0)
			(effects
				(font
					(size 1.27 1.27)
				)
				(justify left)
				(hide yes)
			)
		)
	)
	(global_label "PA4 - SCK"
		(shape input)
		(at 82.55 54.61 270)
		(fields_autoplaced yes)
		(effects
			(font
				(size 1.27 1.27)
			)
			(justify right)
		)
		(uuid "9b7a9612-f65e-463f-adf4-8d82ae00f7a7")
		(property "Intersheetrefs" "${INTERSHEET_REFS}"
			(at 82.55 67.9298 90)
			(effects
				(font
					(size 1.27 1.27)
				)
				(justify right)
				(hide yes)
			)
		)
	)
	(global_label "PA5 - MISO"
		(shape input)
		(at 100.33 100.33 180)
		(fields_autoplaced yes)
		(effects
			(font
				(size 1.27 1.27)
			)
			(justify right)
		)
		(uuid "a0d09677-282e-4504-a007-141f227d334c")
		(property "Intersheetrefs" "${INTERSHEET_REFS}"
			(at 86.1635 100.33 0)
			(effects
				(font
					(size 1.27 1.27)
				)
				(justify right)
				(hide yes)
			)
		)
	)
	(global_label "PA7"
		(shape input)
		(at 63.5 100.33 0)
		(fields_autoplaced yes)
		(effects
			(font
				(size 1.27 1.27)
			)
			(justify left)
		)
		(uuid "a8031810-9513-4254-a6e4-410dfd114082")
		(property "Intersheetrefs" "${INTERSHEET_REFS}"
			(at 69.9739 100.33 0)
			(effects
				(font
					(size 1.27 1.27)
				)
				(justify left)
				(hide yes)
			)
		)
	)
	(global_label "PA6 - MOSI"
		(shape input)
		(at 82.55 41.91 90)
		(fields_autoplaced yes)
		(effects
			(font
				(size 1.27 1.27)
			)
			(justify left)
		)
		(uuid "a9f51d23-9a3e-4155-9f1b-9a2f015d3c50")
		(property "Intersheetrefs" "${INTERSHEET_REFS}"
			(at 82.55 27.7435 90)
			(effects
				(font
					(size 1.27 1.27)
				)
				(justify left)
				(hide yes)
			)
		)
	)
	(global_label "PA5 - MISO"
		(shape input)
		(at 80.01 54.61 270)
		(fields_autoplaced yes)
		(effects
			(font
				(size 1.27 1.27)
			)
			(justify right)
		)
		(uuid "b0639d72-cbcb-4263-b5d5-cb11f46d3bfe")
		(property "Intersheetrefs" "${INTERSHEET_REFS}"
			(at 80.01 68.7765 90)
			(effects
				(font
					(size 1.27 1.27)
				)
				(justify right)
				(hide yes)
			)
		)
	)
	(global_label "PA4 - SCK"
		(shape input)
		(at 100.33 97.79 180)
		(fields_autoplaced yes)
		(effects
			(font
				(size 1.27 1.27)
			)
			(justify right)
		)
		(uuid "bf954fb8-49df-4650-af1b-c679c97a7a88")
		(property "Intersheetrefs" "${INTERSHEET_REFS}"
			(at 87.0102 97.79 0)
			(effects
				(font
					(size 1.27 1.27)
				)
				(justify right)
				(hide yes)
			)
		)
	)
	(global_label "PA1"
		(shape input)
		(at 100.33 92.71 180)
		(fields_autoplaced yes)
		(effects
			(font
				(size 1.27 1.27)
			)
			(justify right)
		)
		(uuid "c3400339-8962-4ac2-b6d2-a4fd9f0d76a7")
		(property "Intersheetrefs" "${INTERSHEET_REFS}"
			(at 93.8561 92.71 0)
			(effects
				(font
					(size 1.27 1.27)
				)
				(justify right)
				(hide yes)
			)
		)
	)
	(global_label "PA0"
		(shape input)
		(at 100.33 90.17 180)
		(fields_autoplaced yes)
		(effects
			(font
				(size 1.27 1.27)
			)
			(justify right)
		)
		(uuid "dc22a51b-f626-4aa5-941e-319e66aad7ad")
		(property "Intersheetrefs" "${INTERSHEET_REFS}"
			(at 93.8561 90.17 0)
			(effects
				(font
					(size 1.27 1.27)
				)
				(justify right)
				(hide yes)
			)
		)
	)
	(symbol
		(lib_id "power:PWR_FLAG")
		(at 72.39 34.29 90)
		(unit 1)
		(exclude_from_sim no)
		(in_bom yes)
		(on_board yes)
		(dnp no)
		(fields_autoplaced yes)
		(uuid "020ea27a-114a-4e76-9264-216a57f87975")
		(property "Reference" "#FLG01"
			(at 70.485 34.29 0)
			(effects
				(font
					(size 1.27 1.27)
				)
				(hide yes)
			)
		)
		(property "Value" "PWR_FLAG"
			(at 68.58 34.925 90)
			(effects
				(font
					(size 1.27 1.27)
				)
				(justify left)
			)
		)
		(property "Footprint" ""
			(at 72.39 34.29 0)
			(effects
				(font
					(size 1.27 1.27)
				)
				(hide yes)
			)
		)
		(property "Datasheet" "~"
			(at 72.39 34.29 0)
			(effects
				(font
					(size 1.27 1.27)
				)
				(hide yes)
			)
		)
		(property "Description" ""
			(at 72.39 34.29 0)
			(effects
				(font
					(size 1.27 1.27)
				)
				(hide yes)
			)
		)
		(pin "1"
			(uuid "c1f95879-865c-40b6-a19c-784b9a079ab1")
		)
		(instances
			(project "attiny84_holder"
				(path "/f2ac4f55-de25-4c8a-b6e1-20c8a25b9685"
					(reference "#FLG01")
					(unit 1)
				)
			)
		)
	)
	(symbol
		(lib_id "power:GND")
		(at 91.44 82.55 180)
		(unit 1)
		(exclude_from_sim no)
		(in_bom yes)
		(on_board yes)
		(dnp no)
		(fields_autoplaced yes)
		(uuid "38f8c725-2824-41a5-98c8-ff1e8dad7637")
		(property "Reference" "#PWR05"
			(at 91.44 76.2 0)
			(effects
				(font
					(size 1.27 1.27)
				)
				(hide yes)
			)
		)
		(property "Value" "GND"
			(at 91.44 78.74 0)
			(effects
				(font
					(size 1.27 1.27)
				)
			)
		)
		(property "Footprint" ""
			(at 91.44 82.55 0)
			(effects
				(font
					(size 1.27 1.27)
				)
				(hide yes)
			)
		)
		(property "Datasheet" ""
			(at 91.44 82.55 0)
			(effects
				(font
					(size 1.27 1.27)
				)
				(hide yes)
			)
		)
		(property "Description" ""
			(at 91.44 82.55 0)
			(effects
				(font
					(size 1.27 1.27)
				)
				(hide yes)
			)
		)
		(pin "1"
			(uuid "51c81dc4-c385-409b-ba3a-923dd15d0cf7")
		)
		(instances
			(project "attiny84_breakout"
				(path "/c155a606-340e-45a1-9efb-e9f13a1803e9"
					(reference "#PWR05")
					(unit 1)
				)
			)
			(project "attiny84_holder"
				(path "/f2ac4f55-de25-4c8a-b6e1-20c8a25b9685"
					(reference "#PWR02")
					(unit 1)
				)
			)
		)
	)
	(symbol
		(lib_id "Connector:Conn_01x06_Pin")
		(at 105.41 95.25 180)
		(unit 1)
		(exclude_from_sim no)
		(in_bom yes)
		(on_board yes)
		(dnp no)
		(uuid "591d8bfa-e39e-4d53-ac34-307c7fd74be2")
		(property "Reference" "J3"
			(at 102.87 83.82 0)
			(effects
				(font
					(size 1.27 1.27)
				)
				(justify right)
			)
		)
		(property "Value" "conn_right"
			(at 100.33 102.87 0)
			(effects
				(font
					(size 1.27 1.27)
				)
				(justify right)
			)
		)
		(property "Footprint" "Connector_PinSocket_2.54mm:PinSocket_1x06_P2.54mm_Vertical"
			(at 105.41 95.25 0)
			(effects
				(font
					(size 1.27 1.27)
				)
				(hide yes)
			)
		)
		(property "Datasheet" "~"
			(at 105.41 95.25 0)
			(effects
				(font
					(size 1.27 1.27)
				)
				(hide yes)
			)
		)
		(property "Description" ""
			(at 105.41 95.25 0)
			(effects
				(font
					(size 1.27 1.27)
				)
				(hide yes)
			)
		)
		(pin "1"
			(uuid "2977ec51-6021-451a-bdd3-0ddeb1795ff3")
		)
		(pin "2"
			(uuid "1d92ad2b-4f7b-4818-b1f4-00426e2ad0bc")
		)
		(pin "3"
			(uuid "dd1a59f4-1051-4451-a202-1b1693d22b27")
		)
		(pin "4"
			(uuid "c687b082-2061-4f04-9d33-13bd8a7d1a16")
		)
		(pin "5"
			(uuid "1becfffd-1ed3-48ec-bfc5-4db271c4d7b9")
		)
		(pin "6"
			(uuid "0c4a41f3-c3fd-47c7-8654-2e79c4c69d01")
		)
		(instances
			(project "attiny84_breakout"
				(path "/c155a606-340e-45a1-9efb-e9f13a1803e9"
					(reference "J3")
					(unit 1)
				)
			)
			(project "attiny84_holder"
				(path "/f2ac4f55-de25-4c8a-b6e1-20c8a25b9685"
					(reference "J3")
					(unit 1)
				)
			)
		)
	)
	(symbol
		(lib_id "Connector:Conn_01x06_Pin")
		(at 132.08 95.25 180)
		(unit 1)
		(exclude_from_sim no)
		(in_bom yes)
		(on_board yes)
		(dnp no)
		(uuid "650af8dd-771b-4d40-9afd-c2e23078673e")
		(property "Reference" "J3"
			(at 129.54 83.82 0)
			(effects
				(font
					(size 1.27 1.27)
				)
				(justify right)
			)
		)
		(property "Value" "conn_right_3"
			(at 127 102.87 0)
			(effects
				(font
					(size 1.27 1.27)
				)
				(justify right)
			)
		)
		(property "Footprint" "Connector_PinHeader_2.54mm:PinHeader_1x06_P2.54mm_Vertical"
			(at 132.08 95.25 0)
			(effects
				(font
					(size 1.27 1.27)
				)
				(hide yes)
			)
		)
		(property "Datasheet" "~"
			(at 132.08 95.25 0)
			(effects
				(font
					(size 1.27 1.27)
				)
				(hide yes)
			)
		)
		(property "Description" ""
			(at 132.08 95.25 0)
			(effects
				(font
					(size 1.27 1.27)
				)
				(hide yes)
			)
		)
		(pin "1"
			(uuid "948cd424-0f2c-4b3a-a86d-90b499105245")
		)
		(pin "2"
			(uuid "2906a0a6-5ed0-449f-9977-6d6e956f521e")
		)
		(pin "3"
			(uuid "a71b7c37-bb05-4153-bd4c-3c8c69393d7c")
		)
		(pin "4"
			(uuid "ee84d070-0ba2-42d7-9259-ca48b959b00c")
		)
		(pin "5"
			(uuid "ba318a19-1f55-4fb7-b343-2a56ee5367e5")
		)
		(pin "6"
			(uuid "1e43717c-9fe7-49b9-a769-6c7daa36cee7")
		)
		(instances
			(project "attiny84_breakout"
				(path "/c155a606-340e-45a1-9efb-e9f13a1803e9"
					(reference "J3")
					(unit 1)
				)
			)
			(project "attiny84_holder"
				(path "/f2ac4f55-de25-4c8a-b6e1-20c8a25b9685"
					(reference "J7")
					(unit 1)
				)
			)
		)
	)
	(symbol
		(lib_id "Device:R_Small")
		(at 82.55 80.01 0)
		(unit 1)
		(exclude_from_sim no)
		(in_bom yes)
		(on_board yes)
		(dnp no)
		(fields_autoplaced yes)
		(uuid "7036d6c8-9665-45bf-a60e-d16d40145027")
		(property "Reference" "R1"
			(at 85.09 78.7399 0)
			(effects
				(font
					(size 1.27 1.27)
				)
				(justify left)
			)
		)
		(property "Value" "0R"
			(at 85.09 81.2799 0)
			(effects
				(font
					(size 1.27 1.27)
				)
				(justify left)
			)
		)
		(property "Footprint" "Resistor_SMD:R_1206_3216Metric_Pad1.30x1.75mm_HandSolder"
			(at 82.55 80.01 0)
			(effects
				(font
					(size 1.27 1.27)
				)
				(hide yes)
			)
		)
		(property "Datasheet" "~"
			(at 82.55 80.01 0)
			(effects
				(font
					(size 1.27 1.27)
				)
				(hide yes)
			)
		)
		(property "Description" "Resistor, small symbol"
			(at 82.55 80.01 0)
			(effects
				(font
					(size 1.27 1.27)
				)
				(hide yes)
			)
		)
		(pin "2"
			(uuid "9ee5a9a7-dc15-475d-afcf-4267efb5a23d")
		)
		(pin "1"
			(uuid "79a593d5-41a5-4111-96c1-1b693bafbedb")
		)
		(instances
			(project "attiny84_holder"
				(path "/f2ac4f55-de25-4c8a-b6e1-20c8a25b9685"
					(reference "R1")
					(unit 1)
				)
			)
		)
	)
	(symbol
		(lib_id "power:PWR_FLAG")
		(at 90.17 35.56 270)
		(unit 1)
		(exclude_from_sim no)
		(in_bom yes)
		(on_board yes)
		(dnp no)
		(fields_autoplaced yes)
		(uuid "7770c40f-9d0e-4346-9c7f-3daeaaba7837")
		(property "Reference" "#FLG02"
			(at 92.075 35.56 0)
			(effects
				(font
					(size 1.27 1.27)
				)
				(hide yes)
			)
		)
		(property "Value" "PWR_FLAG"
			(at 93.98 36.195 90)
			(effects
				(font
					(size 1.27 1.27)
				)
				(justify left)
			)
		)
		(property "Footprint" ""
			(at 90.17 35.56 0)
			(effects
				(font
					(size 1.27 1.27)
				)
				(hide yes)
			)
		)
		(property "Datasheet" "~"
			(at 90.17 35.56 0)
			(effects
				(font
					(size 1.27 1.27)
				)
				(hide yes)
			)
		)
		(property "Description" ""
			(at 90.17 35.56 0)
			(effects
				(font
					(size 1.27 1.27)
				)
				(hide yes)
			)
		)
		(pin "1"
			(uuid "1244799f-58cc-49cb-8286-516e0e258289")
		)
		(instances
			(project "attiny84_holder"
				(path "/f2ac4f55-de25-4c8a-b6e1-20c8a25b9685"
					(reference "#FLG02")
					(unit 1)
				)
			)
		)
	)
	(symbol
		(lib_id "power:VCC")
		(at 72.39 34.29 0)
		(unit 1)
		(exclude_from_sim no)
		(in_bom yes)
		(on_board yes)
		(dnp no)
		(fields_autoplaced yes)
		(uuid "81eb680f-5062-479e-a1bb-8d1e451cd061")
		(property "Reference" "#PWR06"
			(at 72.39 38.1 0)
			(effects
				(font
					(size 1.27 1.27)
				)
				(hide yes)
			)
		)
		(property "Value" "VCC"
			(at 72.39 30.48 0)
			(effects
				(font
					(size 1.27 1.27)
				)
			)
		)
		(property "Footprint" ""
			(at 72.39 34.29 0)
			(effects
				(font
					(size 1.27 1.27)
				)
				(hide yes)
			)
		)
		(property "Datasheet" ""
			(at 72.39 34.29 0)
			(effects
				(font
					(size 1.27 1.27)
				)
				(hide yes)
			)
		)
		(property "Description" ""
			(at 72.39 34.29 0)
			(effects
				(font
					(size 1.27 1.27)
				)
				(hide yes)
			)
		)
		(pin "1"
			(uuid "bd454860-ed07-4890-a740-d8e9b8981628")
		)
		(instances
			(project "attiny84_breakout"
				(path "/c155a606-340e-45a1-9efb-e9f13a1803e9"
					(reference "#PWR06")
					(unit 1)
				)
			)
			(project "attiny84_holder"
				(path "/f2ac4f55-de25-4c8a-b6e1-20c8a25b9685"
					(reference "#PWR03")
					(unit 1)
				)
			)
		)
	)
	(symbol
		(lib_id "Connector_Generic:Conn_02x03_Odd_Even")
		(at 82.55 49.53 90)
		(unit 1)
		(exclude_from_sim no)
		(in_bom yes)
		(on_board yes)
		(dnp no)
		(fields_autoplaced yes)
		(uuid "90ad4f4e-7d25-46af-a077-530dab8834a9")
		(property "Reference" "J8"
			(at 87.63 47.625 90)
			(effects
				(font
					(size 1.27 1.27)
				)
				(justify right)
			)
		)
		(property "Value" "ISP Programmer"
			(at 87.63 50.165 90)
			(effects
				(font
					(size 1.27 1.27)
				)
				(justify right)
			)
		)
		(property "Footprint" "Connector_PinHeader_2.54mm:PinHeader_2x03_P2.54mm_Vertical"
			(at 82.55 49.53 0)
			(effects
				(font
					(size 1.27 1.27)
				)
				(hide yes)
			)
		)
		(property "Datasheet" "~"
			(at 82.55 49.53 0)
			(effects
				(font
					(size 1.27 1.27)
				)
				(hide yes)
			)
		)
		(property "Description" ""
			(at 82.55 49.53 0)
			(effects
				(font
					(size 1.27 1.27)
				)
				(hide yes)
			)
		)
		(pin "1"
			(uuid "503fd8ec-ed2e-46cf-b01c-570f5a59a781")
		)
		(pin "2"
			(uuid "1b31ac89-476b-4c37-8ee6-4a54c827d5d7")
		)
		(pin "3"
			(uuid "96f8b983-fceb-46e8-903f-e9b59a4c7e22")
		)
		(pin "4"
			(uuid "4212376d-e314-4894-a3dd-ac9cefb7ed42")
		)
		(pin "5"
			(uuid "d44062cb-de50-4e30-b6b3-326e48037768")
		)
		(pin "6"
			(uuid "155bab53-d2b3-4f59-9152-71245c66dd49")
		)
		(instances
			(project "attiny84_holder"
				(path "/f2ac4f55-de25-4c8a-b6e1-20c8a25b9685"
					(reference "J8")
					(unit 1)
				)
			)
		)
	)
	(symbol
		(lib_id "Connector:Conn_01x07_Pin")
		(at 58.42 95.25 0)
		(unit 1)
		(exclude_from_sim no)
		(in_bom yes)
		(on_board yes)
		(dnp no)
		(uuid "bc3f5594-f270-4660-be67-9c749a145491")
		(property "Reference" "J2"
			(at 62.23 106.68 0)
			(effects
				(font
					(size 1.27 1.27)
				)
				(justify right)
			)
		)
		(property "Value" "conn_left"
			(at 66.04 83.82 0)
			(effects
				(font
					(size 1.27 1.27)
				)
				(justify right)
			)
		)
		(property "Footprint" "Connector_PinSocket_2.54mm:PinSocket_1x07_P2.54mm_Vertical"
			(at 58.42 95.25 0)
			(effects
				(font
					(size 1.27 1.27)
				)
				(hide yes)
			)
		)
		(property "Datasheet" "~"
			(at 58.42 95.25 0)
			(effects
				(font
					(size 1.27 1.27)
				)
				(hide yes)
			)
		)
		(property "Description" ""
			(at 58.42 95.25 0)
			(effects
				(font
					(size 1.27 1.27)
				)
				(hide yes)
			)
		)
		(pin "1"
			(uuid "f1457a29-1c48-4f20-a4e5-e7b7af597967")
		)
		(pin "2"
			(uuid "9c6a5937-563c-429d-aa7d-457c6901567a")
		)
		(pin "3"
			(uuid "f2fc75d1-e890-4358-a5e2-13671e699746")
		)
		(pin "4"
			(uuid "ebc575ad-d7f2-4854-801f-a20f672c89a2")
		)
		(pin "5"
			(uuid "8fe808da-e089-4df2-8487-567d96a001b8")
		)
		(pin "6"
			(uuid "5645d9c9-8d10-495f-815d-e624d5e976ea")
		)
		(pin "7"
			(uuid "1ee4fb1e-cd1f-4c31-bd79-bcd7ed67c020")
		)
		(instances
			(project "attiny84_breakout"
				(path "/c155a606-340e-45a1-9efb-e9f13a1803e9"
					(reference "J2")
					(unit 1)
				)
			)
			(project "attiny84_holder"
				(path "/f2ac4f55-de25-4c8a-b6e1-20c8a25b9685"
					(reference "J2")
					(unit 1)
				)
			)
		)
	)
	(symbol
		(lib_id "power:GND")
		(at 90.17 35.56 180)
		(unit 1)
		(exclude_from_sim no)
		(in_bom yes)
		(on_board yes)
		(dnp no)
		(fields_autoplaced yes)
		(uuid "c3e7b248-90a5-4f2f-9669-663f15941fe6")
		(property "Reference" "#PWR05"
			(at 90.17 29.21 0)
			(effects
				(font
					(size 1.27 1.27)
				)
				(hide yes)
			)
		)
		(property "Value" "GND"
			(at 90.17 31.75 0)
			(effects
				(font
					(size 1.27 1.27)
				)
			)
		)
		(property "Footprint" ""
			(at 90.17 35.56 0)
			(effects
				(font
					(size 1.27 1.27)
				)
				(hide yes)
			)
		)
		(property "Datasheet" ""
			(at 90.17 35.56 0)
			(effects
				(font
					(size 1.27 1.27)
				)
				(hide yes)
			)
		)
		(property "Description" ""
			(at 90.17 35.56 0)
			(effects
				(font
					(size 1.27 1.27)
				)
				(hide yes)
			)
		)
		(pin "1"
			(uuid "68282e98-71be-4066-97de-f42dc9b88bba")
		)
		(instances
			(project "attiny84_breakout"
				(path "/c155a606-340e-45a1-9efb-e9f13a1803e9"
					(reference "#PWR05")
					(unit 1)
				)
			)
			(project "attiny84_holder"
				(path "/f2ac4f55-de25-4c8a-b6e1-20c8a25b9685"
					(reference "#PWR04")
					(unit 1)
				)
			)
		)
	)
	(symbol
		(lib_id "power:VCC")
		(at 73.66 81.28 0)
		(unit 1)
		(exclude_from_sim no)
		(in_bom yes)
		(on_board yes)
		(dnp no)
		(fields_autoplaced yes)
		(uuid "de9ee503-80ab-4e29-a0ae-468817d32363")
		(property "Reference" "#PWR06"
			(at 73.66 85.09 0)
			(effects
				(font
					(size 1.27 1.27)
				)
				(hide yes)
			)
		)
		(property "Value" "VCC"
			(at 73.66 77.47 0)
			(effects
				(font
					(size 1.27 1.27)
				)
			)
		)
		(property "Footprint" ""
			(at 73.66 81.28 0)
			(effects
				(font
					(size 1.27 1.27)
				)
				(hide yes)
			)
		)
		(property "Datasheet" ""
			(at 73.66 81.28 0)
			(effects
				(font
					(size 1.27 1.27)
				)
				(hide yes)
			)
		)
		(property "Description" ""
			(at 73.66 81.28 0)
			(effects
				(font
					(size 1.27 1.27)
				)
				(hide yes)
			)
		)
		(pin "1"
			(uuid "e16d4002-fc13-4d07-9d64-cf1dcffc8f96")
		)
		(instances
			(project "attiny84_breakout"
				(path "/c155a606-340e-45a1-9efb-e9f13a1803e9"
					(reference "#PWR06")
					(unit 1)
				)
			)
			(project "attiny84_holder"
				(path "/f2ac4f55-de25-4c8a-b6e1-20c8a25b9685"
					(reference "#PWR01")
					(unit 1)
				)
			)
		)
	)
	(symbol
		(lib_id "Connector:Conn_01x07_Pin")
		(at 30.48 95.25 0)
		(unit 1)
		(exclude_from_sim no)
		(in_bom yes)
		(on_board yes)
		(dnp no)
		(uuid "e5e24dde-9855-4d44-8fee-de1deae14b4b")
		(property "Reference" "J2"
			(at 34.29 106.68 0)
			(effects
				(font
					(size 1.27 1.27)
				)
				(justify right)
			)
		)
		(property "Value" "conn_left_3"
			(at 38.1 83.82 0)
			(effects
				(font
					(size 1.27 1.27)
				)
				(justify right)
			)
		)
		(property "Footprint" "Connector_PinHeader_2.54mm:PinHeader_1x07_P2.54mm_Vertical"
			(at 30.48 95.25 0)
			(effects
				(font
					(size 1.27 1.27)
				)
				(hide yes)
			)
		)
		(property "Datasheet" "~"
			(at 30.48 95.25 0)
			(effects
				(font
					(size 1.27 1.27)
				)
				(hide yes)
			)
		)
		(property "Description" ""
			(at 30.48 95.25 0)
			(effects
				(font
					(size 1.27 1.27)
				)
				(hide yes)
			)
		)
		(pin "1"
			(uuid "d951993d-32d8-4918-a189-c37db27e98ca")
		)
		(pin "2"
			(uuid "f1c8937a-3acc-43a7-a1f4-711d8f6f8ec0")
		)
		(pin "3"
			(uuid "1216ba4f-a1ba-4563-a219-8d21057de354")
		)
		(pin "4"
			(uuid "26d4fa56-3909-4906-ac71-45a422e0fae2")
		)
		(pin "5"
			(uuid "fe78769b-5ead-4bc3-8484-88a9116ee01f")
		)
		(pin "6"
			(uuid "c91c205c-e4a6-4e74-abce-c4207672305e")
		)
		(pin "7"
			(uuid "fa908552-bfee-41f9-b5ee-2c0961284a07")
		)
		(instances
			(project "attiny84_breakout"
				(path "/c155a606-340e-45a1-9efb-e9f13a1803e9"
					(reference "J2")
					(unit 1)
				)
			)
			(project "attiny84_holder"
				(path "/f2ac4f55-de25-4c8a-b6e1-20c8a25b9685"
					(reference "J6")
					(unit 1)
				)
			)
		)
	)
	(sheet_instances
		(path "/"
			(page "1")
		)
	)
)