{
  "build": {
    "core": "stm32",
    "cpu": "cortex-m0plus",
    "extra_flags": "-DSTM32G0xx -DSTM32G030xx",
    "f_cpu": "64000000L",
    "framework_extra_flags": {
      "arduino": "-D__CORTEX_SC=0"
    },
    "mcu": "stm32g030f6",
    "product_line": "STM32G030xx",
    "variant": "STM32C0xx/C011F6_WEACT"
  },
  "debug": {
    "default_tools": [
      "stlink"
    ],
    "jlink_device": "STM32g031g8",
    "onboard_tools": [
      "stlink"
    ],
    "openocd_target": "stm32g0x",
    "svd_path": "STM32G031.svd"
  },
  "frameworks": [
    "arduino",
    "cmsis",
    "stm32cube",
    "libopencm3"
  ],
  "name": "STM32C011 (8kb RAM. 64kb Flash)",
  "upload": {
    "maximum_ram_size": 6144,
    "maximum_size": 32768,
    "protocol": "stlink",
    "protocols": [
      "blackmagic",
      "dfu",
      "jlink",
      "serial",
      "stlink"
    ]
  },
  "url": "https://www.st.com/en/microcontrollers-microprocessors/stm32f423ch.html",
  "vendor": "Generic"
}
