G04 #@! TF.GenerationSoftware,KiCad,Pcbnew,8.0.1*
G04 #@! TF.CreationDate,2024-03-29T17:18:10+01:00*
G04 #@! TF.ProjectId,stm8_breakout,73746d38-5f62-4726-9561-6b6f75742e6b,rev?*
G04 #@! TF.SameCoordinates,PX42a96e0PY46c33c0*
G04 #@! TF.FileFunction,Legend,Top*
G04 #@! TF.FilePolarity,Positive*
%FSLAX46Y46*%
G04 Gerber Fmt 4.6, Leading zero omitted, Abs format (unit mm)*
G04 Created by KiCad (PCBNEW 8.0.1) date 2024-03-29 17:18:10*
%MOMM*%
%LPD*%
G01*
G04 APERTURE LIST*
%ADD10C,0.150000*%
%ADD11C,0.120000*%
G04 APERTURE END LIST*
D10*
X11485580Y7739334D02*
X11533200Y7691715D01*
X11533200Y7691715D02*
X11580819Y7548858D01*
X11580819Y7548858D02*
X11580819Y7453620D01*
X11580819Y7453620D02*
X11533200Y7310763D01*
X11533200Y7310763D02*
X11437961Y7215525D01*
X11437961Y7215525D02*
X11342723Y7167906D01*
X11342723Y7167906D02*
X11152247Y7120287D01*
X11152247Y7120287D02*
X11009390Y7120287D01*
X11009390Y7120287D02*
X10818914Y7167906D01*
X10818914Y7167906D02*
X10723676Y7215525D01*
X10723676Y7215525D02*
X10628438Y7310763D01*
X10628438Y7310763D02*
X10580819Y7453620D01*
X10580819Y7453620D02*
X10580819Y7548858D01*
X10580819Y7548858D02*
X10628438Y7691715D01*
X10628438Y7691715D02*
X10676057Y7739334D01*
X11580819Y8691715D02*
X11580819Y8120287D01*
X11580819Y8406001D02*
X10580819Y8406001D01*
X10580819Y8406001D02*
X10723676Y8310763D01*
X10723676Y8310763D02*
X10818914Y8215525D01*
X10818914Y8215525D02*
X10866533Y8120287D01*
X13333333Y6840420D02*
X13285714Y6792800D01*
X13285714Y6792800D02*
X13142857Y6745181D01*
X13142857Y6745181D02*
X13047619Y6745181D01*
X13047619Y6745181D02*
X12904762Y6792800D01*
X12904762Y6792800D02*
X12809524Y6888039D01*
X12809524Y6888039D02*
X12761905Y6983277D01*
X12761905Y6983277D02*
X12714286Y7173753D01*
X12714286Y7173753D02*
X12714286Y7316610D01*
X12714286Y7316610D02*
X12761905Y7507086D01*
X12761905Y7507086D02*
X12809524Y7602324D01*
X12809524Y7602324D02*
X12904762Y7697562D01*
X12904762Y7697562D02*
X13047619Y7745181D01*
X13047619Y7745181D02*
X13142857Y7745181D01*
X13142857Y7745181D02*
X13285714Y7697562D01*
X13285714Y7697562D02*
X13333333Y7649943D01*
X13714286Y7649943D02*
X13761905Y7697562D01*
X13761905Y7697562D02*
X13857143Y7745181D01*
X13857143Y7745181D02*
X14095238Y7745181D01*
X14095238Y7745181D02*
X14190476Y7697562D01*
X14190476Y7697562D02*
X14238095Y7649943D01*
X14238095Y7649943D02*
X14285714Y7554705D01*
X14285714Y7554705D02*
X14285714Y7459467D01*
X14285714Y7459467D02*
X14238095Y7316610D01*
X14238095Y7316610D02*
X13666667Y6745181D01*
X13666667Y6745181D02*
X14285714Y6745181D01*
X16714095Y14547181D02*
X16714095Y13737658D01*
X16714095Y13737658D02*
X16761714Y13642420D01*
X16761714Y13642420D02*
X16809333Y13594800D01*
X16809333Y13594800D02*
X16904571Y13547181D01*
X16904571Y13547181D02*
X17095047Y13547181D01*
X17095047Y13547181D02*
X17190285Y13594800D01*
X17190285Y13594800D02*
X17237904Y13642420D01*
X17237904Y13642420D02*
X17285523Y13737658D01*
X17285523Y13737658D02*
X17285523Y14547181D01*
X18285523Y13547181D02*
X17714095Y13547181D01*
X17999809Y13547181D02*
X17999809Y14547181D01*
X17999809Y14547181D02*
X17904571Y14404324D01*
X17904571Y14404324D02*
X17809333Y14309086D01*
X17809333Y14309086D02*
X17714095Y14261467D01*
X20316405Y2045181D02*
X20316405Y3045181D01*
X20316405Y3045181D02*
X20554500Y3045181D01*
X20554500Y3045181D02*
X20697357Y2997562D01*
X20697357Y2997562D02*
X20792595Y2902324D01*
X20792595Y2902324D02*
X20840214Y2807086D01*
X20840214Y2807086D02*
X20887833Y2616610D01*
X20887833Y2616610D02*
X20887833Y2473753D01*
X20887833Y2473753D02*
X20840214Y2283277D01*
X20840214Y2283277D02*
X20792595Y2188039D01*
X20792595Y2188039D02*
X20697357Y2092800D01*
X20697357Y2092800D02*
X20554500Y2045181D01*
X20554500Y2045181D02*
X20316405Y2045181D01*
X21840214Y2045181D02*
X21268786Y2045181D01*
X21554500Y2045181D02*
X21554500Y3045181D01*
X21554500Y3045181D02*
X21459262Y2902324D01*
X21459262Y2902324D02*
X21364024Y2807086D01*
X21364024Y2807086D02*
X21268786Y2759467D01*
X15781808Y21817047D02*
X15924665Y21769428D01*
X15924665Y21769428D02*
X16162760Y21769428D01*
X16162760Y21769428D02*
X16257998Y21817047D01*
X16257998Y21817047D02*
X16305617Y21864667D01*
X16305617Y21864667D02*
X16353236Y21959905D01*
X16353236Y21959905D02*
X16353236Y22055143D01*
X16353236Y22055143D02*
X16305617Y22150381D01*
X16305617Y22150381D02*
X16257998Y22198000D01*
X16257998Y22198000D02*
X16162760Y22245619D01*
X16162760Y22245619D02*
X15972284Y22293238D01*
X15972284Y22293238D02*
X15877046Y22340857D01*
X15877046Y22340857D02*
X15829427Y22388476D01*
X15829427Y22388476D02*
X15781808Y22483714D01*
X15781808Y22483714D02*
X15781808Y22578952D01*
X15781808Y22578952D02*
X15829427Y22674190D01*
X15829427Y22674190D02*
X15877046Y22721809D01*
X15877046Y22721809D02*
X15972284Y22769428D01*
X15972284Y22769428D02*
X16210379Y22769428D01*
X16210379Y22769428D02*
X16353236Y22721809D01*
X16686570Y22769428D02*
X16924665Y21769428D01*
X16924665Y21769428D02*
X17115141Y22483714D01*
X17115141Y22483714D02*
X17305617Y21769428D01*
X17305617Y21769428D02*
X17543713Y22769428D01*
X18448474Y21769428D02*
X17877046Y21769428D01*
X18162760Y21769428D02*
X18162760Y22769428D01*
X18162760Y22769428D02*
X18067522Y22626571D01*
X18067522Y22626571D02*
X17972284Y22531333D01*
X17972284Y22531333D02*
X17877046Y22483714D01*
X20055333Y5045181D02*
X19722000Y5521372D01*
X19483905Y5045181D02*
X19483905Y6045181D01*
X19483905Y6045181D02*
X19864857Y6045181D01*
X19864857Y6045181D02*
X19960095Y5997562D01*
X19960095Y5997562D02*
X20007714Y5949943D01*
X20007714Y5949943D02*
X20055333Y5854705D01*
X20055333Y5854705D02*
X20055333Y5711848D01*
X20055333Y5711848D02*
X20007714Y5616610D01*
X20007714Y5616610D02*
X19960095Y5568991D01*
X19960095Y5568991D02*
X19864857Y5521372D01*
X19864857Y5521372D02*
X19483905Y5521372D01*
X21007714Y5045181D02*
X20436286Y5045181D01*
X20722000Y5045181D02*
X20722000Y6045181D01*
X20722000Y6045181D02*
X20626762Y5902324D01*
X20626762Y5902324D02*
X20531524Y5807086D01*
X20531524Y5807086D02*
X20436286Y5759467D01*
X20103333Y25640420D02*
X20055714Y25592800D01*
X20055714Y25592800D02*
X19912857Y25545181D01*
X19912857Y25545181D02*
X19817619Y25545181D01*
X19817619Y25545181D02*
X19674762Y25592800D01*
X19674762Y25592800D02*
X19579524Y25688039D01*
X19579524Y25688039D02*
X19531905Y25783277D01*
X19531905Y25783277D02*
X19484286Y25973753D01*
X19484286Y25973753D02*
X19484286Y26116610D01*
X19484286Y26116610D02*
X19531905Y26307086D01*
X19531905Y26307086D02*
X19579524Y26402324D01*
X19579524Y26402324D02*
X19674762Y26497562D01*
X19674762Y26497562D02*
X19817619Y26545181D01*
X19817619Y26545181D02*
X19912857Y26545181D01*
X19912857Y26545181D02*
X20055714Y26497562D01*
X20055714Y26497562D02*
X20103333Y26449943D01*
X20436667Y26545181D02*
X21055714Y26545181D01*
X21055714Y26545181D02*
X20722381Y26164229D01*
X20722381Y26164229D02*
X20865238Y26164229D01*
X20865238Y26164229D02*
X20960476Y26116610D01*
X20960476Y26116610D02*
X21008095Y26068991D01*
X21008095Y26068991D02*
X21055714Y25973753D01*
X21055714Y25973753D02*
X21055714Y25735658D01*
X21055714Y25735658D02*
X21008095Y25640420D01*
X21008095Y25640420D02*
X20960476Y25592800D01*
X20960476Y25592800D02*
X20865238Y25545181D01*
X20865238Y25545181D02*
X20579524Y25545181D01*
X20579524Y25545181D02*
X20484286Y25592800D01*
X20484286Y25592800D02*
X20436667Y25640420D01*
D11*
G04 #@! TO.C,C1*
X10391000Y10692748D02*
X10391000Y11215252D01*
X11861000Y10692748D02*
X11861000Y11215252D01*
G04 #@! TO.C,C2*
X16510748Y9310000D02*
X17933252Y9310000D01*
X16510748Y7490000D02*
X17933252Y7490000D01*
G04 #@! TO.C,U1*
X17476000Y17387000D02*
X15276000Y17387000D01*
X17476000Y17387000D02*
X19676000Y17387000D01*
X17476000Y10617000D02*
X15276000Y10617000D01*
X17476000Y10617000D02*
X19676000Y10617000D01*
X13616000Y16927000D02*
X13286000Y16687000D01*
X13286000Y17167000D01*
X13616000Y16927000D01*
G36*
X13616000Y16927000D02*
G01*
X13286000Y16687000D01*
X13286000Y17167000D01*
X13616000Y16927000D01*
G37*
G04 #@! TO.C,D1*
X14784500Y3635000D02*
X14784500Y1365000D01*
X14784500Y1365000D02*
X18844500Y1365000D01*
X18844500Y3635000D02*
X14784500Y3635000D01*
G04 #@! TO.C,SW1*
X14100904Y24224247D02*
X20100904Y24224247D01*
X20100904Y20224247D01*
X14100904Y20224247D01*
X14100904Y24224247D01*
X15194603Y23103150D02*
X18965561Y23103150D01*
X18965561Y21359590D01*
X15194603Y21359590D01*
X15194603Y23103150D01*
G04 #@! TO.C,R1*
X16994936Y6235000D02*
X17449064Y6235000D01*
X16994936Y4765000D02*
X17449064Y4765000D01*
G04 #@! TO.C,C3*
X17229252Y26735000D02*
X16706748Y26735000D01*
X17229252Y25265000D02*
X16706748Y25265000D01*
G04 #@! TD*
M02*
