G04 #@! TF.GenerationSoftware,KiCad,Pcbnew,9.0.0*
G04 #@! TF.CreationDate,2025-03-02T18:18:07+01:00*
G04 #@! TF.ProjectId,general_shield,67656e65-7261-46c5-9f73-6869656c642e,rev?*
G04 #@! TF.SameCoordinates,PX4ec6040PY6df56a0*
G04 #@! TF.FileFunction,Paste,Top*
G04 #@! TF.FilePolarity,Positive*
%FSLAX46Y46*%
G04 Gerber Fmt 4.6, Leading zero omitted, Abs format (unit mm)*
G04 Created by KiCad (PCBNEW 9.0.0) date 2025-03-02 18:18:07*
%MOMM*%
%LPD*%
G01*
G04 APERTURE LIST*
G04 Aperture macros list*
%AMRoundRect*
0 Rectangle with rounded corners*
0 $1 Rounding radius*
0 $2 $3 $4 $5 $6 $7 $8 $9 X,Y pos of 4 corners*
0 Add a 4 corners polygon primitive as box body*
4,1,4,$2,$3,$4,$5,$6,$7,$8,$9,$2,$3,0*
0 Add four circle primitives for the rounded corners*
1,1,$1+$1,$2,$3*
1,1,$1+$1,$4,$5*
1,1,$1+$1,$6,$7*
1,1,$1+$1,$8,$9*
0 Add four rect primitives between the rounded corners*
20,1,$1+$1,$2,$3,$4,$5,0*
20,1,$1+$1,$4,$5,$6,$7,0*
20,1,$1+$1,$6,$7,$8,$9,0*
20,1,$1+$1,$8,$9,$2,$3,0*%
G04 Aperture macros list end*
%ADD10RoundRect,0.250000X-0.625000X0.375000X-0.625000X-0.375000X0.625000X-0.375000X0.625000X0.375000X0*%
%ADD11RoundRect,0.250000X0.262500X0.450000X-0.262500X0.450000X-0.262500X-0.450000X0.262500X-0.450000X0*%
%ADD12RoundRect,0.250000X-0.650000X0.325000X-0.650000X-0.325000X0.650000X-0.325000X0.650000X0.325000X0*%
%ADD13RoundRect,0.150000X-0.150000X0.587500X-0.150000X-0.587500X0.150000X-0.587500X0.150000X0.587500X0*%
%ADD14RoundRect,0.250000X-0.312500X-0.625000X0.312500X-0.625000X0.312500X0.625000X-0.312500X0.625000X0*%
%ADD15RoundRect,0.375000X0.375000X-0.625000X0.375000X0.625000X-0.375000X0.625000X-0.375000X-0.625000X0*%
%ADD16RoundRect,0.500000X1.400000X-0.500000X1.400000X0.500000X-1.400000X0.500000X-1.400000X-0.500000X0*%
%ADD17RoundRect,0.150000X0.150000X-0.587500X0.150000X0.587500X-0.150000X0.587500X-0.150000X-0.587500X0*%
%ADD18RoundRect,0.175000X0.425000X-0.175000X0.425000X0.175000X-0.425000X0.175000X-0.425000X-0.175000X0*%
%ADD19RoundRect,0.190000X-0.410000X0.190000X-0.410000X-0.190000X0.410000X-0.190000X0.410000X0.190000X0*%
%ADD20RoundRect,0.200000X-0.400000X0.200000X-0.400000X-0.200000X0.400000X-0.200000X0.400000X0.200000X0*%
%ADD21RoundRect,0.175000X-0.425000X0.175000X-0.425000X-0.175000X0.425000X-0.175000X0.425000X0.175000X0*%
%ADD22RoundRect,0.190000X0.410000X-0.190000X0.410000X0.190000X-0.410000X0.190000X-0.410000X-0.190000X0*%
%ADD23RoundRect,0.200000X0.400000X-0.200000X0.400000X0.200000X-0.400000X0.200000X-0.400000X-0.200000X0*%
%ADD24O,2.000000X1.400000*%
%ADD25RoundRect,0.090000X0.660000X0.360000X-0.660000X0.360000X-0.660000X-0.360000X0.660000X-0.360000X0*%
%ADD26RoundRect,0.250000X-0.262500X-0.450000X0.262500X-0.450000X0.262500X0.450000X-0.262500X0.450000X0*%
%ADD27R,1.400000X2.100000*%
%ADD28RoundRect,0.250000X-0.400000X-0.600000X0.400000X-0.600000X0.400000X0.600000X-0.400000X0.600000X0*%
%ADD29RoundRect,0.250000X0.450000X-0.262500X0.450000X0.262500X-0.450000X0.262500X-0.450000X-0.262500X0*%
%ADD30RoundRect,0.250000X-0.250000X-0.475000X0.250000X-0.475000X0.250000X0.475000X-0.250000X0.475000X0*%
%ADD31RoundRect,0.250000X0.325000X0.650000X-0.325000X0.650000X-0.325000X-0.650000X0.325000X-0.650000X0*%
%ADD32RoundRect,0.250000X0.250000X0.475000X-0.250000X0.475000X-0.250000X-0.475000X0.250000X-0.475000X0*%
%ADD33RoundRect,0.250000X-0.450000X0.262500X-0.450000X-0.262500X0.450000X-0.262500X0.450000X0.262500X0*%
G04 APERTURE END LIST*
D10*
G04 #@! TO.C,D5*
X48100000Y18400000D03*
X48100000Y15600000D03*
G04 #@! TD*
D11*
G04 #@! TO.C,R9*
X33112500Y6200000D03*
X31287500Y6200000D03*
G04 #@! TD*
D12*
G04 #@! TO.C,C1*
X69100000Y17275000D03*
X69100000Y14325000D03*
G04 #@! TD*
D10*
G04 #@! TO.C,D2*
X55200000Y18600000D03*
X55200000Y15800000D03*
G04 #@! TD*
D13*
G04 #@! TO.C,Q3*
X10250000Y13075000D03*
X8350000Y13075000D03*
X9300000Y11200000D03*
G04 #@! TD*
D14*
G04 #@! TO.C,R13*
X16637500Y22200000D03*
X19562500Y22200000D03*
G04 #@! TD*
D15*
G04 #@! TO.C,U1*
X60200000Y16550000D03*
X62500000Y16550000D03*
D16*
X62500000Y22850000D03*
D15*
X64800000Y16550000D03*
G04 #@! TD*
D17*
G04 #@! TO.C,Q5*
X22550000Y18625000D03*
X24450000Y18625000D03*
X23500000Y20500000D03*
G04 #@! TD*
D11*
G04 #@! TO.C,R4*
X14112500Y16800000D03*
X12287500Y16800000D03*
G04 #@! TD*
D18*
G04 #@! TO.C,J1*
X73345000Y14800000D03*
D19*
X73345000Y16820000D03*
D20*
X73345000Y18050000D03*
D21*
X73345000Y15800000D03*
D22*
X73345000Y13780000D03*
D23*
X73345000Y12550000D03*
D24*
X73425000Y10980000D03*
X77225000Y10980000D03*
X73425000Y19620000D03*
X77225000Y19620000D03*
G04 #@! TD*
D13*
G04 #@! TO.C,Q1*
X6250000Y13075000D03*
X4350000Y13075000D03*
X5300000Y11200000D03*
G04 #@! TD*
D10*
G04 #@! TO.C,D3*
X44500000Y18500000D03*
X44500000Y15700000D03*
G04 #@! TD*
D25*
G04 #@! TO.C,D1*
X64900000Y6700000D03*
X64900000Y10000000D03*
X60000000Y10000000D03*
X60000000Y6700000D03*
G04 #@! TD*
D13*
G04 #@! TO.C,Q4*
X20250000Y8175000D03*
X18350000Y8175000D03*
X19300000Y6300000D03*
G04 #@! TD*
D26*
G04 #@! TO.C,R7*
X13687500Y6200000D03*
X15512500Y6200000D03*
G04 #@! TD*
D27*
G04 #@! TO.C,SW1*
X27250000Y9850000D03*
X27250000Y18950000D03*
X31750000Y9850000D03*
X31750000Y18950000D03*
G04 #@! TD*
D11*
G04 #@! TO.C,R1*
X74412500Y23400000D03*
X72587500Y23400000D03*
G04 #@! TD*
D28*
G04 #@! TO.C,D4*
X17450000Y15800000D03*
X20950000Y15800000D03*
G04 #@! TD*
D29*
G04 #@! TO.C,R16*
X48200000Y9187500D03*
X48200000Y11012500D03*
G04 #@! TD*
D11*
G04 #@! TO.C,R10*
X27312500Y6000000D03*
X25487500Y6000000D03*
G04 #@! TD*
G04 #@! TO.C,R5*
X10112500Y16800000D03*
X8287500Y16800000D03*
G04 #@! TD*
D30*
G04 #@! TO.C,C4*
X36850000Y22100000D03*
X38750000Y22100000D03*
G04 #@! TD*
D29*
G04 #@! TO.C,R15*
X44500000Y9162500D03*
X44500000Y10987500D03*
G04 #@! TD*
D27*
G04 #@! TO.C,SW2*
X40150000Y18850000D03*
X40150000Y9750000D03*
X35650000Y18850000D03*
X35650000Y9750000D03*
G04 #@! TD*
D11*
G04 #@! TO.C,R8*
X10912500Y6200000D03*
X9087500Y6200000D03*
G04 #@! TD*
G04 #@! TO.C,R3*
X5812500Y16800000D03*
X3987500Y16800000D03*
G04 #@! TD*
G04 #@! TO.C,R2*
X74412500Y7200000D03*
X72587500Y7200000D03*
G04 #@! TD*
D29*
G04 #@! TO.C,R18*
X51500000Y9187500D03*
X51500000Y11012500D03*
G04 #@! TD*
D26*
G04 #@! TO.C,R12*
X35887500Y6200000D03*
X37712500Y6200000D03*
G04 #@! TD*
D31*
G04 #@! TO.C,C2*
X62775000Y13300000D03*
X59825000Y13300000D03*
G04 #@! TD*
D32*
G04 #@! TO.C,C3*
X31850000Y21900000D03*
X29950000Y21900000D03*
G04 #@! TD*
D13*
G04 #@! TO.C,Q2*
X14150000Y13075000D03*
X12250000Y13075000D03*
X13200000Y11200000D03*
G04 #@! TD*
D29*
G04 #@! TO.C,R11*
X23300000Y8487500D03*
X23300000Y10312500D03*
G04 #@! TD*
D33*
G04 #@! TO.C,R14*
X55200000Y10912500D03*
X55200000Y9087500D03*
G04 #@! TD*
D26*
G04 #@! TO.C,R6*
X4275000Y6200000D03*
X6100000Y6200000D03*
G04 #@! TD*
D10*
G04 #@! TO.C,D6*
X51600000Y18400000D03*
X51600000Y15600000D03*
G04 #@! TD*
D33*
G04 #@! TO.C,R17*
X23500000Y16112500D03*
X23500000Y14287500D03*
G04 #@! TD*
M02*
