(kicad_sch
	(version 20231120)
	(generator "eeschema")
	(generator_version "8.0")
	(uuid "16bba5fc-5e0d-4c40-a5cf-d802a80d5cab")
	(paper "A4")
	(lib_symbols
		(symbol "Connector_Generic:Conn_01x07"
			(pin_names
				(offset 1.016) hide)
			(exclude_from_sim no)
			(in_bom yes)
			(on_board yes)
			(property "Reference" "J"
				(at 0 10.16 0)
				(effects
					(font
						(size 1.27 1.27)
					)
				)
			)
			(property "Value" "Conn_01x07"
				(at 0 -10.16 0)
				(effects
					(font
						(size 1.27 1.27)
					)
				)
			)
			(property "Footprint" ""
				(at 0 0 0)
				(effects
					(font
						(size 1.27 1.27)
					)
					(hide yes)
				)
			)
			(property "Datasheet" "~"
				(at 0 0 0)
				(effects
					(font
						(size 1.27 1.27)
					)
					(hide yes)
				)
			)
			(property "Description" "Generic connector, single row, 01x07, script generated (kicad-library-utils/schlib/autogen/connector/)"
				(at 0 0 0)
				(effects
					(font
						(size 1.27 1.27)
					)
					(hide yes)
				)
			)
			(property "ki_keywords" "connector"
				(at 0 0 0)
				(effects
					(font
						(size 1.27 1.27)
					)
					(hide yes)
				)
			)
			(property "ki_fp_filters" "Connector*:*_1x??_*"
				(at 0 0 0)
				(effects
					(font
						(size 1.27 1.27)
					)
					(hide yes)
				)
			)
			(symbol "Conn_01x07_1_1"
				(rectangle
					(start -1.27 -7.493)
					(end 0 -7.747)
					(stroke
						(width 0.1524)
						(type default)
					)
					(fill
						(type none)
					)
				)
				(rectangle
					(start -1.27 -4.953)
					(end 0 -5.207)
					(stroke
						(width 0.1524)
						(type default)
					)
					(fill
						(type none)
					)
				)
				(rectangle
					(start -1.27 -2.413)
					(end 0 -2.667)
					(stroke
						(width 0.1524)
						(type default)
					)
					(fill
						(type none)
					)
				)
				(rectangle
					(start -1.27 0.127)
					(end 0 -0.127)
					(stroke
						(width 0.1524)
						(type default)
					)
					(fill
						(type none)
					)
				)
				(rectangle
					(start -1.27 2.667)
					(end 0 2.413)
					(stroke
						(width 0.1524)
						(type default)
					)
					(fill
						(type none)
					)
				)
				(rectangle
					(start -1.27 5.207)
					(end 0 4.953)
					(stroke
						(width 0.1524)
						(type default)
					)
					(fill
						(type none)
					)
				)
				(rectangle
					(start -1.27 7.747)
					(end 0 7.493)
					(stroke
						(width 0.1524)
						(type default)
					)
					(fill
						(type none)
					)
				)
				(rectangle
					(start -1.27 8.89)
					(end 1.27 -8.89)
					(stroke
						(width 0.254)
						(type default)
					)
					(fill
						(type background)
					)
				)
				(pin passive line
					(at -5.08 7.62 0)
					(length 3.81)
					(name "Pin_1"
						(effects
							(font
								(size 1.27 1.27)
							)
						)
					)
					(number "1"
						(effects
							(font
								(size 1.27 1.27)
							)
						)
					)
				)
				(pin passive line
					(at -5.08 5.08 0)
					(length 3.81)
					(name "Pin_2"
						(effects
							(font
								(size 1.27 1.27)
							)
						)
					)
					(number "2"
						(effects
							(font
								(size 1.27 1.27)
							)
						)
					)
				)
				(pin passive line
					(at -5.08 2.54 0)
					(length 3.81)
					(name "Pin_3"
						(effects
							(font
								(size 1.27 1.27)
							)
						)
					)
					(number "3"
						(effects
							(font
								(size 1.27 1.27)
							)
						)
					)
				)
				(pin passive line
					(at -5.08 0 0)
					(length 3.81)
					(name "Pin_4"
						(effects
							(font
								(size 1.27 1.27)
							)
						)
					)
					(number "4"
						(effects
							(font
								(size 1.27 1.27)
							)
						)
					)
				)
				(pin passive line
					(at -5.08 -2.54 0)
					(length 3.81)
					(name "Pin_5"
						(effects
							(font
								(size 1.27 1.27)
							)
						)
					)
					(number "5"
						(effects
							(font
								(size 1.27 1.27)
							)
						)
					)
				)
				(pin passive line
					(at -5.08 -5.08 0)
					(length 3.81)
					(name "Pin_6"
						(effects
							(font
								(size 1.27 1.27)
							)
						)
					)
					(number "6"
						(effects
							(font
								(size 1.27 1.27)
							)
						)
					)
				)
				(pin passive line
					(at -5.08 -7.62 0)
					(length 3.81)
					(name "Pin_7"
						(effects
							(font
								(size 1.27 1.27)
							)
						)
					)
					(number "7"
						(effects
							(font
								(size 1.27 1.27)
							)
						)
					)
				)
			)
		)
		(symbol "Connector_Generic:Conn_01x08"
			(pin_names
				(offset 1.016) hide)
			(exclude_from_sim no)
			(in_bom yes)
			(on_board yes)
			(property "Reference" "J"
				(at 0 10.16 0)
				(effects
					(font
						(size 1.27 1.27)
					)
				)
			)
			(property "Value" "Conn_01x08"
				(at 0 -12.7 0)
				(effects
					(font
						(size 1.27 1.27)
					)
				)
			)
			(property "Footprint" ""
				(at 0 0 0)
				(effects
					(font
						(size 1.27 1.27)
					)
					(hide yes)
				)
			)
			(property "Datasheet" "~"
				(at 0 0 0)
				(effects
					(font
						(size 1.27 1.27)
					)
					(hide yes)
				)
			)
			(property "Description" "Generic connector, single row, 01x08, script generated (kicad-library-utils/schlib/autogen/connector/)"
				(at 0 0 0)
				(effects
					(font
						(size 1.27 1.27)
					)
					(hide yes)
				)
			)
			(property "ki_keywords" "connector"
				(at 0 0 0)
				(effects
					(font
						(size 1.27 1.27)
					)
					(hide yes)
				)
			)
			(property "ki_fp_filters" "Connector*:*_1x??_*"
				(at 0 0 0)
				(effects
					(font
						(size 1.27 1.27)
					)
					(hide yes)
				)
			)
			(symbol "Conn_01x08_1_1"
				(rectangle
					(start -1.27 -10.033)
					(end 0 -10.287)
					(stroke
						(width 0.1524)
						(type default)
					)
					(fill
						(type none)
					)
				)
				(rectangle
					(start -1.27 -7.493)
					(end 0 -7.747)
					(stroke
						(width 0.1524)
						(type default)
					)
					(fill
						(type none)
					)
				)
				(rectangle
					(start -1.27 -4.953)
					(end 0 -5.207)
					(stroke
						(width 0.1524)
						(type default)
					)
					(fill
						(type none)
					)
				)
				(rectangle
					(start -1.27 -2.413)
					(end 0 -2.667)
					(stroke
						(width 0.1524)
						(type default)
					)
					(fill
						(type none)
					)
				)
				(rectangle
					(start -1.27 0.127)
					(end 0 -0.127)
					(stroke
						(width 0.1524)
						(type default)
					)
					(fill
						(type none)
					)
				)
				(rectangle
					(start -1.27 2.667)
					(end 0 2.413)
					(stroke
						(width 0.1524)
						(type default)
					)
					(fill
						(type none)
					)
				)
				(rectangle
					(start -1.27 5.207)
					(end 0 4.953)
					(stroke
						(width 0.1524)
						(type default)
					)
					(fill
						(type none)
					)
				)
				(rectangle
					(start -1.27 7.747)
					(end 0 7.493)
					(stroke
						(width 0.1524)
						(type default)
					)
					(fill
						(type none)
					)
				)
				(rectangle
					(start -1.27 8.89)
					(end 1.27 -11.43)
					(stroke
						(width 0.254)
						(type default)
					)
					(fill
						(type background)
					)
				)
				(pin passive line
					(at -5.08 7.62 0)
					(length 3.81)
					(name "Pin_1"
						(effects
							(font
								(size 1.27 1.27)
							)
						)
					)
					(number "1"
						(effects
							(font
								(size 1.27 1.27)
							)
						)
					)
				)
				(pin passive line
					(at -5.08 5.08 0)
					(length 3.81)
					(name "Pin_2"
						(effects
							(font
								(size 1.27 1.27)
							)
						)
					)
					(number "2"
						(effects
							(font
								(size 1.27 1.27)
							)
						)
					)
				)
				(pin passive line
					(at -5.08 2.54 0)
					(length 3.81)
					(name "Pin_3"
						(effects
							(font
								(size 1.27 1.27)
							)
						)
					)
					(number "3"
						(effects
							(font
								(size 1.27 1.27)
							)
						)
					)
				)
				(pin passive line
					(at -5.08 0 0)
					(length 3.81)
					(name "Pin_4"
						(effects
							(font
								(size 1.27 1.27)
							)
						)
					)
					(number "4"
						(effects
							(font
								(size 1.27 1.27)
							)
						)
					)
				)
				(pin passive line
					(at -5.08 -2.54 0)
					(length 3.81)
					(name "Pin_5"
						(effects
							(font
								(size 1.27 1.27)
							)
						)
					)
					(number "5"
						(effects
							(font
								(size 1.27 1.27)
							)
						)
					)
				)
				(pin passive line
					(at -5.08 -5.08 0)
					(length 3.81)
					(name "Pin_6"
						(effects
							(font
								(size 1.27 1.27)
							)
						)
					)
					(number "6"
						(effects
							(font
								(size 1.27 1.27)
							)
						)
					)
				)
				(pin passive line
					(at -5.08 -7.62 0)
					(length 3.81)
					(name "Pin_7"
						(effects
							(font
								(size 1.27 1.27)
							)
						)
					)
					(number "7"
						(effects
							(font
								(size 1.27 1.27)
							)
						)
					)
				)
				(pin passive line
					(at -5.08 -10.16 0)
					(length 3.81)
					(name "Pin_8"
						(effects
							(font
								(size 1.27 1.27)
							)
						)
					)
					(number "8"
						(effects
							(font
								(size 1.27 1.27)
							)
						)
					)
				)
			)
		)
		(symbol "Device:C_Small"
			(pin_numbers hide)
			(pin_names
				(offset 0.254) hide)
			(exclude_from_sim no)
			(in_bom yes)
			(on_board yes)
			(property "Reference" "C"
				(at 0.254 1.778 0)
				(effects
					(font
						(size 1.27 1.27)
					)
					(justify left)
				)
			)
			(property "Value" "C_Small"
				(at 0.254 -2.032 0)
				(effects
					(font
						(size 1.27 1.27)
					)
					(justify left)
				)
			)
			(property "Footprint" ""
				(at 0 0 0)
				(effects
					(font
						(size 1.27 1.27)
					)
					(hide yes)
				)
			)
			(property "Datasheet" "~"
				(at 0 0 0)
				(effects
					(font
						(size 1.27 1.27)
					)
					(hide yes)
				)
			)
			(property "Description" "Unpolarized capacitor, small symbol"
				(at 0 0 0)
				(effects
					(font
						(size 1.27 1.27)
					)
					(hide yes)
				)
			)
			(property "ki_keywords" "capacitor cap"
				(at 0 0 0)
				(effects
					(font
						(size 1.27 1.27)
					)
					(hide yes)
				)
			)
			(property "ki_fp_filters" "C_*"
				(at 0 0 0)
				(effects
					(font
						(size 1.27 1.27)
					)
					(hide yes)
				)
			)
			(symbol "C_Small_0_1"
				(polyline
					(pts
						(xy -1.524 -0.508) (xy 1.524 -0.508)
					)
					(stroke
						(width 0.3302)
						(type default)
					)
					(fill
						(type none)
					)
				)
				(polyline
					(pts
						(xy -1.524 0.508) (xy 1.524 0.508)
					)
					(stroke
						(width 0.3048)
						(type default)
					)
					(fill
						(type none)
					)
				)
			)
			(symbol "C_Small_1_1"
				(pin passive line
					(at 0 2.54 270)
					(length 2.032)
					(name "~"
						(effects
							(font
								(size 1.27 1.27)
							)
						)
					)
					(number "1"
						(effects
							(font
								(size 1.27 1.27)
							)
						)
					)
				)
				(pin passive line
					(at 0 -2.54 90)
					(length 2.032)
					(name "~"
						(effects
							(font
								(size 1.27 1.27)
							)
						)
					)
					(number "2"
						(effects
							(font
								(size 1.27 1.27)
							)
						)
					)
				)
			)
		)
		(symbol "Device:LED"
			(pin_numbers hide)
			(pin_names
				(offset 1.016) hide)
			(exclude_from_sim no)
			(in_bom yes)
			(on_board yes)
			(property "Reference" "D"
				(at 0 2.54 0)
				(effects
					(font
						(size 1.27 1.27)
					)
				)
			)
			(property "Value" "LED"
				(at 0 -2.54 0)
				(effects
					(font
						(size 1.27 1.27)
					)
				)
			)
			(property "Footprint" ""
				(at 0 0 0)
				(effects
					(font
						(size 1.27 1.27)
					)
					(hide yes)
				)
			)
			(property "Datasheet" "~"
				(at 0 0 0)
				(effects
					(font
						(size 1.27 1.27)
					)
					(hide yes)
				)
			)
			(property "Description" "Light emitting diode"
				(at 0 0 0)
				(effects
					(font
						(size 1.27 1.27)
					)
					(hide yes)
				)
			)
			(property "ki_keywords" "LED diode"
				(at 0 0 0)
				(effects
					(font
						(size 1.27 1.27)
					)
					(hide yes)
				)
			)
			(property "ki_fp_filters" "LED* LED_SMD:* LED_THT:*"
				(at 0 0 0)
				(effects
					(font
						(size 1.27 1.27)
					)
					(hide yes)
				)
			)
			(symbol "LED_0_1"
				(polyline
					(pts
						(xy -1.27 -1.27) (xy -1.27 1.27)
					)
					(stroke
						(width 0.254)
						(type default)
					)
					(fill
						(type none)
					)
				)
				(polyline
					(pts
						(xy -1.27 0) (xy 1.27 0)
					)
					(stroke
						(width 0)
						(type default)
					)
					(fill
						(type none)
					)
				)
				(polyline
					(pts
						(xy 1.27 -1.27) (xy 1.27 1.27) (xy -1.27 0) (xy 1.27 -1.27)
					)
					(stroke
						(width 0.254)
						(type default)
					)
					(fill
						(type none)
					)
				)
				(polyline
					(pts
						(xy -3.048 -0.762) (xy -4.572 -2.286) (xy -3.81 -2.286) (xy -4.572 -2.286) (xy -4.572 -1.524)
					)
					(stroke
						(width 0)
						(type default)
					)
					(fill
						(type none)
					)
				)
				(polyline
					(pts
						(xy -1.778 -0.762) (xy -3.302 -2.286) (xy -2.54 -2.286) (xy -3.302 -2.286) (xy -3.302 -1.524)
					)
					(stroke
						(width 0)
						(type default)
					)
					(fill
						(type none)
					)
				)
			)
			(symbol "LED_1_1"
				(pin passive line
					(at -3.81 0 0)
					(length 2.54)
					(name "K"
						(effects
							(font
								(size 1.27 1.27)
							)
						)
					)
					(number "1"
						(effects
							(font
								(size 1.27 1.27)
							)
						)
					)
				)
				(pin passive line
					(at 3.81 0 180)
					(length 2.54)
					(name "A"
						(effects
							(font
								(size 1.27 1.27)
							)
						)
					)
					(number "2"
						(effects
							(font
								(size 1.27 1.27)
							)
						)
					)
				)
			)
		)
		(symbol "Device:R_Small"
			(pin_numbers hide)
			(pin_names
				(offset 0.254) hide)
			(exclude_from_sim no)
			(in_bom yes)
			(on_board yes)
			(property "Reference" "R"
				(at 0.762 0.508 0)
				(effects
					(font
						(size 1.27 1.27)
					)
					(justify left)
				)
			)
			(property "Value" "R_Small"
				(at 0.762 -1.016 0)
				(effects
					(font
						(size 1.27 1.27)
					)
					(justify left)
				)
			)
			(property "Footprint" ""
				(at 0 0 0)
				(effects
					(font
						(size 1.27 1.27)
					)
					(hide yes)
				)
			)
			(property "Datasheet" "~"
				(at 0 0 0)
				(effects
					(font
						(size 1.27 1.27)
					)
					(hide yes)
				)
			)
			(property "Description" "Resistor, small symbol"
				(at 0 0 0)
				(effects
					(font
						(size 1.27 1.27)
					)
					(hide yes)
				)
			)
			(property "ki_keywords" "R resistor"
				(at 0 0 0)
				(effects
					(font
						(size 1.27 1.27)
					)
					(hide yes)
				)
			)
			(property "ki_fp_filters" "R_*"
				(at 0 0 0)
				(effects
					(font
						(size 1.27 1.27)
					)
					(hide yes)
				)
			)
			(symbol "R_Small_0_1"
				(rectangle
					(start -0.762 1.778)
					(end 0.762 -1.778)
					(stroke
						(width 0.2032)
						(type default)
					)
					(fill
						(type none)
					)
				)
			)
			(symbol "R_Small_1_1"
				(pin passive line
					(at 0 2.54 270)
					(length 0.762)
					(name "~"
						(effects
							(font
								(size 1.27 1.27)
							)
						)
					)
					(number "1"
						(effects
							(font
								(size 1.27 1.27)
							)
						)
					)
				)
				(pin passive line
					(at 0 -2.54 90)
					(length 0.762)
					(name "~"
						(effects
							(font
								(size 1.27 1.27)
							)
						)
					)
					(number "2"
						(effects
							(font
								(size 1.27 1.27)
							)
						)
					)
				)
			)
		)
		(symbol "MCU_Microchip_ATtiny:ATtiny1614-SS"
			(exclude_from_sim no)
			(in_bom yes)
			(on_board yes)
			(property "Reference" "U"
				(at -12.7 16.51 0)
				(effects
					(font
						(size 1.27 1.27)
					)
					(justify left bottom)
				)
			)
			(property "Value" "ATtiny1614-SS"
				(at 2.54 -16.51 0)
				(effects
					(font
						(size 1.27 1.27)
					)
					(justify left top)
				)
			)
			(property "Footprint" "Package_SO:SOIC-14_3.9x8.7mm_P1.27mm"
				(at 0 0 0)
				(effects
					(font
						(size 1.27 1.27)
						(italic yes)
					)
					(hide yes)
				)
			)
			(property "Datasheet" "http://ww1.microchip.com/downloads/en/DeviceDoc/ATtiny1614-data-sheet-40001995A.pdf"
				(at 0 0 0)
				(effects
					(font
						(size 1.27 1.27)
					)
					(hide yes)
				)
			)
			(property "Description" "20MHz, 16kB Flash, 2kB SRAM, 256B EEPROM, SOIC-14"
				(at 0 0 0)
				(effects
					(font
						(size 1.27 1.27)
					)
					(hide yes)
				)
			)
			(property "ki_keywords" "AVR 8bit Microcontroller tinyAVR"
				(at 0 0 0)
				(effects
					(font
						(size 1.27 1.27)
					)
					(hide yes)
				)
			)
			(property "ki_fp_filters" "SOIC*3.9x8.7mm*P1.27mm*"
				(at 0 0 0)
				(effects
					(font
						(size 1.27 1.27)
					)
					(hide yes)
				)
			)
			(symbol "ATtiny1614-SS_0_1"
				(rectangle
					(start -12.7 -15.24)
					(end 12.7 15.24)
					(stroke
						(width 0.254)
						(type default)
					)
					(fill
						(type background)
					)
				)
			)
			(symbol "ATtiny1614-SS_1_1"
				(pin power_in line
					(at 0 17.78 270)
					(length 2.54)
					(name "VCC"
						(effects
							(font
								(size 1.27 1.27)
							)
						)
					)
					(number "1"
						(effects
							(font
								(size 1.27 1.27)
							)
						)
					)
				)
				(pin bidirectional line
					(at 15.24 10.16 180)
					(length 2.54)
					(name "~{RESET}/PA0"
						(effects
							(font
								(size 1.27 1.27)
							)
						)
					)
					(number "10"
						(effects
							(font
								(size 1.27 1.27)
							)
						)
					)
				)
				(pin bidirectional line
					(at 15.24 7.62 180)
					(length 2.54)
					(name "PA1"
						(effects
							(font
								(size 1.27 1.27)
							)
						)
					)
					(number "11"
						(effects
							(font
								(size 1.27 1.27)
							)
						)
					)
				)
				(pin bidirectional line
					(at 15.24 5.08 180)
					(length 2.54)
					(name "PA2"
						(effects
							(font
								(size 1.27 1.27)
							)
						)
					)
					(number "12"
						(effects
							(font
								(size 1.27 1.27)
							)
						)
					)
				)
				(pin bidirectional line
					(at 15.24 2.54 180)
					(length 2.54)
					(name "PA3"
						(effects
							(font
								(size 1.27 1.27)
							)
						)
					)
					(number "13"
						(effects
							(font
								(size 1.27 1.27)
							)
						)
					)
				)
				(pin power_in line
					(at 0 -17.78 90)
					(length 2.54)
					(name "GND"
						(effects
							(font
								(size 1.27 1.27)
							)
						)
					)
					(number "14"
						(effects
							(font
								(size 1.27 1.27)
							)
						)
					)
				)
				(pin bidirectional line
					(at 15.24 0 180)
					(length 2.54)
					(name "PA4"
						(effects
							(font
								(size 1.27 1.27)
							)
						)
					)
					(number "2"
						(effects
							(font
								(size 1.27 1.27)
							)
						)
					)
				)
				(pin bidirectional line
					(at 15.24 -2.54 180)
					(length 2.54)
					(name "PA5"
						(effects
							(font
								(size 1.27 1.27)
							)
						)
					)
					(number "3"
						(effects
							(font
								(size 1.27 1.27)
							)
						)
					)
				)
				(pin bidirectional line
					(at 15.24 -5.08 180)
					(length 2.54)
					(name "PA6"
						(effects
							(font
								(size 1.27 1.27)
							)
						)
					)
					(number "4"
						(effects
							(font
								(size 1.27 1.27)
							)
						)
					)
				)
				(pin bidirectional line
					(at 15.24 -7.62 180)
					(length 2.54)
					(name "PA7"
						(effects
							(font
								(size 1.27 1.27)
							)
						)
					)
					(number "5"
						(effects
							(font
								(size 1.27 1.27)
							)
						)
					)
				)
				(pin bidirectional line
					(at -15.24 2.54 0)
					(length 2.54)
					(name "PB3"
						(effects
							(font
								(size 1.27 1.27)
							)
						)
					)
					(number "6"
						(effects
							(font
								(size 1.27 1.27)
							)
						)
					)
				)
				(pin bidirectional line
					(at -15.24 5.08 0)
					(length 2.54)
					(name "PB2"
						(effects
							(font
								(size 1.27 1.27)
							)
						)
					)
					(number "7"
						(effects
							(font
								(size 1.27 1.27)
							)
						)
					)
				)
				(pin bidirectional line
					(at -15.24 7.62 0)
					(length 2.54)
					(name "PB1"
						(effects
							(font
								(size 1.27 1.27)
							)
						)
					)
					(number "8"
						(effects
							(font
								(size 1.27 1.27)
							)
						)
					)
				)
				(pin bidirectional line
					(at -15.24 10.16 0)
					(length 2.54)
					(name "PB0"
						(effects
							(font
								(size 1.27 1.27)
							)
						)
					)
					(number "9"
						(effects
							(font
								(size 1.27 1.27)
							)
						)
					)
				)
			)
		)
		(symbol "power:GND"
			(power)
			(pin_numbers hide)
			(pin_names
				(offset 0) hide)
			(exclude_from_sim no)
			(in_bom yes)
			(on_board yes)
			(property "Reference" "#PWR"
				(at 0 -6.35 0)
				(effects
					(font
						(size 1.27 1.27)
					)
					(hide yes)
				)
			)
			(property "Value" "GND"
				(at 0 -3.81 0)
				(effects
					(font
						(size 1.27 1.27)
					)
				)
			)
			(property "Footprint" ""
				(at 0 0 0)
				(effects
					(font
						(size 1.27 1.27)
					)
					(hide yes)
				)
			)
			(property "Datasheet" ""
				(at 0 0 0)
				(effects
					(font
						(size 1.27 1.27)
					)
					(hide yes)
				)
			)
			(property "Description" "Power symbol creates a global label with name \"GND\" , ground"
				(at 0 0 0)
				(effects
					(font
						(size 1.27 1.27)
					)
					(hide yes)
				)
			)
			(property "ki_keywords" "global power"
				(at 0 0 0)
				(effects
					(font
						(size 1.27 1.27)
					)
					(hide yes)
				)
			)
			(symbol "GND_0_1"
				(polyline
					(pts
						(xy 0 0) (xy 0 -1.27) (xy 1.27 -1.27) (xy 0 -2.54) (xy -1.27 -1.27) (xy 0 -1.27)
					)
					(stroke
						(width 0)
						(type default)
					)
					(fill
						(type none)
					)
				)
			)
			(symbol "GND_1_1"
				(pin power_in line
					(at 0 0 270)
					(length 0)
					(name "~"
						(effects
							(font
								(size 1.27 1.27)
							)
						)
					)
					(number "1"
						(effects
							(font
								(size 1.27 1.27)
							)
						)
					)
				)
			)
		)
		(symbol "power:PWR_FLAG"
			(power)
			(pin_numbers hide)
			(pin_names
				(offset 0) hide)
			(exclude_from_sim no)
			(in_bom yes)
			(on_board yes)
			(property "Reference" "#FLG"
				(at 0 1.905 0)
				(effects
					(font
						(size 1.27 1.27)
					)
					(hide yes)
				)
			)
			(property "Value" "PWR_FLAG"
				(at 0 3.81 0)
				(effects
					(font
						(size 1.27 1.27)
					)
				)
			)
			(property "Footprint" ""
				(at 0 0 0)
				(effects
					(font
						(size 1.27 1.27)
					)
					(hide yes)
				)
			)
			(property "Datasheet" "~"
				(at 0 0 0)
				(effects
					(font
						(size 1.27 1.27)
					)
					(hide yes)
				)
			)
			(property "Description" "Special symbol for telling ERC where power comes from"
				(at 0 0 0)
				(effects
					(font
						(size 1.27 1.27)
					)
					(hide yes)
				)
			)
			(property "ki_keywords" "flag power"
				(at 0 0 0)
				(effects
					(font
						(size 1.27 1.27)
					)
					(hide yes)
				)
			)
			(symbol "PWR_FLAG_0_0"
				(pin power_out line
					(at 0 0 90)
					(length 0)
					(name "~"
						(effects
							(font
								(size 1.27 1.27)
							)
						)
					)
					(number "1"
						(effects
							(font
								(size 1.27 1.27)
							)
						)
					)
				)
			)
			(symbol "PWR_FLAG_0_1"
				(polyline
					(pts
						(xy 0 0) (xy 0 1.27) (xy -1.016 1.905) (xy 0 2.54) (xy 1.016 1.905) (xy 0 1.27)
					)
					(stroke
						(width 0)
						(type default)
					)
					(fill
						(type none)
					)
				)
			)
		)
		(symbol "power:VCC"
			(power)
			(pin_numbers hide)
			(pin_names
				(offset 0) hide)
			(exclude_from_sim no)
			(in_bom yes)
			(on_board yes)
			(property "Reference" "#PWR"
				(at 0 -3.81 0)
				(effects
					(font
						(size 1.27 1.27)
					)
					(hide yes)
				)
			)
			(property "Value" "VCC"
				(at 0 3.556 0)
				(effects
					(font
						(size 1.27 1.27)
					)
				)
			)
			(property "Footprint" ""
				(at 0 0 0)
				(effects
					(font
						(size 1.27 1.27)
					)
					(hide yes)
				)
			)
			(property "Datasheet" ""
				(at 0 0 0)
				(effects
					(font
						(size 1.27 1.27)
					)
					(hide yes)
				)
			)
			(property "Description" "Power symbol creates a global label with name \"VCC\""
				(at 0 0 0)
				(effects
					(font
						(size 1.27 1.27)
					)
					(hide yes)
				)
			)
			(property "ki_keywords" "global power"
				(at 0 0 0)
				(effects
					(font
						(size 1.27 1.27)
					)
					(hide yes)
				)
			)
			(symbol "VCC_0_1"
				(polyline
					(pts
						(xy -0.762 1.27) (xy 0 2.54)
					)
					(stroke
						(width 0)
						(type default)
					)
					(fill
						(type none)
					)
				)
				(polyline
					(pts
						(xy 0 0) (xy 0 2.54)
					)
					(stroke
						(width 0)
						(type default)
					)
					(fill
						(type none)
					)
				)
				(polyline
					(pts
						(xy 0 2.54) (xy 0.762 1.27)
					)
					(stroke
						(width 0)
						(type default)
					)
					(fill
						(type none)
					)
				)
			)
			(symbol "VCC_1_1"
				(pin power_in line
					(at 0 0 90)
					(length 0)
					(name "~"
						(effects
							(font
								(size 1.27 1.27)
							)
						)
					)
					(number "1"
						(effects
							(font
								(size 1.27 1.27)
							)
						)
					)
				)
			)
		)
	)
	(junction
		(at 87.63 132.08)
		(diameter 0)
		(color 0 0 0 0)
		(uuid "35bb58d0-0510-4d7e-9c19-20984a5231cf")
	)
	(junction
		(at 107.95 130.81)
		(diameter 0)
		(color 0 0 0 0)
		(uuid "38cfd662-aa96-4295-bf9f-46e87c45cf30")
	)
	(junction
		(at 96.52 60.96)
		(diameter 0)
		(color 0 0 0 0)
		(uuid "b812082a-7369-4aa9-84fa-6ae6bcfb78e2")
	)
	(wire
		(pts
			(xy 85.09 140.97) (xy 76.2 140.97)
		)
		(stroke
			(width 0)
			(type default)
		)
		(uuid "016c2e99-61b9-4474-a451-a7d2cd9b1646")
	)
	(wire
		(pts
			(xy 81.28 62.23) (xy 81.28 60.96)
		)
		(stroke
			(width 0)
			(type default)
		)
		(uuid "02c931e6-d3f2-4adc-8663-d9f2dcc89b12")
	)
	(wire
		(pts
			(xy 113.03 153.67) (xy 130.81 153.67)
		)
		(stroke
			(width 0)
			(type default)
		)
		(uuid "063355ec-6c78-4ade-9998-afadebdb91f4")
	)
	(wire
		(pts
			(xy 121.92 97.79) (xy 111.76 97.79)
		)
		(stroke
			(width 0)
			(type default)
		)
		(uuid "0a8639c4-21ec-4a57-8009-fd8860091d43")
	)
	(wire
		(pts
			(xy 121.92 90.17) (xy 111.76 90.17)
		)
		(stroke
			(width 0)
			(type default)
		)
		(uuid "18c65c3c-0659-42e8-91c8-0f21768b6b8c")
	)
	(wire
		(pts
			(xy 71.12 82.55) (xy 81.28 82.55)
		)
		(stroke
			(width 0)
			(type default)
		)
		(uuid "193612d5-b44c-4756-8b5e-b2b63c72a444")
	)
	(wire
		(pts
			(xy 113.03 148.59) (xy 119.38 148.59)
		)
		(stroke
			(width 0)
			(type default)
		)
		(uuid "2a74eeb0-7aa1-418a-8d14-23cda1b4fb81")
	)
	(wire
		(pts
			(xy 124.46 148.59) (xy 130.81 148.59)
		)
		(stroke
			(width 0)
			(type default)
		)
		(uuid "34e204cb-c643-4f13-84f5-adf94c5b51ae")
	)
	(wire
		(pts
			(xy 68.58 175.26) (xy 74.93 175.26)
		)
		(stroke
			(width 0)
			(type default)
		)
		(uuid "3abca096-75c7-4163-a4e1-e7755efe1469")
	)
	(wire
		(pts
			(xy 96.52 110.49) (xy 96.52 114.3)
		)
		(stroke
			(width 0)
			(type default)
		)
		(uuid "3c256c08-2118-4da1-8f4d-1d077a2ed250")
	)
	(wire
		(pts
			(xy 85.09 153.67) (xy 76.2 153.67)
		)
		(stroke
			(width 0)
			(type default)
		)
		(uuid "3c63258b-5d9f-4e1e-874d-1de88ea9df6a")
	)
	(wire
		(pts
			(xy 107.95 130.81) (xy 107.95 128.27)
		)
		(stroke
			(width 0)
			(type default)
		)
		(uuid "6101eb69-e894-4c0c-8eb6-732badaa7097")
	)
	(wire
		(pts
			(xy 85.09 143.51) (xy 76.2 143.51)
		)
		(stroke
			(width 0)
			(type default)
		)
		(uuid "65beddb5-0596-4e2d-a29f-c28dfdb06f06")
	)
	(wire
		(pts
			(xy 85.09 146.05) (xy 76.2 146.05)
		)
		(stroke
			(width 0)
			(type default)
		)
		(uuid "670ec8a3-0b41-4845-814a-c05ea247fc62")
	)
	(wire
		(pts
			(xy 121.92 87.63) (xy 111.76 87.63)
		)
		(stroke
			(width 0)
			(type default)
		)
		(uuid "67d9667f-e026-4140-9719-f35953dd2692")
	)
	(wire
		(pts
			(xy 121.92 82.55) (xy 111.76 82.55)
		)
		(stroke
			(width 0)
			(type default)
		)
		(uuid "67fc8814-a1fd-40bf-a1b7-1725e13fa7fc")
	)
	(wire
		(pts
			(xy 113.03 143.51) (xy 130.81 143.51)
		)
		(stroke
			(width 0)
			(type default)
		)
		(uuid "6d89dcdb-8a24-4f1b-849c-e95e71271bb1")
	)
	(wire
		(pts
			(xy 130.81 138.43) (xy 120.65 138.43)
		)
		(stroke
			(width 0)
			(type default)
		)
		(uuid "72c0d19b-d2b9-41e6-853a-2142eee04b9d")
	)
	(wire
		(pts
			(xy 85.09 151.13) (xy 76.2 151.13)
		)
		(stroke
			(width 0)
			(type default)
		)
		(uuid "7684a1f5-7737-4cb2-8e87-ee1b5dcf5f0f")
	)
	(wire
		(pts
			(xy 113.03 146.05) (xy 130.81 146.05)
		)
		(stroke
			(width 0)
			(type default)
		)
		(uuid "7d91cd7f-bae1-47c7-b0e0-6158326568e1")
	)
	(wire
		(pts
			(xy 96.52 60.96) (xy 96.52 74.93)
		)
		(stroke
			(width 0)
			(type default)
		)
		(uuid "87cee967-7ef6-4232-9752-3e66368b1bfb")
	)
	(wire
		(pts
			(xy 113.03 151.13) (xy 130.81 151.13)
		)
		(stroke
			(width 0)
			(type default)
		)
		(uuid "8b50f63f-0320-4143-895b-dc056e17a546")
	)
	(wire
		(pts
			(xy 81.28 60.96) (xy 96.52 60.96)
		)
		(stroke
			(width 0)
			(type default)
		)
		(uuid "8b911189-8b17-440d-b850-a7a0da3673a9")
	)
	(wire
		(pts
			(xy 120.65 138.43) (xy 120.65 128.27)
		)
		(stroke
			(width 0)
			(type default)
		)
		(uuid "95303701-0389-40f3-a70f-4c3f917cffad")
	)
	(wire
		(pts
			(xy 71.12 87.63) (xy 81.28 87.63)
		)
		(stroke
			(width 0)
			(type default)
		)
		(uuid "96048bfb-b68f-4aea-a139-80d2965e8737")
	)
	(wire
		(pts
			(xy 76.2 138.43) (xy 87.63 138.43)
		)
		(stroke
			(width 0)
			(type default)
		)
		(uuid "99c7fefb-972b-45d4-8bea-4b9bfbd4c3d7")
	)
	(wire
		(pts
			(xy 87.63 132.08) (xy 87.63 138.43)
		)
		(stroke
			(width 0)
			(type default)
		)
		(uuid "ac73fced-4902-4315-8537-8abec3504006")
	)
	(wire
		(pts
			(xy 85.09 148.59) (xy 76.2 148.59)
		)
		(stroke
			(width 0)
			(type default)
		)
		(uuid "af058fd9-ddda-4087-94ab-71f64c445ec1")
	)
	(wire
		(pts
			(xy 43.18 175.26) (xy 43.18 179.07)
		)
		(stroke
			(width 0)
			(type default)
		)
		(uuid "b6720003-1e4c-4aeb-be1a-58e42a611181")
	)
	(wire
		(pts
			(xy 121.92 92.71) (xy 111.76 92.71)
		)
		(stroke
			(width 0)
			(type default)
		)
		(uuid "ba9f19ac-48bf-43d1-8b7b-9044620e5d72")
	)
	(wire
		(pts
			(xy 130.81 130.81) (xy 135.89 130.81)
		)
		(stroke
			(width 0)
			(type default)
		)
		(uuid "c06b5105-e87c-43ac-9e4b-ea1976d3287d")
	)
	(wire
		(pts
			(xy 58.42 175.26) (xy 63.5 175.26)
		)
		(stroke
			(width 0)
			(type default)
		)
		(uuid "c3f1c072-5b30-4557-8058-6c926899437a")
	)
	(wire
		(pts
			(xy 130.81 130.81) (xy 130.81 135.89)
		)
		(stroke
			(width 0)
			(type default)
		)
		(uuid "cc5b7b4b-07e9-45d6-8934-983886a8762c")
	)
	(wire
		(pts
			(xy 81.28 67.31) (xy 81.28 71.12)
		)
		(stroke
			(width 0)
			(type default)
		)
		(uuid "da62014c-3c6f-4abd-9fb2-525626152e81")
	)
	(wire
		(pts
			(xy 121.92 100.33) (xy 111.76 100.33)
		)
		(stroke
			(width 0)
			(type default)
		)
		(uuid "daea45fd-ba13-4120-acf6-88cc12e3c45a")
	)
	(wire
		(pts
			(xy 50.8 175.26) (xy 43.18 175.26)
		)
		(stroke
			(width 0)
			(type default)
		)
		(uuid "e40813e4-ae98-4c43-970d-9db2e91e4d00")
	)
	(wire
		(pts
			(xy 121.92 85.09) (xy 111.76 85.09)
		)
		(stroke
			(width 0)
			(type default)
		)
		(uuid "e90408af-74c9-4e00-b354-10d353f4f71f")
	)
	(wire
		(pts
			(xy 71.12 90.17) (xy 81.28 90.17)
		)
		(stroke
			(width 0)
			(type default)
		)
		(uuid "e97fa5bf-63ff-4a44-837c-2cb4f06c6ed9")
	)
	(wire
		(pts
			(xy 121.92 95.25) (xy 111.76 95.25)
		)
		(stroke
			(width 0)
			(type default)
		)
		(uuid "ecd919af-f2a9-4625-9268-8fed5d50765c")
	)
	(wire
		(pts
			(xy 107.95 128.27) (xy 120.65 128.27)
		)
		(stroke
			(width 0)
			(type default)
		)
		(uuid "ee8d86ec-a1cb-45db-b7fe-e0c2b9e82fe1")
	)
	(wire
		(pts
			(xy 113.03 140.97) (xy 130.81 140.97)
		)
		(stroke
			(width 0)
			(type default)
		)
		(uuid "f64fecf2-ca92-40d8-ad32-3b4bb7f1ab44")
	)
	(wire
		(pts
			(xy 71.12 85.09) (xy 81.28 85.09)
		)
		(stroke
			(width 0)
			(type default)
		)
		(uuid "fa854d18-5d72-484e-894d-c67b4823a21f")
	)
	(text_box "Résistance UPDI pas forcément nécessaire car déjà une résistance sur ISA mais permet de se protéger"
		(exclude_from_sim no)
		(at 105.41 158.75 0)
		(size 25.4 12.7)
		(stroke
			(width 0)
			(type default)
		)
		(fill
			(type none)
		)
		(effects
			(font
				(size 1.27 1.27)
			)
			(justify left top)
		)
		(uuid "4604ef13-1fa6-4fde-8fd3-1d64bd1ba430")
	)
	(label "PA5"
		(at 85.09 143.51 180)
		(fields_autoplaced yes)
		(effects
			(font
				(size 1.27 1.27)
			)
			(justify right bottom)
		)
		(uuid "00df8d1e-faf8-447c-ac25-364c10066a9c")
	)
	(label "PA1"
		(at 121.92 85.09 0)
		(fields_autoplaced yes)
		(effects
			(font
				(size 1.27 1.27)
			)
			(justify left bottom)
		)
		(uuid "02264a7a-3017-4eb6-aa8e-a4a0044353aa")
	)
	(label "PA3"
		(at 113.03 140.97 180)
		(fields_autoplaced yes)
		(effects
			(font
				(size 1.27 1.27)
			)
			(justify right bottom)
		)
		(uuid "36e01410-1648-42de-b912-397eab04fc8c")
	)
	(label "UPDI"
		(at 121.92 82.55 0)
		(fields_autoplaced yes)
		(effects
			(font
				(size 1.27 1.27)
			)
			(justify left bottom)
		)
		(uuid "38767bdb-7b4a-4d25-88a5-f3a58dda7ccc")
	)
	(label "PA1"
		(at 113.03 146.05 180)
		(fields_autoplaced yes)
		(effects
			(font
				(size 1.27 1.27)
			)
			(justify right bottom)
		)
		(uuid "39abb8a7-71ef-475f-8ee7-285cb76440e0")
	)
	(label "TX"
		(at 85.09 153.67 180)
		(fields_autoplaced yes)
		(effects
			(font
				(size 1.27 1.27)
			)
			(justify right bottom)
		)
		(uuid "4bc68ba0-7c9b-496d-b409-925f500a4fb7")
	)
	(label "PA2"
		(at 113.03 143.51 180)
		(fields_autoplaced yes)
		(effects
			(font
				(size 1.27 1.27)
			)
			(justify right bottom)
		)
		(uuid "4e4ceb25-41e6-4dac-9db9-ee324fc89e19")
	)
	(label "PB1"
		(at 71.12 85.09 180)
		(fields_autoplaced yes)
		(effects
			(font
				(size 1.27 1.27)
			)
			(justify right bottom)
		)
		(uuid "4ec9a59c-f5e1-4cd0-b6ca-17c22361e787")
	)
	(label "PB0"
		(at 113.03 151.13 180)
		(fields_autoplaced yes)
		(effects
			(font
				(size 1.27 1.27)
			)
			(justify right bottom)
		)
		(uuid "61853430-e5dd-4f3e-aa21-c5474c9e25e3")
	)
	(label "LED"
		(at 74.93 175.26 0)
		(fields_autoplaced yes)
		(effects
			(font
				(size 1.27 1.27)
			)
			(justify left bottom)
		)
		(uuid "6715d80c-1f4e-437c-92da-1d4ae05c011e")
	)
	(label "PA6"
		(at 85.09 146.05 180)
		(fields_autoplaced yes)
		(effects
			(font
				(size 1.27 1.27)
			)
			(justify right bottom)
		)
		(uuid "82993e18-8d42-4703-88aa-d894e5182ae9")
	)
	(label "PB0"
		(at 71.12 82.55 180)
		(fields_autoplaced yes)
		(effects
			(font
				(size 1.27 1.27)
			)
			(justify right bottom)
		)
		(uuid "85a49817-e585-47df-a24b-24620f18c96f")
	)
	(label "PA4"
		(at 121.92 92.71 0)
		(fields_autoplaced yes)
		(effects
			(font
				(size 1.27 1.27)
			)
			(justify left bottom)
		)
		(uuid "8bffb4a1-e73f-4a8c-8e35-2c5b764e510f")
	)
	(label "PA7"
		(at 121.92 100.33 0)
		(fields_autoplaced yes)
		(effects
			(font
				(size 1.27 1.27)
			)
			(justify left bottom)
		)
		(uuid "927bafc7-09f7-4c33-b008-1c09a3c55db1")
	)
	(label "PA4"
		(at 85.09 140.97 180)
		(fields_autoplaced yes)
		(effects
			(font
				(size 1.27 1.27)
			)
			(justify right bottom)
		)
		(uuid "9f48c356-6699-4713-a7b3-e14cb97c2d1c")
	)
	(label "PA2"
		(at 121.92 87.63 0)
		(fields_autoplaced yes)
		(effects
			(font
				(size 1.27 1.27)
			)
			(justify left bottom)
		)
		(uuid "a5f2a9a9-6cd0-4852-8df3-a36439c792d3")
	)
	(label "RX"
		(at 71.12 90.17 180)
		(fields_autoplaced yes)
		(effects
			(font
				(size 1.27 1.27)
			)
			(justify right bottom)
		)
		(uuid "a719bc94-23e8-4cd6-8bf3-15a7c761229c")
	)
	(label "PA3"
		(at 121.92 90.17 0)
		(fields_autoplaced yes)
		(effects
			(font
				(size 1.27 1.27)
			)
			(justify left bottom)
		)
		(uuid "a7834ead-ed9b-4497-ac08-bb8401522e1a")
	)
	(label "PA7"
		(at 85.09 148.59 180)
		(fields_autoplaced yes)
		(effects
			(font
				(size 1.27 1.27)
			)
			(justify right bottom)
		)
		(uuid "ba7c2b7a-dbaa-4d89-b581-d6e0424c6ab2")
	)
	(label "PA5"
		(at 121.92 95.25 0)
		(fields_autoplaced yes)
		(effects
			(font
				(size 1.27 1.27)
			)
			(justify left bottom)
		)
		(uuid "bafb4f86-d5d4-4752-a380-6146bc76c447")
	)
	(label "RX"
		(at 85.09 151.13 180)
		(fields_autoplaced yes)
		(effects
			(font
				(size 1.27 1.27)
			)
			(justify right bottom)
		)
		(uuid "c9781df3-ccbd-46cd-a5f5-0683d24f4fd8")
	)
	(label "LED"
		(at 135.89 130.81 0)
		(fields_autoplaced yes)
		(effects
			(font
				(size 1.27 1.27)
			)
			(justify left bottom)
		)
		(uuid "cf23b9e4-2ec0-4fbc-9069-3694202684b1")
	)
	(label "UPDI"
		(at 113.03 148.59 180)
		(fields_autoplaced yes)
		(effects
			(font
				(size 1.27 1.27)
			)
			(justify right bottom)
		)
		(uuid "d413e428-d251-4afc-b6df-4964b5b5764a")
	)
	(label "TX"
		(at 71.12 87.63 180)
		(fields_autoplaced yes)
		(effects
			(font
				(size 1.27 1.27)
			)
			(justify right bottom)
		)
		(uuid "d6d75ad3-4a2b-4aff-b9a0-2cd774b4b45d")
	)
	(label "PB1"
		(at 113.03 153.67 180)
		(fields_autoplaced yes)
		(effects
			(font
				(size 1.27 1.27)
			)
			(justify right bottom)
		)
		(uuid "dce2ee5c-9ea3-4baa-bb09-d21b020f7856")
	)
	(label "PA6"
		(at 121.92 97.79 0)
		(fields_autoplaced yes)
		(effects
			(font
				(size 1.27 1.27)
			)
			(justify left bottom)
		)
		(uuid "fa6f14d0-03ed-4264-8d75-f88938037162")
	)
	(symbol
		(lib_id "power:PWR_FLAG")
		(at 87.63 132.08 90)
		(unit 1)
		(exclude_from_sim no)
		(in_bom yes)
		(on_board yes)
		(dnp no)
		(fields_autoplaced yes)
		(uuid "081ff07d-49b9-439b-95d7-e34533a1c18a")
		(property "Reference" "#FLG01"
			(at 85.725 132.08 0)
			(effects
				(font
					(size 1.27 1.27)
				)
				(hide yes)
			)
		)
		(property "Value" "PWR_FLAG"
			(at 83.82 132.0799 90)
			(effects
				(font
					(size 1.27 1.27)
				)
				(justify left)
			)
		)
		(property "Footprint" ""
			(at 87.63 132.08 0)
			(effects
				(font
					(size 1.27 1.27)
				)
				(hide yes)
			)
		)
		(property "Datasheet" "~"
			(at 87.63 132.08 0)
			(effects
				(font
					(size 1.27 1.27)
				)
				(hide yes)
			)
		)
		(property "Description" "Special symbol for telling ERC where power comes from"
			(at 87.63 132.08 0)
			(effects
				(font
					(size 1.27 1.27)
				)
				(hide yes)
			)
		)
		(pin "1"
			(uuid "db6c6cec-7581-42f4-a42e-b73719158deb")
		)
		(instances
			(project "attinyx14_breakout"
				(path "/16bba5fc-5e0d-4c40-a5cf-d802a80d5cab"
					(reference "#FLG01")
					(unit 1)
				)
			)
		)
	)
	(symbol
		(lib_id "MCU_Microchip_ATtiny:ATtiny1614-SS")
		(at 96.52 92.71 0)
		(unit 1)
		(exclude_from_sim no)
		(in_bom yes)
		(on_board yes)
		(dnp no)
		(fields_autoplaced yes)
		(uuid "20f688f4-3bec-4b15-ad54-41928820b4aa")
		(property "Reference" "U1"
			(at 98.7141 72.39 0)
			(effects
				(font
					(size 1.27 1.27)
				)
				(justify left)
			)
		)
		(property "Value" "ATtiny1614-SS"
			(at 98.7141 74.93 0)
			(effects
				(font
					(size 1.27 1.27)
				)
				(justify left)
			)
		)
		(property "Footprint" "Package_SO:SOIC-14_3.9x8.7mm_P1.27mm"
			(at 96.52 92.71 0)
			(effects
				(font
					(size 1.27 1.27)
					(italic yes)
				)
				(hide yes)
			)
		)
		(property "Datasheet" "http://ww1.microchip.com/downloads/en/DeviceDoc/ATtiny1614-data-sheet-40001995A.pdf"
			(at 96.52 92.71 0)
			(effects
				(font
					(size 1.27 1.27)
				)
				(hide yes)
			)
		)
		(property "Description" "20MHz, 16kB Flash, 2kB SRAM, 256B EEPROM, SOIC-14"
			(at 96.52 92.71 0)
			(effects
				(font
					(size 1.27 1.27)
				)
				(hide yes)
			)
		)
		(pin "9"
			(uuid "ffc18af7-4f68-41e3-b07a-dbda431dfb46")
		)
		(pin "1"
			(uuid "b8148955-7085-4598-b12e-ad68d66b6b53")
		)
		(pin "2"
			(uuid "24f5a335-5642-49ee-82bc-cf8b0e40bfd7")
		)
		(pin "10"
			(uuid "73fdd7bf-1e49-4928-a8b5-7f260676e5cc")
		)
		(pin "7"
			(uuid "28b2b8ef-8507-413a-aa11-f1cf80db00d8")
		)
		(pin "12"
			(uuid "b0b0a5b9-1067-40bc-bbc0-059060227e8b")
		)
		(pin "6"
			(uuid "c252461b-2fe1-42c4-a067-43373522b880")
		)
		(pin "4"
			(uuid "fd57425e-36f9-49a7-bd36-3bd2788e2c02")
		)
		(pin "13"
			(uuid "cca0af14-9d24-4a84-9fb1-26808903b68a")
		)
		(pin "3"
			(uuid "af8c77db-a016-4f1c-b702-39dda5d2cec2")
		)
		(pin "5"
			(uuid "fe0d2008-8565-4953-82b7-27f9287f365b")
		)
		(pin "14"
			(uuid "364a0adf-8b9a-46de-a427-3a085e55e604")
		)
		(pin "11"
			(uuid "5a6dc316-e86c-4088-a78f-9a10af9ca9f7")
		)
		(pin "8"
			(uuid "67579d1a-7cf5-4a0f-a987-5797ea111315")
		)
		(instances
			(project "attinyx14_breakout"
				(path "/16bba5fc-5e0d-4c40-a5cf-d802a80d5cab"
					(reference "U1")
					(unit 1)
				)
			)
		)
	)
	(symbol
		(lib_id "power:GND")
		(at 96.52 114.3 0)
		(unit 1)
		(exclude_from_sim no)
		(in_bom yes)
		(on_board yes)
		(dnp no)
		(fields_autoplaced yes)
		(uuid "4c2e62d6-820e-4b49-b7f9-1262faec49f8")
		(property "Reference" "#PWR03"
			(at 96.52 120.65 0)
			(effects
				(font
					(size 1.27 1.27)
				)
				(hide yes)
			)
		)
		(property "Value" "GND"
			(at 96.52 119.38 0)
			(effects
				(font
					(size 1.27 1.27)
				)
			)
		)
		(property "Footprint" ""
			(at 96.52 114.3 0)
			(effects
				(font
					(size 1.27 1.27)
				)
				(hide yes)
			)
		)
		(property "Datasheet" ""
			(at 96.52 114.3 0)
			(effects
				(font
					(size 1.27 1.27)
				)
				(hide yes)
			)
		)
		(property "Description" "Power symbol creates a global label with name \"GND\" , ground"
			(at 96.52 114.3 0)
			(effects
				(font
					(size 1.27 1.27)
				)
				(hide yes)
			)
		)
		(pin "1"
			(uuid "210a4e2e-0945-4b10-b322-27dbeb13ee31")
		)
		(instances
			(project "attinyx14_breakout"
				(path "/16bba5fc-5e0d-4c40-a5cf-d802a80d5cab"
					(reference "#PWR03")
					(unit 1)
				)
			)
		)
	)
	(symbol
		(lib_id "Connector_Generic:Conn_01x08")
		(at 135.89 143.51 0)
		(unit 1)
		(exclude_from_sim no)
		(in_bom yes)
		(on_board yes)
		(dnp no)
		(fields_autoplaced yes)
		(uuid "6065d567-798b-4b33-a7c8-de91f49df73f")
		(property "Reference" "J1"
			(at 138.43 143.5099 0)
			(effects
				(font
					(size 1.27 1.27)
				)
				(justify left)
			)
		)
		(property "Value" "right"
			(at 138.43 146.0499 0)
			(effects
				(font
					(size 1.27 1.27)
				)
				(justify left)
			)
		)
		(property "Footprint" "Connector_PinHeader_2.54mm:PinHeader_1x08_P2.54mm_Vertical"
			(at 135.89 143.51 0)
			(effects
				(font
					(size 1.27 1.27)
				)
				(hide yes)
			)
		)
		(property "Datasheet" "~"
			(at 135.89 143.51 0)
			(effects
				(font
					(size 1.27 1.27)
				)
				(hide yes)
			)
		)
		(property "Description" "Generic connector, single row, 01x08, script generated (kicad-library-utils/schlib/autogen/connector/)"
			(at 135.89 143.51 0)
			(effects
				(font
					(size 1.27 1.27)
				)
				(hide yes)
			)
		)
		(pin "8"
			(uuid "3a3045a7-895a-473a-8736-e4cc87645570")
		)
		(pin "1"
			(uuid "0c354dc3-dc02-4cfd-89dd-83698a10ae24")
		)
		(pin "5"
			(uuid "4923b04a-54c2-4944-918b-200d384d0009")
		)
		(pin "6"
			(uuid "eb355988-cf77-424b-b3d2-bfcb3efe0200")
		)
		(pin "7"
			(uuid "6ec6781b-53fe-443a-a43e-0ac35153ae78")
		)
		(pin "2"
			(uuid "f262b796-f01d-4059-9d78-8c0e13741214")
		)
		(pin "3"
			(uuid "ab70ea42-9e40-4e32-a7fe-d2cfd02baf85")
		)
		(pin "4"
			(uuid "144e2d5d-0fae-4e81-9448-e53378e68a55")
		)
		(instances
			(project "attinyx14_breakout"
				(path "/16bba5fc-5e0d-4c40-a5cf-d802a80d5cab"
					(reference "J1")
					(unit 1)
				)
			)
		)
	)
	(symbol
		(lib_id "power:GND")
		(at 43.18 179.07 0)
		(unit 1)
		(exclude_from_sim no)
		(in_bom yes)
		(on_board yes)
		(dnp no)
		(uuid "656d92f8-65d0-4701-b00e-7be75d4565aa")
		(property "Reference" "#PWR06"
			(at 43.18 185.42 0)
			(effects
				(font
					(size 1.27 1.27)
				)
				(hide yes)
			)
		)
		(property "Value" "GND"
			(at 43.18 184.15 0)
			(effects
				(font
					(size 1.27 1.27)
				)
			)
		)
		(property "Footprint" ""
			(at 43.18 179.07 0)
			(effects
				(font
					(size 1.27 1.27)
				)
				(hide yes)
			)
		)
		(property "Datasheet" ""
			(at 43.18 179.07 0)
			(effects
				(font
					(size 1.27 1.27)
				)
				(hide yes)
			)
		)
		(property "Description" "Power symbol creates a global label with name \"GND\" , ground"
			(at 43.18 179.07 0)
			(effects
				(font
					(size 1.27 1.27)
				)
				(hide yes)
			)
		)
		(pin "1"
			(uuid "9539a05d-5817-46c8-af86-6ee8765ab5f6")
		)
		(instances
			(project "attinyx14_breakout"
				(path "/16bba5fc-5e0d-4c40-a5cf-d802a80d5cab"
					(reference "#PWR06")
					(unit 1)
				)
			)
		)
	)
	(symbol
		(lib_id "power:GND")
		(at 81.28 71.12 0)
		(unit 1)
		(exclude_from_sim no)
		(in_bom yes)
		(on_board yes)
		(dnp no)
		(fields_autoplaced yes)
		(uuid "66f5657f-dc41-4186-af18-1d601959cd50")
		(property "Reference" "#PWR02"
			(at 81.28 77.47 0)
			(effects
				(font
					(size 1.27 1.27)
				)
				(hide yes)
			)
		)
		(property "Value" "GND"
			(at 81.28 76.2 0)
			(effects
				(font
					(size 1.27 1.27)
				)
			)
		)
		(property "Footprint" ""
			(at 81.28 71.12 0)
			(effects
				(font
					(size 1.27 1.27)
				)
				(hide yes)
			)
		)
		(property "Datasheet" ""
			(at 81.28 71.12 0)
			(effects
				(font
					(size 1.27 1.27)
				)
				(hide yes)
			)
		)
		(property "Description" "Power symbol creates a global label with name \"GND\" , ground"
			(at 81.28 71.12 0)
			(effects
				(font
					(size 1.27 1.27)
				)
				(hide yes)
			)
		)
		(pin "1"
			(uuid "0699e20e-aeb8-431c-88ec-5c4245332a9a")
		)
		(instances
			(project "attinyx14_breakout"
				(path "/16bba5fc-5e0d-4c40-a5cf-d802a80d5cab"
					(reference "#PWR02")
					(unit 1)
				)
			)
		)
	)
	(symbol
		(lib_id "power:VCC")
		(at 96.52 60.96 0)
		(unit 1)
		(exclude_from_sim no)
		(in_bom yes)
		(on_board yes)
		(dnp no)
		(fields_autoplaced yes)
		(uuid "93637c11-74ab-408e-b6e0-9f26f6dc82d2")
		(property "Reference" "#PWR01"
			(at 96.52 64.77 0)
			(effects
				(font
					(size 1.27 1.27)
				)
				(hide yes)
			)
		)
		(property "Value" "VCC"
			(at 96.52 55.88 0)
			(effects
				(font
					(size 1.27 1.27)
				)
			)
		)
		(property "Footprint" ""
			(at 96.52 60.96 0)
			(effects
				(font
					(size 1.27 1.27)
				)
				(hide yes)
			)
		)
		(property "Datasheet" ""
			(at 96.52 60.96 0)
			(effects
				(font
					(size 1.27 1.27)
				)
				(hide yes)
			)
		)
		(property "Description" "Power symbol creates a global label with name \"VCC\""
			(at 96.52 60.96 0)
			(effects
				(font
					(size 1.27 1.27)
				)
				(hide yes)
			)
		)
		(pin "1"
			(uuid "fbf245fd-8944-4ebe-a773-e1dfb0eb8036")
		)
		(instances
			(project "attinyx14_breakout"
				(path "/16bba5fc-5e0d-4c40-a5cf-d802a80d5cab"
					(reference "#PWR01")
					(unit 1)
				)
			)
		)
	)
	(symbol
		(lib_id "Device:R_Small")
		(at 121.92 148.59 90)
		(unit 1)
		(exclude_from_sim no)
		(in_bom yes)
		(on_board yes)
		(dnp no)
		(uuid "9e3b4fd9-f73f-414f-8208-e6405a41790b")
		(property "Reference" "R1"
			(at 117.856 147.574 90)
			(effects
				(font
					(size 1.27 1.27)
				)
			)
		)
		(property "Value" "300R"
			(at 126.492 147.32 90)
			(effects
				(font
					(size 1.27 1.27)
				)
			)
		)
		(property "Footprint" "Resistor_SMD:R_0805_2012Metric"
			(at 121.92 148.59 0)
			(effects
				(font
					(size 1.27 1.27)
				)
				(hide yes)
			)
		)
		(property "Datasheet" "~"
			(at 121.92 148.59 0)
			(effects
				(font
					(size 1.27 1.27)
				)
				(hide yes)
			)
		)
		(property "Description" "Resistor, small symbol"
			(at 121.92 148.59 0)
			(effects
				(font
					(size 1.27 1.27)
				)
				(hide yes)
			)
		)
		(pin "2"
			(uuid "7e8d447c-101f-47f2-926c-261fb08fee94")
		)
		(pin "1"
			(uuid "d441cc25-c100-4f8c-8a79-be00b49657ed")
		)
		(instances
			(project "attinyx14_breakout"
				(path "/16bba5fc-5e0d-4c40-a5cf-d802a80d5cab"
					(reference "R1")
					(unit 1)
				)
			)
		)
	)
	(symbol
		(lib_id "Connector_Generic:Conn_01x07")
		(at 71.12 146.05 180)
		(unit 1)
		(exclude_from_sim no)
		(in_bom yes)
		(on_board yes)
		(dnp no)
		(fields_autoplaced yes)
		(uuid "b7becc2c-0276-4f3b-87e9-385cc3b892cb")
		(property "Reference" "J5"
			(at 71.12 132.08 0)
			(effects
				(font
					(size 1.27 1.27)
				)
			)
		)
		(property "Value" "left"
			(at 71.12 134.62 0)
			(effects
				(font
					(size 1.27 1.27)
				)
			)
		)
		(property "Footprint" "Connector_PinHeader_2.54mm:PinHeader_1x07_P2.54mm_Vertical"
			(at 71.12 146.05 0)
			(effects
				(font
					(size 1.27 1.27)
				)
				(hide yes)
			)
		)
		(property "Datasheet" "~"
			(at 71.12 146.05 0)
			(effects
				(font
					(size 1.27 1.27)
				)
				(hide yes)
			)
		)
		(property "Description" "Generic connector, single row, 01x07, script generated (kicad-library-utils/schlib/autogen/connector/)"
			(at 71.12 146.05 0)
			(effects
				(font
					(size 1.27 1.27)
				)
				(hide yes)
			)
		)
		(pin "4"
			(uuid "c46d1b77-db7b-4c5d-ba30-0030b0d39345")
		)
		(pin "2"
			(uuid "454fb530-5db3-49d6-bfb2-9da6de657fe5")
		)
		(pin "1"
			(uuid "9e5159e0-e602-43a8-8e19-85bd4706e1f2")
		)
		(pin "3"
			(uuid "e7d7ac19-8de4-4fe9-8c8b-9ffdb436abe4")
		)
		(pin "5"
			(uuid "07130bf8-f080-4b98-88bc-df822440af58")
		)
		(pin "6"
			(uuid "c02ffcd6-94ed-4161-af5a-1898b0aab434")
		)
		(pin "7"
			(uuid "b29c04df-fe77-40ba-8d3f-2f481cb44684")
		)
		(instances
			(project "attinyx14_breakout"
				(path "/16bba5fc-5e0d-4c40-a5cf-d802a80d5cab"
					(reference "J5")
					(unit 1)
				)
			)
		)
	)
	(symbol
		(lib_id "power:PWR_FLAG")
		(at 107.95 130.81 90)
		(unit 1)
		(exclude_from_sim no)
		(in_bom yes)
		(on_board yes)
		(dnp no)
		(fields_autoplaced yes)
		(uuid "c4f9c418-57b6-4f2a-99dd-1ef44dca7cd1")
		(property "Reference" "#FLG02"
			(at 106.045 130.81 0)
			(effects
				(font
					(size 1.27 1.27)
				)
				(hide yes)
			)
		)
		(property "Value" "PWR_FLAG"
			(at 104.14 130.8099 90)
			(effects
				(font
					(size 1.27 1.27)
				)
				(justify left)
			)
		)
		(property "Footprint" ""
			(at 107.95 130.81 0)
			(effects
				(font
					(size 1.27 1.27)
				)
				(hide yes)
			)
		)
		(property "Datasheet" "~"
			(at 107.95 130.81 0)
			(effects
				(font
					(size 1.27 1.27)
				)
				(hide yes)
			)
		)
		(property "Description" "Special symbol for telling ERC where power comes from"
			(at 107.95 130.81 0)
			(effects
				(font
					(size 1.27 1.27)
				)
				(hide yes)
			)
		)
		(pin "1"
			(uuid "b5146951-e4eb-49f0-b0b5-d69f8d78ace9")
		)
		(instances
			(project "attinyx14_breakout"
				(path "/16bba5fc-5e0d-4c40-a5cf-d802a80d5cab"
					(reference "#FLG02")
					(unit 1)
				)
			)
		)
	)
	(symbol
		(lib_id "power:VCC")
		(at 87.63 132.08 0)
		(unit 1)
		(exclude_from_sim no)
		(in_bom yes)
		(on_board yes)
		(dnp no)
		(fields_autoplaced yes)
		(uuid "d6edc6ec-7ed5-4593-9a62-547fac2685bd")
		(property "Reference" "#PWR04"
			(at 87.63 135.89 0)
			(effects
				(font
					(size 1.27 1.27)
				)
				(hide yes)
			)
		)
		(property "Value" "VCC"
			(at 87.63 127 0)
			(effects
				(font
					(size 1.27 1.27)
				)
			)
		)
		(property "Footprint" ""
			(at 87.63 132.08 0)
			(effects
				(font
					(size 1.27 1.27)
				)
				(hide yes)
			)
		)
		(property "Datasheet" ""
			(at 87.63 132.08 0)
			(effects
				(font
					(size 1.27 1.27)
				)
				(hide yes)
			)
		)
		(property "Description" "Power symbol creates a global label with name \"VCC\""
			(at 87.63 132.08 0)
			(effects
				(font
					(size 1.27 1.27)
				)
				(hide yes)
			)
		)
		(pin "1"
			(uuid "9a2063cc-d2d3-40e3-a07b-74eb06d2fc9e")
		)
		(instances
			(project "attinyx14_breakout"
				(path "/16bba5fc-5e0d-4c40-a5cf-d802a80d5cab"
					(reference "#PWR04")
					(unit 1)
				)
			)
		)
	)
	(symbol
		(lib_id "Device:LED")
		(at 54.61 175.26 0)
		(unit 1)
		(exclude_from_sim no)
		(in_bom yes)
		(on_board yes)
		(dnp no)
		(fields_autoplaced yes)
		(uuid "d78dee02-e2c8-4816-87c5-2849711d7a34")
		(property "Reference" "D1"
			(at 53.0225 168.91 0)
			(effects
				(font
					(size 1.27 1.27)
				)
			)
		)
		(property "Value" "LED"
			(at 53.0225 171.45 0)
			(effects
				(font
					(size 1.27 1.27)
				)
			)
		)
		(property "Footprint" "LED_SMD:LED_0805_2012Metric"
			(at 54.61 175.26 0)
			(effects
				(font
					(size 1.27 1.27)
				)
				(hide yes)
			)
		)
		(property "Datasheet" "~"
			(at 54.61 175.26 0)
			(effects
				(font
					(size 1.27 1.27)
				)
				(hide yes)
			)
		)
		(property "Description" "Light emitting diode"
			(at 54.61 175.26 0)
			(effects
				(font
					(size 1.27 1.27)
				)
				(hide yes)
			)
		)
		(pin "1"
			(uuid "68b2a9ff-e664-41b3-90f1-cf8801af5cf6")
		)
		(pin "2"
			(uuid "51e1ea0c-5e6a-4542-932e-9001d3a4946c")
		)
		(instances
			(project "attinyx14_breakout"
				(path "/16bba5fc-5e0d-4c40-a5cf-d802a80d5cab"
					(reference "D1")
					(unit 1)
				)
			)
		)
	)
	(symbol
		(lib_id "Device:R_Small")
		(at 66.04 175.26 90)
		(unit 1)
		(exclude_from_sim no)
		(in_bom yes)
		(on_board yes)
		(dnp no)
		(fields_autoplaced yes)
		(uuid "e00e2e01-1f42-4be5-bbbc-549d2212d6dd")
		(property "Reference" "R2"
			(at 66.04 170.18 90)
			(effects
				(font
					(size 1.27 1.27)
				)
			)
		)
		(property "Value" "1K"
			(at 66.04 172.72 90)
			(effects
				(font
					(size 1.27 1.27)
				)
			)
		)
		(property "Footprint" "Resistor_SMD:R_0805_2012Metric"
			(at 66.04 175.26 0)
			(effects
				(font
					(size 1.27 1.27)
				)
				(hide yes)
			)
		)
		(property "Datasheet" "~"
			(at 66.04 175.26 0)
			(effects
				(font
					(size 1.27 1.27)
				)
				(hide yes)
			)
		)
		(property "Description" "Resistor, small symbol"
			(at 66.04 175.26 0)
			(effects
				(font
					(size 1.27 1.27)
				)
				(hide yes)
			)
		)
		(pin "2"
			(uuid "f9c6a258-d518-4dc6-888c-61f8b48a384f")
		)
		(pin "1"
			(uuid "9e204443-31f3-49a1-8139-4016a76bef0f")
		)
		(instances
			(project "attinyx14_breakout"
				(path "/16bba5fc-5e0d-4c40-a5cf-d802a80d5cab"
					(reference "R2")
					(unit 1)
				)
			)
		)
	)
	(symbol
		(lib_id "Device:C_Small")
		(at 81.28 64.77 0)
		(unit 1)
		(exclude_from_sim no)
		(in_bom yes)
		(on_board yes)
		(dnp no)
		(fields_autoplaced yes)
		(uuid "e7c83a07-661a-47d5-af91-4fa6e0dbd95e")
		(property "Reference" "C1"
			(at 83.82 63.5062 0)
			(effects
				(font
					(size 1.27 1.27)
				)
				(justify left)
			)
		)
		(property "Value" "100nF"
			(at 83.82 66.0462 0)
			(effects
				(font
					(size 1.27 1.27)
				)
				(justify left)
			)
		)
		(property "Footprint" "Capacitor_SMD:C_0805_2012Metric"
			(at 81.28 64.77 0)
			(effects
				(font
					(size 1.27 1.27)
				)
				(hide yes)
			)
		)
		(property "Datasheet" "~"
			(at 81.28 64.77 0)
			(effects
				(font
					(size 1.27 1.27)
				)
				(hide yes)
			)
		)
		(property "Description" "Unpolarized capacitor, small symbol"
			(at 81.28 64.77 0)
			(effects
				(font
					(size 1.27 1.27)
				)
				(hide yes)
			)
		)
		(pin "1"
			(uuid "4316af91-67f5-4fb6-b6e9-5a5a1b8450fd")
		)
		(pin "2"
			(uuid "4e769d98-865c-43e9-beb1-f678935966e9")
		)
		(instances
			(project "attinyx14_breakout"
				(path "/16bba5fc-5e0d-4c40-a5cf-d802a80d5cab"
					(reference "C1")
					(unit 1)
				)
			)
		)
	)
	(symbol
		(lib_id "power:GND")
		(at 107.95 130.81 0)
		(unit 1)
		(exclude_from_sim no)
		(in_bom yes)
		(on_board yes)
		(dnp no)
		(fields_autoplaced yes)
		(uuid "f3bbbf76-6e0b-4cb1-acd1-1cc2a1429493")
		(property "Reference" "#PWR05"
			(at 107.95 137.16 0)
			(effects
				(font
					(size 1.27 1.27)
				)
				(hide yes)
			)
		)
		(property "Value" "GND"
			(at 107.95 135.89 0)
			(effects
				(font
					(size 1.27 1.27)
				)
			)
		)
		(property "Footprint" ""
			(at 107.95 130.81 0)
			(effects
				(font
					(size 1.27 1.27)
				)
				(hide yes)
			)
		)
		(property "Datasheet" ""
			(at 107.95 130.81 0)
			(effects
				(font
					(size 1.27 1.27)
				)
				(hide yes)
			)
		)
		(property "Description" "Power symbol creates a global label with name \"GND\" , ground"
			(at 107.95 130.81 0)
			(effects
				(font
					(size 1.27 1.27)
				)
				(hide yes)
			)
		)
		(pin "1"
			(uuid "2851431a-66d2-42ec-bb9c-30ec969598c4")
		)
		(instances
			(project "attinyx14_breakout"
				(path "/16bba5fc-5e0d-4c40-a5cf-d802a80d5cab"
					(reference "#PWR05")
					(unit 1)
				)
			)
		)
	)
	(sheet_instances
		(path "/"
			(page "1")
		)
	)
)