(kicad_pcb (version 20221018) (generator pcbnew)

  (general
    (thickness 1.6)
  )

  (paper "A4")
  (title_block
    (comment 4 "AISLER Project ID: IFYEAEND")
  )

  (layers
    (0 "F.Cu" signal)
    (31 "B.Cu" signal)
    (32 "B.Adhes" user "B.Adhesive")
    (33 "F.Adhes" user "F.Adhesive")
    (34 "B.Paste" user)
    (35 "F.Paste" user)
    (36 "B.SilkS" user "B.Silkscreen")
    (37 "F.SilkS" user "F.Silkscreen")
    (38 "B.Mask" user)
    (39 "F.Mask" user)
    (40 "Dwgs.User" user "User.Drawings")
    (41 "Cmts.User" user "User.Comments")
    (42 "Eco1.User" user "User.Eco1")
    (43 "Eco2.User" user "User.Eco2")
    (44 "Edge.Cuts" user)
    (45 "Margin" user)
    (46 "B.CrtYd" user "B.Courtyard")
    (47 "F.CrtYd" user "F.Courtyard")
    (48 "B.Fab" user)
    (49 "F.Fab" user)
    (50 "User.1" user)
    (51 "User.2" user)
    (52 "User.3" user)
    (53 "User.4" user)
    (54 "User.5" user)
    (55 "User.6" user)
    (56 "User.7" user)
    (57 "User.8" user)
    (58 "User.9" user)
  )

  (setup
    (stackup
      (layer "F.SilkS" (type "Top Silk Screen"))
      (layer "F.Paste" (type "Top Solder Paste"))
      (layer "F.Mask" (type "Top Solder Mask") (thickness 0.01))
      (layer "F.Cu" (type "copper") (thickness 0.035))
      (layer "dielectric 1" (type "core") (thickness 1.51) (material "FR4") (epsilon_r 4.5) (loss_tangent 0.02))
      (layer "B.Cu" (type "copper") (thickness 0.035))
      (layer "B.Mask" (type "Bottom Solder Mask") (thickness 0.01))
      (layer "B.Paste" (type "Bottom Solder Paste"))
      (layer "B.SilkS" (type "Bottom Silk Screen"))
      (copper_finish "None")
      (dielectric_constraints no)
    )
    (pad_to_mask_clearance 0)
    (pcbplotparams
      (layerselection 0x00010fc_ffffffff)
      (plot_on_all_layers_selection 0x0000000_00000000)
      (disableapertmacros false)
      (usegerberextensions false)
      (usegerberattributes true)
      (usegerberadvancedattributes true)
      (creategerberjobfile true)
      (dashed_line_dash_ratio 12.000000)
      (dashed_line_gap_ratio 3.000000)
      (svgprecision 4)
      (plotframeref false)
      (viasonmask false)
      (mode 1)
      (useauxorigin false)
      (hpglpennumber 1)
      (hpglpenspeed 20)
      (hpglpendiameter 15.000000)
      (dxfpolygonmode true)
      (dxfimperialunits true)
      (dxfusepcbnewfont true)
      (psnegative false)
      (psa4output false)
      (plotreference true)
      (plotvalue true)
      (plotinvisibletext false)
      (sketchpadsonfab false)
      (subtractmaskfromsilk false)
      (outputformat 1)
      (mirror false)
      (drillshape 1)
      (scaleselection 1)
      (outputdirectory "")
    )
  )

  (net 0 "")
  (net 1 "VCC")
  (net 2 "Net-(D1-DOUT)")
  (net 3 "GND")
  (net 4 "DIN")
  (net 5 "Net-(D2-DOUT)")
  (net 6 "Net-(D3-DOUT)")
  (net 7 "Net-(D4-DOUT)")
  (net 8 "Net-(D5-DOUT)")
  (net 9 "Net-(D6-DOUT)")
  (net 10 "Net-(D7-DOUT)")
  (net 11 "Net-(D8-DOUT)")

  (footprint "LED_SMD:LED_WS2812B_PLCC4_5.0x5.0mm_P3.2mm" (layer "F.Cu")
    (tstamp 1303f9d0-dd16-4547-96ba-5765a39135b7)
    (at 94.168 87.821332)
    (descr "https://cdn-shop.adafruit.com/datasheets/WS2812B.pdf")
    (tags "LED RGB NeoPixel")
    (property "MPN" "C114586")
    (property "Sheetfile" "led_drone.kicad_sch")
    (property "Sheetname" "")
    (property "ki_description" "RGB LED with integrated controller")
    (property "ki_keywords" "RGB LED NeoPixel addressable")
    (path "/f6791fd3-4bb8-4b32-8a85-5f233ebb4990")
    (attr smd)
    (fp_text reference "D7" (at 0 0) (layer "F.SilkS")
        (effects (font (size 1 1) (thickness 0.15)))
      (tstamp 1e32daa3-f800-4205-93ef-51b38148b32e)
    )
    (fp_text value "WS2812B" (at 0 4) (layer "F.Fab")
        (effects (font (size 1 1) (thickness 0.15)))
      (tstamp c9704a3e-1d2a-4b86-bf07-2211bdf544e4)
    )
    (fp_text user "7" (at -4.15 -1.6) (layer "F.SilkS")
        (effects (font (size 1 1) (thickness 0.15)))
      (tstamp c6adb4ef-1275-4f57-8456-6a2822bb988f)
    )
    (fp_text user "${REFERENCE}" (at 0 0) (layer "F.Fab")
        (effects (font (size 0.8 0.8) (thickness 0.15)))
      (tstamp 2bd8e94e-7e47-4a0a-9793-44414a7737e8)
    )
    (fp_line (start -3.65 -2.75) (end 3.65 -2.75)
      (stroke (width 0.12) (type solid)) (layer "F.SilkS") (tstamp 7ff66fd7-c131-4ca1-b02f-2607fb7ef3ca))
    (fp_line (start -3.65 2.75) (end 3.65 2.75)
      (stroke (width 0.12) (type solid)) (layer "F.SilkS") (tstamp 95d688d7-9c8b-415e-9dc2-80b0028efc4f))
    (fp_line (start 3.65 2.75) (end 3.65 1.6)
      (stroke (width 0.12) (type solid)) (layer "F.SilkS") (tstamp 8516034a-8ed1-41e7-9090-0374e75702d8))
    (fp_line (start -3.45 -2.75) (end -3.45 2.75)
      (stroke (width 0.05) (type solid)) (layer "F.CrtYd") (tstamp 9c2b2366-a43a-4250-9182-43a7f8193f03))
    (fp_line (start -3.45 2.75) (end 3.45 2.75)
      (stroke (width 0.05) (type solid)) (layer "F.CrtYd") (tstamp 611aec56-d456-414f-ad5f-ccc12949babd))
    (fp_line (start 3.45 -2.75) (end -3.45 -2.75)
      (stroke (width 0.05) (type solid)) (layer "F.CrtYd") (tstamp 229ffced-df34-4b1f-923c-b8793b5854a2))
    (fp_line (start 3.45 2.75) (end 3.45 -2.75)
      (stroke (width 0.05) (type solid)) (layer "F.CrtYd") (tstamp 9872393b-9523-40ce-901d-48a974affac1))
    (fp_line (start -2.5 -2.5) (end -2.5 2.5)
      (stroke (width 0.1) (type solid)) (layer "F.Fab") (tstamp 71d1b77a-d91a-4ae9-ad28-36408db9d4fa))
    (fp_line (start -2.5 2.5) (end 2.5 2.5)
      (stroke (width 0.1) (type solid)) (layer "F.Fab") (tstamp b580c962-4b78-42d0-8616-06fcbcdef80b))
    (fp_line (start 2.5 -2.5) (end -2.5 -2.5)
      (stroke (width 0.1) (type solid)) (layer "F.Fab") (tstamp 983d5c63-aba8-4e0d-b75f-2a4cc48f6731))
    (fp_line (start 2.5 1.5) (end 1.5 2.5)
      (stroke (width 0.1) (type solid)) (layer "F.Fab") (tstamp 74619cc0-5ea6-4935-9a19-1d1a01021f66))
    (fp_line (start 2.5 2.5) (end 2.5 -2.5)
      (stroke (width 0.1) (type solid)) (layer "F.Fab") (tstamp f041f4ce-e703-43e8-be2c-d5c5c781b10d))
    (fp_circle (center 0 0) (end 0 -2)
      (stroke (width 0.1) (type solid)) (fill none) (layer "F.Fab") (tstamp d226eed1-6af2-46f6-a468-b10208cb4124))
    (pad "1" smd rect (at -2.45 -1.65) (size 1.5 0.9) (layers "F.Cu" "F.Paste" "F.Mask")
      (net 1 "VCC") (pinfunction "VDD") (pintype "power_in") (tstamp b43b830f-01ca-4c1c-8bf3-9164f08226cd))
    (pad "2" smd rect (at -2.45 1.65) (size 1.5 0.9) (layers "F.Cu" "F.Paste" "F.Mask")
      (net 10 "Net-(D7-DOUT)") (pinfunction "DOUT") (pintype "output") (tstamp 964cca5a-2788-4441-a2a4-a2a45636f8e3))
    (pad "3" smd rect (at 2.45 1.65) (size 1.5 0.9) (layers "F.Cu" "F.Paste" "F.Mask")
      (net 3 "GND") (pinfunction "VSS") (pintype "power_in") (tstamp 904637d2-ef95-4ff4-bf3c-10863c648ce9))
    (pad "4" smd rect (at 2.45 -1.65) (size 1.5 0.9) (layers "F.Cu" "F.Paste" "F.Mask")
      (net 9 "Net-(D6-DOUT)") (pinfunction "DIN") (pintype "input") (tstamp dfdbccaf-404f-4eb0-af0b-564a2b840f4d))
    (model "${KICAD6_3DMODEL_DIR}/LED_SMD.3dshapes/LED_WS2812B_PLCC4_5.0x5.0mm_P3.2mm.wrl"
      (offset (xyz 0 0 0))
      (scale (xyz 1 1 1))
      (rotate (xyz 0 0 0))
    )
  )

  (footprint "MountingHole:MountingHole_2.7mm_M2.5_Pad" (layer "F.Cu")
    (tstamp 290f6ccc-467a-4068-ba5c-498d0d0492c0)
    (at 74.168 74.488)
    (descr "Mounting Hole 2.7mm, M2.5")
    (tags "mounting hole 2.7mm m2.5")
    (property "Sheetfile" "led_drone.kicad_sch")
    (property "Sheetname" "")
    (property "ki_description" "Mounting Hole without connection")
    (property "ki_keywords" "mounting hole")
    (path "/021f6ac6-f251-472f-9eb4-82754e76a4db")
    (attr exclude_from_pos_files)
    (fp_text reference "H1" (at 0 -3.7) (layer "F.Fab")
        (effects (font (size 1 1) (thickness 0.15)))
      (tstamp 74e5bc5e-0739-4966-897e-cb0f8c76dd5f)
    )
    (fp_text value "MountingHole" (at 0 3.7) (layer "F.Fab")
        (effects (font (size 1 1) (thickness 0.15)))
      (tstamp 16d1f3c2-c492-464c-bc5a-d66888df7561)
    )
    (fp_text user "${REFERENCE}" (at 0 0) (layer "F.Fab")
        (effects (font (size 1 1) (thickness 0.15)))
      (tstamp 764f7261-d4af-4891-b0c2-2bdc5358da87)
    )
    (fp_circle (center 0 0) (end 2.7 0)
      (stroke (width 0.15) (type solid)) (fill none) (layer "Cmts.User") (tstamp 0612e872-5b42-417f-9692-0b98b7e58b55))
    (fp_circle (center 0 0) (end 2.95 0)
      (stroke (width 0.05) (type solid)) (fill none) (layer "F.CrtYd") (tstamp f4bc57e8-9a1b-40bb-8417-db1024a19e29))
    (pad "1" thru_hole circle (at 0 0) (size 5.4 5.4) (drill 2.7) (layers "*.Cu" "*.Mask") (tstamp d02a6b83-e4eb-4f0f-a698-195574991d95))
  )

  (footprint "LOGO" (layer "F.Cu")
    (tstamp 2d47e202-6a29-46e6-9d31-ec02d9d6f936)
    (at 83.82 84.836 90)
    (attr board_only exclude_from_pos_files exclude_from_bom)
    (fp_text reference "REF**" (at 0 0 90) (layer "F.Fab")
        (effects (font (size 1.524 1.524) (thickness 0.3)))
      (tstamp 26dc78c7-c1d2-47ad-97c7-aa1cd041fa37)
    )
    (fp_text value "LOGO" (at -0.75 0 90) (layer "Dwgs.User") hide
        (effects (font (size 1.524 1.524) (thickness 0.3)))
      (tstamp e37ba84c-2d52-4112-b0c6-18c94c26075c)
    )
    (fp_poly
      (pts
        (xy -2.403201 0.358057)
        (xy -2.404859 0.405423)
        (xy -2.327068 0.50863)
        (xy -2.233419 0.521752)
        (xy -2.188307 0.436359)
        (xy -2.251233 0.328698)
        (xy -2.312051 0.312615)
      )

      (stroke (width 0) (type solid)) (fill solid) (layer "B.SilkS") (tstamp ec83d9ed-3d9b-4fe7-886b-39eadb72b6c0))
    (fp_poly
      (pts
        (xy -2.361548 -0.170636)
        (xy -2.41313 -0.063245)
        (xy -2.362808 0.013068)
        (xy -2.275906 0.054579)
        (xy -2.220291 -0.029379)
        (xy -2.202391 -0.174939)
        (xy -2.267151 -0.225287)
      )

      (stroke (width 0) (type solid)) (fill solid) (layer "B.SilkS") (tstamp 5215526a-517e-492d-8e8e-d1f9bbdf0262))
    (fp_poly
      (pts
        (xy -2.115554 -1.129894)
        (xy -2.184853 -1.054447)
        (xy -2.105923 -1.017529)
        (xy -2.066464 -1.016)
        (xy -1.985969 -1.054452)
        (xy -1.993711 -1.095429)
        (xy -2.087374 -1.140514)
      )

      (stroke (width 0) (type solid)) (fill solid) (layer "B.SilkS") (tstamp 5b6f8da8-d30e-4eb3-a4ca-2ff82a656e8f))
    (fp_poly
      (pts
        (xy -2.576805 -1.112835)
        (xy -2.579077 -1.094154)
        (xy -2.519603 -1.018271)
        (xy -2.500923 -1.016)
        (xy -2.42504 -1.075474)
        (xy -2.422769 -1.094154)
        (xy -2.482242 -1.170037)
        (xy -2.500923 -1.172308)
      )

      (stroke (width 0) (type solid)) (fill solid) (layer "B.SilkS") (tstamp 1afdf3c9-b34c-4f52-be5e-b74e7abd54bf))
    (fp_poly
      (pts
        (xy -2.486399 -0.813407)
        (xy -2.576736 -0.776466)
        (xy -2.579077 -0.768658)
        (xy -2.512675 -0.681119)
        (xy -2.360292 -0.616065)
        (xy -2.19216 -0.601415)
        (xy -2.168769 -0.60555)
        (xy -2.040763 -0.668929)
        (xy -2.043026 -0.747537)
        (xy -2.156519 -0.810349)
        (xy -2.305538 -0.828431)
      )

      (stroke (width 0) (type solid)) (fill solid) (layer "B.SilkS") (tstamp 5ed7b919-54df-42d5-a9ea-7707df4dbacc))
    (fp_poly
      (pts
        (xy -0.087874 -1.582615)
        (xy -0.224682 -1.504571)
        (xy -0.383301 -1.296115)
        (xy -0.45567 -0.998513)
        (xy -0.44611 -0.650012)
        (xy -0.358942 -0.28886)
        (xy -0.198489 0.046697)
        (xy -0.024546 0.266754)
        (xy 0.146959 0.402201)
        (xy 0.300824 0.467784)
        (xy 0.31672 0.468923)
        (xy 0.395047 0.500382)
        (xy 0.462303 0.612551)
        (xy 0.53019 0.832115)
        (xy 0.590906 1.094153)
        (xy 0.680261 1.447475)
        (xy 0.763993 1.657887)
        (xy 0.831921 1.719384)
        (xy 0.928463 1.67401)
        (xy 0.937847 1.642437)
        (xy 0.922792 1.53813)
        (xy 0.881735 1.311534)
        (xy 0.820837 0.993322)
        (xy 0.746262 0.614167)
        (xy 0.664169 0.204742)
        (xy 0.636413 0.068693)
        (xy 0.378472 0.068693)
        (xy 0.377125 0.255431)
        (xy 0.323535 0.315669)
        (xy 0.216825 0.256651)
        (xy 0.121913 0.161481)
        (xy -0.024008 -0.059297)
        (xy -0.13401 -0.338928)
        (xy -0.204574 -0.64273)
        (xy -0.232179 -0.93602)
        (xy -0.213307 -1.184115)
        (xy -0.144437 -1.352333)
        (xy -0.037226 -1.40677)
        (xy 0.033336 -1.331737)
        (xy 0.118633 -1.116456)
        (xy 0.213032 -0.775654)
        (xy 0.22795 -0.713249)
        (xy 0.328455 -0.251786)
        (xy 0.378472 0.068693)
        (xy 0.636413 0.068693)
        (xy 0.580722 -0.204278)
        (xy 0.502082 -0.582221)
        (xy 0.43441 -0.898413)
        (xy 0.38387 -1.122181)
        (xy 0.375818 -1.15533)
        (xy 0.262999 -1.445491)
        (xy 0.107169 -1.588655)
      )

      (stroke (width 0) (type solid)) (fill solid) (layer "B.SilkS") (tstamp 2e5a7944-e6c0-43fb-9343-894fa9b1437b))
    (fp_poly
      (pts
        (xy 2.834599 -1.534671)
        (xy 2.628529 -1.379385)
        (xy 2.518033 -1.120459)
        (xy 2.508725 -0.77187)
        (xy 2.606221 -0.347599)
        (xy 2.62119 -0.304011)
        (xy 2.759462 -0.012274)
        (xy 2.941158 0.238072)
        (xy 3.134409 0.4105)
        (xy 3.295595 0.468923)
        (xy 3.424506 0.540926)
        (xy 3.484833 0.683846)
        (xy 3.580601 1.093923)
        (xy 3.653839 1.375649)
        (xy 3.71373 1.553732)
        (xy 3.769454 1.652877)
        (xy 3.830195 1.697792)
        (xy 3.865326 1.707635)
        (xy 3.967589 1.698442)
        (xy 3.95639 1.599042)
        (xy 3.921917 1.473153)
        (xy 3.865593 1.227952)
        (xy 3.794941 0.89765)
        (xy 3.717482 0.516459)
        (xy 3.709763 0.477423)
        (xy 3.658219 0.222064)
        (xy 3.385706 0.222064)
        (xy 3.365759 0.290523)
        (xy 3.308515 0.298754)
        (xy 3.295823 0.296547)
        (xy 3.183341 0.217823)
        (xy 3.047589 0.047829)
        (xy 2.993847 -0.03974)
        (xy 2.84505 -0.383213)
        (xy 2.764007 -0.739636)
        (xy 2.75931 -1.056229)
        (xy 2.80208 -1.217447)
        (xy 2.886296 -1.361177)
        (xy 2.96438 -1.396196)
        (xy 3.041081 -1.313343)
        (xy 3.121143 -1.103456)
        (xy 3.209311 -0.757374)
        (xy 3.310333 -0.265936)
        (xy 3.319331 -0.218922)
        (xy 3.369761 0.062531)
        (xy 3.385706 0.222064)
        (xy 3.658219 0.222064)
        (xy 3.579652 -0.167169)
        (xy 3.470518 -0.671274)
        (xy 3.378456 -1.048719)
        (xy 3.299559 -1.31333)
        (xy 3.22992 -1.478935)
        (xy 3.165632 -1.55936)
        (xy 3.130627 -1.572337)
      )

      (stroke (width 0) (type solid)) (fill solid) (layer "B.SilkS") (tstamp 8cd1b6e5-8246-45ad-bd01-0b521f7de478))
    (fp_poly
      (pts
        (xy 1.297639 -1.51709)
        (xy 1.116944 -1.344214)
        (xy 1.065207 -1.241717)
        (xy 1.031902 -0.926126)
        (xy 1.153887 -0.614437)
        (xy 1.323222 -0.408188)
        (xy 1.462913 -0.256789)
        (xy 1.500176 -0.162056)
        (xy 1.449061 -0.076419)
        (xy 1.427699 -0.054425)
        (xy 1.331782 0.126512)
        (xy 1.275983 0.400662)
        (xy 1.264045 0.709224)
        (xy 1.299714 0.993396)
        (xy 1.351649 1.139985)
        (xy 1.554877 1.424326)
        (xy 1.814226 1.637674)
        (xy 2.091853 1.758199)
        (xy 2.349911 1.764069)
        (xy 2.403231 1.746612)
        (xy 2.450358 1.718847)
        (xy 2.48011 1.668097)
        (xy 2.490395 1.575047)
        (xy 2.484197 1.490032)
        (xy 2.266462 1.490032)
        (xy 2.204886 1.553923)
        (xy 2.053497 1.549358)
        (xy 1.863938 1.478632)
        (xy 1.699244 1.315647)
        (xy 1.569088 1.047861)
        (xy 1.494647 0.726211)
        (xy 1.484923 0.566976)
        (xy 1.518595 0.317897)
        (xy 1.604188 0.112899)
        (xy 1.718573 -0.026597)
        (xy 1.838618 -0.07917)
        (xy 1.941194 -0.023399)
        (xy 1.991672 0.097692)
        (xy 2.045079 0.339118)
        (xy 2.106653 0.634014)
        (xy 2.167963 0.939653)
        (xy 2.220576 1.213311)
        (xy 2.25606 1.412262)
        (xy 2.266462 1.490032)
        (xy 2.484197 1.490032)
        (xy 2.479119 1.420384)
        (xy 2.444191 1.184792)
        (xy 2.383517 0.848958)
        (xy 2.295003 0.393568)
        (xy 2.210721 -0.02989)
        (xy 2.135676 -0.398958)
        (xy 1.865514 -0.398958)
        (xy 1.82959 -0.312793)
        (xy 1.732239 -0.33454)
        (xy 1.566255 -0.449785)
        (xy 1.540541 -0.469876)
        (xy 1.380616 -0.65849)
        (xy 1.295491 -0.886474)
        (xy 1.284745 -1.113015)
        (xy 1.347958 -1.297301)
        (xy 1.484709 -1.39852)
        (xy 1.55019 -1.40677)
        (xy 1.640328 -1.366877)
        (xy 1.712047 -1.228377)
        (xy 1.779753 -0.963038)
        (xy 1.781902 -0.952681)
        (xy 1.847216 -0.60745)
        (xy 1.865514 -0.398958)
        (xy 2.135676 -0.398958)
        (xy 2.104995 -0.549843)
        (xy 2.02093 -0.936635)
        (xy 1.952373 -1.210919)
        (xy 1.893168 -1.393349)
        (xy 1.837164 -1.504578)
        (xy 1.778205 -1.565258)
        (xy 1.748277 -1.581938)
        (xy 1.527309 -1.605907)
      )

      (stroke (width 0) (type solid)) (fill solid) (layer "B.SilkS") (tstamp 698774d5-cec6-4cea-bd92-721775ee27b1))
    (fp_poly
      (pts
        (xy 0.251865 -2.344638)
        (xy -0.013031 -2.344616)
        (xy -3.977129 -2.344616)
        (xy -4.196411 -2.155998)
        (xy -4.415692 -1.96738)
        (xy -4.415692 1.967379)
        (xy -4.196411 2.155997)
        (xy -3.977129 2.344615)
        (xy -0.013031 2.344615)
        (xy 0.890738 2.344117)
        (xy 1.650967 2.342375)
        (xy 2.280423 2.339022)
        (xy 2.791871 2.333689)
        (xy 3.198078 2.326005)
        (xy 3.511808 2.315602)
        (xy 3.745829 2.302111)
        (xy 3.912905 2.285163)
        (xy 4.025802 2.264389)
        (xy 4.097287 2.239419)
        (xy 4.121727 2.22508)
        (xy 4.256341 2.070652)
        (xy 4.362858 1.848603)
        (xy 4.373143 1.814772)
        (xy 4.402004 1.626263)
        (xy 4.424301 1.313479)
        (xy 4.440033 0.908314)
        (xy 4.449201 0.442663)
        (xy 4.451531 0)
        (xy 4.220308 0)
        (xy 4.219643 0.59122)
        (xy 4.21662 1.046134)
        (xy 4.209703 1.384741)
        (xy 4.197352 1.627041)
        (xy 4.178028 1.793033)
        (xy 4.150195 1.902717)
        (xy 4.112312 1.976091)
        (xy 4.064 2.032)
        (xy 4.024302 2.067351)
        (xy 3.97315 2.096929)
        (xy 3.897233 2.121248)
        (xy 3.783238 2.140822)
        (xy 3.617855 2.156166)
        (xy 3.387771 2.167793)
        (xy 3.079674 2.176218)
        (xy 2.680252 2.181955)
        (xy 2.176194 2.185518)
        (xy 1.554188 2.187421)
        (xy 0.800921 2.188179)
        (xy 0.01739 2.188307)
        (xy -0.875725 2.187821)
        (xy -1.625515 2.186104)
        (xy -2.244961 2.182768)
        (xy -2.747041 2.177423)
        (xy -3.144738 2.169681)
        (xy -3.45103 2.159154)
        (xy -3.678898 2.145453)
        (xy -3.841323 2.12819)
        (xy -3.951284 2.106976)
        (xy -4.021762 2.081421)
        (xy -4.04661 2.066645)
        (xy -4.10023 2.025094)
        (xy -4.141497 1.972135)
        (xy -4.172028 1.888529)
        (xy -4.193441 1.755037)
        (xy -4.207351 1.552419)
        (xy -4.215377 1.261435)
        (xy -4.219135 0.862846)
        (xy -4.220242 0.337413)
        (xy -4.220307 0)
        (xy -4.219951 -0.600663)
        (xy -4.217802 -1.064258)
        (xy -4.212246 -1.410025)
        (xy -4.201664 -1.657202)
        (xy -4.184439 -1.825031)
        (xy -4.158954 -1.932749)
        (xy -4.123593 -1.999597)
        (xy -4.076739 -2.044814)
        (xy -4.04661 -2.066646)
        (xy -3.991224 -2.094555)
        (xy -3.902953 -2.117926)
        (xy -3.768816 -2.137149)
        (xy -3.575833 -2.152612)
        (xy -3.311024 -2.164704)
        (xy -2.961408 -2.173813)
        (xy -2.514005 -2.180327)
        (xy -1.955834 -2.184636)
        (xy -1.273917 -2.187128)
        (xy -0.455271 -2.188191)
        (xy 0.01739 -2.188308)
        (xy 0.897413 -2.188133)
        (xy 1.634441 -2.187267)
        (xy 2.241785 -2.185193)
        (xy 2.732756 -2.1814)
        (xy 3.120668 -2.175371)
        (xy 3.418831 -2.166594)
        (xy 3.640559 -2.154554)
        (xy 3.799161 -2.138736)
        (xy 3.907952 -2.118627)
        (xy 3.980241 -2.093712)
        (xy 4.029342 -2.063477)
        (xy 4.064 -2.032)
        (xy 4.113213 -1.974801)
        (xy 4.150871 -1.900875)
        (xy 4.178512 -1.790224)
        (xy 4.197674 -1.622848)
        (xy 4.209897 -1.378748)
        (xy 4.216717 -1.037924)
        (xy 4.219675 -0.580378)
        (xy 4.220308 0)
        (xy 4.451531 0)
        (xy 4.451803 -0.051579)
        (xy 4.447841 -0.542518)
        (xy 4.437314 -0.998259)
        (xy 4.420222 -1.386908)
        (xy 4.396565 -1.676569)
        (xy 4.373143 -1.814773)
        (xy 4.342061 -1.929894)
        (xy 4.309621 -2.027028)
        (xy 4.263195 -2.107701)
        (xy 4.190157 -2.173438)
        (xy 4.07788 -2.225765)
        (xy 3.913738 -2.266207)
        (xy 3.685103 -2.296288)
        (xy 3.37935 -2.317536)
        (xy 2.983851 -2.331474)
        (xy 2.485979 -2.339627)
        (xy 1.873109 -2.343523)
        (xy 1.132613 -2.344684)
      )

      (stroke (width 0) (type solid)) (fill solid) (layer "B.SilkS") (tstamp 76b8482e-56a9-4dc0-b780-0c7dd1f7097d))
    (fp_poly
      (pts
        (xy -2.438464 -1.569777)
        (xy -2.500373 -1.551558)
        (xy -2.693972 -1.430434)
        (xy -2.853046 -1.241065)
        (xy -2.942577 -1.036146)
        (xy -2.938876 -0.891716)
        (xy -2.943615 -0.796686)
        (xy -3.02039 -0.793617)
        (xy -3.087077 -0.859693)
        (xy -3.209317 -0.928356)
        (xy -3.40164 -0.929385)
        (xy -3.596841 -0.869879)
        (xy -3.700194 -0.794923)
        (xy -3.824776 -0.578852)
        (xy -3.797965 -0.369771)
        (xy -3.618112 -0.164288)
        (xy -3.297979 0.033738)
        (xy -3.092179 0.161273)
        (xy -3.013551 0.288888)
        (xy -3.062753 0.443268)
        (xy -3.240446 0.651096)
        (xy -3.315055 0.724168)
        (xy -3.571121 1.020846)
        (xy -3.676815 1.277347)
        (xy -3.632268 1.495686)
        (xy -3.437615 1.677877)
        (xy -3.380153 1.710434)
        (xy -3.212736 1.75733)
        (xy -3.030279 1.712103)
        (xy -2.805804 1.562707)
        (xy -2.684992 1.454834)
        (xy -3.048 1.454834)
        (xy -3.106021 1.542816)
        (xy -3.239077 1.555987)
        (xy -3.385656 1.495608)
        (xy -3.437943 1.446841)
        (xy -3.497796 1.292039)
        (xy -3.487997 1.209656)
        (xy -3.439752 1.13455)
        (xy -3.353492 1.151358)
        (xy -3.244792 1.217649)
        (xy -3.103786 1.342963)
        (xy -3.048 1.454834)
        (xy -2.684992 1.454834)
        (xy -2.56224 1.345229)
        (xy -2.271866 1.067709)
        (xy -1.881742 1.432623)
        (xy -1.660246 1.636036)
        (xy -1.513451 1.747258)
        (xy -1.401984 1.780957)
        (xy -1.28647 1.751801)
        (xy -1.172307 1.696911)
        (xy -1.011831 1.552451)
        (xy -0.951613 1.335377)
        (xy -0.952112 1.299578)
        (xy -1.095499 1.299578)
        (xy -1.114036 1.445715)
        (xy -1.146256 1.510974)
        (xy -1.261904 1.557228)
        (xy -1.417216 1.557727)
        (xy -1.538017 1.518355)
        (xy -1.563077 1.477912)
        (xy -1.507036 1.373501)
        (xy -1.378029 1.239313)
        (xy -1.23473 1.129853)
        (xy -1.152769 1.096754)
        (xy -1.108799 1.158521)
        (xy -1.095499 1.299578)
        (xy -0.952112 1.299578)
        (xy -0.953852 1.174896)
        (xy -1.010951 1.028094)
        (xy -1.070949 0.94995)
        (xy -1.289538 0.94995)
        (xy -1.522248 1.136863)
        (xy -1.754959 1.323776)
        (xy -1.956371 1.130811)
        (xy -2.118224 1.001164)
        (xy -2.24819 0.938825)
        (xy -2.259456 0.937846)
        (xy -2.381482 0.984924)
        (xy -2.554029 1.101285)
        (xy -2.592781 1.132769)
        (xy -2.749531 1.254571)
        (xy -2.853239 1.281646)
        (xy -2.967846 1.222936)
        (xy -3.011915 1.191385)
        (xy -3.149699 1.074709)
        (xy -3.186283 0.968932)
        (xy -3.118378 0.831922)
        (xy -2.969846 0.652367)
        (xy -2.828549 0.476718)
        (xy -2.745041 0.344463)
        (xy -2.735384 0.31294)
        (xy -2.79438 0.200342)
        (xy -2.936229 0.057296)
        (xy -3.108223 -0.068827)
        (xy -3.219367 -0.122011)
        (xy -3.307295 -0.161735)
        (xy -3.308881 -0.228586)
        (xy -3.220587 -0.367785)
        (xy -3.197596 -0.400194)
        (xy -3.081102 -0.549153)
        (xy -2.992164 -0.585691)
        (xy -2.871046 -0.527049)
        (xy -2.836267 -0.504476)
        (xy -2.674707 -0.436774)
        (xy -2.562705 -0.44911)
        (xy -2.536551 -0.522141)
        (xy -2.614841 -0.622482)
        (xy -2.660516 -0.701632)
        (xy -3.218765 -0.701632)
        (xy -3.30021 -0.552051)
        (xy -3.330527 -0.505251)
        (xy -3.462091 -0.345714)
        (xy -3.559364 -0.332306)
        (xy -3.62714 -0.439752)
        (xy -3.621899 -0.608835)
        (xy -3.504001 -0.739822)
        (xy -3.351045 -0.781539)
        (xy -3.23489 -0.767084)
        (xy -3.218765 -0.701632)
        (xy -2.660516 -0.701632)
        (xy -2.712745 -0.79214)
        (xy -2.726421 -1.019073)
        (xy -2.656124 -1.229048)
        (xy -2.612571 -1.283956)
        (xy -2.401218 -1.397763)
        (xy -2.161279 -1.38985)
        (xy -1.953134 -1.267017)
        (xy -1.902761 -1.204027)
        (xy -1.822007 -1.060359)
        (xy -1.817673 -0.942037)
        (xy -1.891434 -0.775957)
        (xy -1.913518 -0.734637)
        (xy -2.004374 -0.521478)
        (xy -1.992144 -0.418363)
        (xy -1.879959 -0.430767)
        (xy -1.774038 -0.490607)
        (xy -1.604631 -0.567049)
        (xy -1.476968 -0.519522)
        (xy -1.357557 -0.348273)
        (xy -1.317729 -0.23362)
        (xy -1.368302 -0.137871)
        (xy -1.533363 -0.015426)
        (xy -1.533403 -0.0154)
        (xy -1.726509 0.147024)
        (xy -1.782536 0.309545)
        (xy -1.701885 0.499832)
        (xy -1.543538 0.686177)
        (xy -1.289538 0.94995)
        (xy -1.070949 0.94995)
        (xy -1.146093 0.852079)
        (xy -1.303305 0.684646)
        (xy -1.497993 0.478967)
        (xy -1.595037 0.352618)
        (xy -1.608827 0.275933)
        (xy -1.553753 0.219245)
        (xy -1.534907 0.207179)
        (xy -1.16792 -0.034426)
        (xy -0.930194 -0.233069)
        (xy -0.80803 -0.408997)
        (xy -0.805473 -0.430842)
        (xy -0.965726 -0.430842)
        (xy -1.053431 -0.321965)
        (xy -1.159053 -0.355654)
        (xy -1.252395 -0.513088)
        (xy -1.314393 -0.689682)
        (xy -1.313067 -0.764635)
        (xy -1.243333 -0.781361)
        (xy -1.220954 -0.781539)
        (xy -1.070066 -0.717867)
        (xy -0.970053 -0.573296)
        (xy -0.965726 -0.430842)
        (xy -0.805473 -0.430842)
        (xy -0.787728 -0.582454)
        (xy -0.855592 -0.773684)
        (xy -0.862442 -0.786677)
        (xy -1.006038 -0.905704)
        (xy -1.227134 -0.934307)
        (xy -1.471652 -0.866431)
        (xy -1.490061 -0.856943)
        (xy -1.603837 -0.818578)
        (xy -1.639648 -0.899143)
        (xy -1.64123 -0.956784)
        (xy -1.710161 -1.238953)
        (xy -1.891482 -1.452809)
        (xy -2.146985 -1.5719)
      )

      (stroke (width 0) (type solid)) (fill solid) (layer "B.SilkS") (tstamp 430e0122-5fd9-48a5-a0be-85bda7dcd21a))
  )

  (footprint "MountingHole:MountingHole_2.7mm_M2.5_Pad" (layer "F.Cu")
    (tstamp 34b2df57-cebc-41b4-8f14-1b18a9171b0d)
    (at 94.168 94.488)
    (descr "Mounting Hole 2.7mm, M2.5")
    (tags "mounting hole 2.7mm m2.5")
    (property "Sheetfile" "led_drone.kicad_sch")
    (property "Sheetname" "")
    (property "ki_description" "Mounting Hole without connection")
    (property "ki_keywords" "mounting hole")
    (path "/79008d73-72ab-4aa7-92a3-f518f2dfbf3a")
    (attr exclude_from_pos_files)
    (fp_text reference "H4" (at -0.188 4.064) (layer "F.Fab")
        (effects (font (size 1 1) (thickness 0.15)))
      (tstamp 8f88e924-b7bd-4211-b6b7-8a1ce146ef32)
    )
    (fp_text value "MountingHole" (at 0 3.7) (layer "F.Fab")
        (effects (font (size 1 1) (thickness 0.15)))
      (tstamp 5e87f246-ef13-4d17-bc43-30d2887266f0)
    )
    (fp_text user "${REFERENCE}" (at 0 0) (layer "F.Fab")
        (effects (font (size 1 1) (thickness 0.15)))
      (tstamp 6a17f465-d7c5-490b-a3e8-526f16414f11)
    )
    (fp_circle (center 0 0) (end 2.7 0)
      (stroke (width 0.15) (type solid)) (fill none) (layer "Cmts.User") (tstamp 2729c1d3-af11-46a2-8a52-4724c014a96e))
    (fp_circle (center 0 0) (end 2.95 0)
      (stroke (width 0.05) (type solid)) (fill none) (layer "F.CrtYd") (tstamp 4820d95a-a4f8-4b4d-ba4b-6f3218ae948a))
    (pad "1" thru_hole circle (at 0 0) (size 5.4 5.4) (drill 2.7) (layers "*.Cu" "*.Mask") (tstamp 96fbff1d-fcff-4b3c-b4fc-126df898a6aa))
  )

  (footprint "LED_SMD:LED_WS2812B_PLCC4_5.0x5.0mm_P3.2mm" (layer "F.Cu")
    (tstamp 37fa68d7-5ef1-494e-9e66-961bb602eb5c)
    (at 84.168 94.488)
    (descr "https://cdn-shop.adafruit.com/datasheets/WS2812B.pdf")
    (tags "LED RGB NeoPixel")
    (property "MPN" "C114586")
    (property "Sheetfile" "led_drone.kicad_sch")
    (property "Sheetname" "")
    (property "ki_description" "RGB LED with integrated controller")
    (property "ki_keywords" "RGB LED NeoPixel addressable")
    (path "/68713f0c-bffa-471a-a9fc-ac0f3dcbfd77")
    (attr smd)
    (fp_text reference "D8" (at 0 0) (layer "F.SilkS")
        (effects (font (size 1 1) (thickness 0.15)))
      (tstamp dc387b72-359e-461a-a249-d53196721b27)
    )
    (fp_text value "WS2812B" (at 0 4) (layer "F.Fab")
        (effects (font (size 1 1) (thickness 0.15)))
      (tstamp 5076410d-abc8-4fd4-9dc1-730efc125efe)
    )
    (fp_text user "8" (at -4.15 -1.6) (layer "F.SilkS")
        (effects (font (size 1 1) (thickness 0.15)))
      (tstamp 0802e470-11ce-420c-9fd6-47bc221fa8f8)
    )
    (fp_text user "${REFERENCE}" (at 0 0) (layer "F.Fab")
        (effects (font (size 0.8 0.8) (thickness 0.15)))
      (tstamp bfd62965-d0a1-42ef-b95e-a838949d9a18)
    )
    (fp_line (start -3.65 -2.75) (end 3.65 -2.75)
      (stroke (width 0.12) (type solid)) (layer "F.SilkS") (tstamp 3f88d187-3b40-4609-8167-d623196de5a9))
    (fp_line (start -3.65 2.75) (end 3.65 2.75)
      (stroke (width 0.12) (type solid)) (layer "F.SilkS") (tstamp 5ed33c17-5f75-4843-8977-02007d5848f4))
    (fp_line (start 3.65 2.75) (end 3.65 1.6)
      (stroke (width 0.12) (type solid)) (layer "F.SilkS") (tstamp d9fc73e3-9071-4210-b654-f2e423e03fac))
    (fp_line (start -3.45 -2.75) (end -3.45 2.75)
      (stroke (width 0.05) (type solid)) (layer "F.CrtYd") (tstamp fb7b81c9-a4dc-4415-8454-33733037b587))
    (fp_line (start -3.45 2.75) (end 3.45 2.75)
      (stroke (width 0.05) (type solid)) (layer "F.CrtYd") (tstamp 70a52569-f6ce-4fa3-b6ac-a07c44ce7a54))
    (fp_line (start 3.45 -2.75) (end -3.45 -2.75)
      (stroke (width 0.05) (type solid)) (layer "F.CrtYd") (tstamp c7a44aa7-5eef-40b4-a23d-52fa5d8727a9))
    (fp_line (start 3.45 2.75) (end 3.45 -2.75)
      (stroke (width 0.05) (type solid)) (layer "F.CrtYd") (tstamp 1780a0f1-f8e5-428a-a588-2e75e455837d))
    (fp_line (start -2.5 -2.5) (end -2.5 2.5)
      (stroke (width 0.1) (type solid)) (layer "F.Fab") (tstamp ec5eafea-256f-426b-8b4f-8428a760ae60))
    (fp_line (start -2.5 2.5) (end 2.5 2.5)
      (stroke (width 0.1) (type solid)) (layer "F.Fab") (tstamp 978f3f47-5efd-4f3b-a1d5-c666fc40945c))
    (fp_line (start 2.5 -2.5) (end -2.5 -2.5)
      (stroke (width 0.1) (type solid)) (layer "F.Fab") (tstamp 9303e11d-a5d3-41ad-94f5-9c23f2b5ea04))
    (fp_line (start 2.5 1.5) (end 1.5 2.5)
      (stroke (width 0.1) (type solid)) (layer "F.Fab") (tstamp 077c4efe-d92e-4fc1-81c2-e63e2f069d4f))
    (fp_line (start 2.5 2.5) (end 2.5 -2.5)
      (stroke (width 0.1) (type solid)) (layer "F.Fab") (tstamp e73c9973-e2a2-4ec7-8ff9-86378066d2b6))
    (fp_circle (center 0 0) (end 0 -2)
      (stroke (width 0.1) (type solid)) (fill none) (layer "F.Fab") (tstamp ad0b865c-d2db-45f3-9a3b-686a3b9237df))
    (pad "1" smd rect (at -2.45 -1.65) (size 1.5 0.9) (layers "F.Cu" "F.Paste" "F.Mask")
      (net 1 "VCC") (pinfunction "VDD") (pintype "power_in") (tstamp dae3dc64-a0b8-4c9c-b081-ec697a1a50dc))
    (pad "2" smd rect (at -2.45 1.65) (size 1.5 0.9) (layers "F.Cu" "F.Paste" "F.Mask")
      (net 11 "Net-(D8-DOUT)") (pinfunction "DOUT") (pintype "output") (tstamp bbba152d-93eb-4140-b667-085f57bb998b))
    (pad "3" smd rect (at 2.45 1.65) (size 1.5 0.9) (layers "F.Cu" "F.Paste" "F.Mask")
      (net 3 "GND") (pinfunction "VSS") (pintype "power_in") (tstamp ae7d9073-1e44-4555-8a4d-f332c6cf93d2))
    (pad "4" smd rect (at 2.45 -1.65) (size 1.5 0.9) (layers "F.Cu" "F.Paste" "F.Mask")
      (net 10 "Net-(D7-DOUT)") (pinfunction "DIN") (pintype "input") (tstamp 14582804-ae49-4e13-8449-e1743517bd4a))
    (model "${KICAD6_3DMODEL_DIR}/LED_SMD.3dshapes/LED_WS2812B_PLCC4_5.0x5.0mm_P3.2mm.wrl"
      (offset (xyz 0 0 0))
      (scale (xyz 1 1 1))
      (rotate (xyz 0 0 0))
    )
  )

  (footprint "TestPoint:TestPoint_THTPad_D2.0mm_Drill1.0mm" (layer "F.Cu")
    (tstamp 38fad24b-7637-4c2d-bea5-7f18e5a22bd2)
    (at 89.378 69.596 90)
    (descr "THT pad as test Point, diameter 2.0mm, hole diameter 1.0mm")
    (tags "test point THT pad")
    (property "Sheetfile" "led_drone.kicad_sch")
    (property "Sheetname" "")
    (property "ki_description" "Generic connector, single row, 01x01, script generated")
    (property "ki_keywords" "connector")
    (path "/6c03c274-8486-4967-87f5-6c9c12cce95e")
    (attr exclude_from_pos_files)
    (fp_text reference "J4" (at 0 -1.998 90) (layer "F.Fab")
        (effects (font (size 1 1) (thickness 0.15)))
      (tstamp 6e3a16fa-b434-40e8-9164-4612bf8d54a1)
    )
    (fp_text value "Conn_01x01_Pin" (at 0 2.05 90) (layer "F.Fab")
        (effects (font (size 1 1) (thickness 0.15)))
      (tstamp 943637e9-99cd-47b7-80d0-68d2f907605f)
    )
    (fp_text user "${REFERENCE}" (at 0 -2 90) (layer "F.Fab")
        (effects (font (size 1 1) (thickness 0.15)))
      (tstamp 348e5262-26be-4792-ac17-65da9b36b653)
    )
    (fp_circle (center 0 0) (end 0 1.2)
      (stroke (width 0.12) (type solid)) (fill none) (layer "F.SilkS") (tstamp b40b6854-f045-495b-b142-0bcc947d9c0a))
    (fp_circle (center 0 0) (end 1.5 0)
      (stroke (width 0.05) (type solid)) (fill none) (layer "F.CrtYd") (tstamp 646b5f88-9079-40bc-8ec8-6e696656671f))
    (pad "1" thru_hole circle (at 0 0 90) (size 2 2) (drill 1) (layers "*.Cu" "*.Mask")
      (net 3 "GND") (pinfunction "Pin_1") (pintype "passive") (tstamp 986aa2d6-af52-4ea1-a38c-2b7b86d683a2))
  )

  (footprint "TestPoint:TestPoint_Pad_D1.5mm" (layer "F.Cu")
    (tstamp 5387e89e-ea45-4109-8966-39b82d453365)
    (at 78.74 96.012)
    (descr "SMD pad as test Point, diameter 1.5mm")
    (tags "test point SMD pad")
    (property "Sheetfile" "led_drone.kicad_sch")
    (property "Sheetname" "")
    (property "ki_description" "Generic connector, single row, 01x01, script generated")
    (property "ki_keywords" "connector")
    (path "/7839b5b1-a870-4e88-b692-4de4509675dd")
    (attr exclude_from_pos_files)
    (fp_text reference "J1" (at 0 -1.648) (layer "F.Fab")
        (effects (font (size 1 1) (thickness 0.15)))
      (tstamp 51520ea1-8c66-4c3d-96c1-954f17435d8e)
    )
    (fp_text value "out_test" (at 0 1.75) (layer "F.Fab")
        (effects (font (size 1 1) (thickness 0.15)))
      (tstamp 6856a6d9-2fb0-4901-8f5e-2e1e873f97b6)
    )
    (fp_text user "${REFERENCE}" (at 0 -1.65) (layer "F.Fab")
        (effects (font (size 1 1) (thickness 0.15)))
      (tstamp 12389811-7661-443a-9702-c3107c30afb7)
    )
    (fp_circle (center 0 0) (end 0 0.95)
      (stroke (width 0.12) (type solid)) (fill none) (layer "F.SilkS") (tstamp f6687031-ef9d-4b4f-b2a7-d5b52884cb5d))
    (fp_circle (center 0 0) (end 1.25 0)
      (stroke (width 0.05) (type solid)) (fill none) (layer "F.CrtYd") (tstamp 01b6876f-6c0c-4183-aeea-cd37a614530f))
    (pad "1" smd circle (at 0 0) (size 1.5 1.5) (layers "F.Cu" "F.Mask")
      (net 11 "Net-(D8-DOUT)") (pinfunction "Pin_1") (pintype "passive") (tstamp 27b4b478-9a6e-44c9-81aa-1b777d97a50a))
  )

  (footprint "LED_SMD:LED_WS2812B_PLCC4_5.0x5.0mm_P3.2mm" (layer "F.Cu")
    (tstamp 5c8ae6e6-caad-4467-bb14-1a5cf3ea8f80)
    (at 74.168 87.821332)
    (descr "https://cdn-shop.adafruit.com/datasheets/WS2812B.pdf")
    (tags "LED RGB NeoPixel")
    (property "MPN" "C114586")
    (property "Sheetfile" "led_drone.kicad_sch")
    (property "Sheetname" "")
    (property "ki_description" "RGB LED with integrated controller")
    (property "ki_keywords" "RGB LED NeoPixel addressable")
    (path "/bbbbb165-34d8-4967-bb0a-9d249d5c9e69")
    (attr smd)
    (fp_text reference "D5" (at -0.09 -0.382) (layer "F.SilkS")
        (effects (font (size 1 1) (thickness 0.15)))
      (tstamp 587eb6c6-2fa3-4d97-88af-1f036a8138de)
    )
    (fp_text value "WS2812B" (at 0 4) (layer "F.Fab")
        (effects (font (size 1 1) (thickness 0.15)))
      (tstamp de63e34a-6986-45fa-8405-bb09b22d57ad)
    )
    (fp_text user "5" (at -4.15 -1.6) (layer "F.SilkS")
        (effects (font (size 1 1) (thickness 0.15)))
      (tstamp f28b442f-223f-426e-891c-5a2447715b59)
    )
    (fp_text user "${REFERENCE}" (at 0 0) (layer "F.Fab")
        (effects (font (size 0.8 0.8) (thickness 0.15)))
      (tstamp bd8612e5-3882-4c3f-8f05-2fa57979882c)
    )
    (fp_line (start -3.65 -2.75) (end 3.65 -2.75)
      (stroke (width 0.12) (type solid)) (layer "F.SilkS") (tstamp 8ad426ea-5e4f-43a9-aa98-6fe9771ecd0e))
    (fp_line (start -3.65 2.75) (end 3.65 2.75)
      (stroke (width 0.12) (type solid)) (layer "F.SilkS") (tstamp d7df1b0d-c431-4323-9246-67fcc84c53e2))
    (fp_line (start 3.65 2.75) (end 3.65 1.6)
      (stroke (width 0.12) (type solid)) (layer "F.SilkS") (tstamp 4b75ed5f-202e-4f33-b230-9ea5882bf0fd))
    (fp_line (start -3.45 -2.75) (end -3.45 2.75)
      (stroke (width 0.05) (type solid)) (layer "F.CrtYd") (tstamp e3878aa6-7f9f-49a7-b345-74a6042bd8b7))
    (fp_line (start -3.45 2.75) (end 3.45 2.75)
      (stroke (width 0.05) (type solid)) (layer "F.CrtYd") (tstamp 29052f70-df0e-41da-a25e-a5cbf3b7fde0))
    (fp_line (start 3.45 -2.75) (end -3.45 -2.75)
      (stroke (width 0.05) (type solid)) (layer "F.CrtYd") (tstamp 91600b10-bd27-431d-b483-5e214ed7d53b))
    (fp_line (start 3.45 2.75) (end 3.45 -2.75)
      (stroke (width 0.05) (type solid)) (layer "F.CrtYd") (tstamp 6e23dc92-d904-4784-9df9-828ea957ff09))
    (fp_line (start -2.5 -2.5) (end -2.5 2.5)
      (stroke (width 0.1) (type solid)) (layer "F.Fab") (tstamp 371bac11-a049-401a-862b-d9036b7ff7b7))
    (fp_line (start -2.5 2.5) (end 2.5 2.5)
      (stroke (width 0.1) (type solid)) (layer "F.Fab") (tstamp 0251ae38-d22f-4e96-9315-206bdb39f7e5))
    (fp_line (start 2.5 -2.5) (end -2.5 -2.5)
      (stroke (width 0.1) (type solid)) (layer "F.Fab") (tstamp 40bd9552-0543-46c9-a304-7c37af9e4dd4))
    (fp_line (start 2.5 1.5) (end 1.5 2.5)
      (stroke (width 0.1) (type solid)) (layer "F.Fab") (tstamp 449244df-999c-4c11-a218-1cab2b0205a3))
    (fp_line (start 2.5 2.5) (end 2.5 -2.5)
      (stroke (width 0.1) (type solid)) (layer "F.Fab") (tstamp c1014efc-7d38-4bde-9d09-b94beda98e09))
    (fp_circle (center 0 0) (end 0 -2)
      (stroke (width 0.1) (type solid)) (fill none) (layer "F.Fab") (tstamp 148b5779-7f75-432a-8abe-0b2a31a09380))
    (pad "1" smd rect (at -2.45 -1.65) (size 1.5 0.9) (layers "F.Cu" "F.Paste" "F.Mask")
      (net 1 "VCC") (pinfunction "VDD") (pintype "power_in") (tstamp 0cb826f4-e077-46eb-a045-8749046d6722))
    (pad "2" smd rect (at -2.45 1.65) (size 1.5 0.9) (layers "F.Cu" "F.Paste" "F.Mask")
      (net 8 "Net-(D5-DOUT)") (pinfunction "DOUT") (pintype "output") (tstamp 933ada54-fbf4-4cc8-8ae3-239da32dbff8))
    (pad "3" smd rect (at 2.45 1.65) (size 1.5 0.9) (layers "F.Cu" "F.Paste" "F.Mask")
      (net 3 "GND") (pinfunction "VSS") (pintype "power_in") (tstamp a47864bf-fa9e-4acc-acd7-018fd4cca85a))
    (pad "4" smd rect (at 2.45 -1.65) (size 1.5 0.9) (layers "F.Cu" "F.Paste" "F.Mask")
      (net 7 "Net-(D4-DOUT)") (pinfunction "DIN") (pintype "input") (tstamp c6977481-924d-41b8-b3ae-9cc088690b1f))
    (model "${KICAD6_3DMODEL_DIR}/LED_SMD.3dshapes/LED_WS2812B_PLCC4_5.0x5.0mm_P3.2mm.wrl"
      (offset (xyz 0 0 0))
      (scale (xyz 1 1 1))
      (rotate (xyz 0 0 0))
    )
  )

  (footprint "LED_SMD:LED_WS2812B_PLCC4_5.0x5.0mm_P3.2mm" (layer "F.Cu")
    (tstamp 88a5f6a6-efce-47c4-a0a1-527ab070dff6)
    (at 74.168 81.154666)
    (descr "https://cdn-shop.adafruit.com/datasheets/WS2812B.pdf")
    (tags "LED RGB NeoPixel")
    (property "MPN" "C114586")
    (property "Sheetfile" "led_drone.kicad_sch")
    (property "Sheetname" "")
    (property "ki_description" "RGB LED with integrated controller")
    (property "ki_keywords" "RGB LED NeoPixel addressable")
    (path "/5bd07044-4639-48b2-9ccf-e78e90afcf83")
    (attr smd)
    (fp_text reference "D2" (at 0 0) (layer "F.SilkS")
        (effects (font (size 1 1) (thickness 0.15)))
      (tstamp f1f32def-8921-4d61-b2d2-996fe4e005eb)
    )
    (fp_text value "WS2812B" (at 0 4) (layer "F.Fab")
        (effects (font (size 1 1) (thickness 0.15)))
      (tstamp 77838f68-82e4-4166-90a8-f6c7b4492700)
    )
    (fp_text user "2" (at -4.15 -1.6) (layer "F.SilkS")
        (effects (font (size 1 1) (thickness 0.15)))
      (tstamp 61e74299-e4f2-4dc8-8dab-dac76d126427)
    )
    (fp_text user "${REFERENCE}" (at 0 0) (layer "F.Fab")
        (effects (font (size 0.8 0.8) (thickness 0.15)))
      (tstamp f3d1d20d-bd88-41d4-9f75-3706f62a1aa3)
    )
    (fp_line (start -3.65 -2.75) (end 3.65 -2.75)
      (stroke (width 0.12) (type solid)) (layer "F.SilkS") (tstamp c3c3b906-e9ad-4f34-984d-ee24e786f4b7))
    (fp_line (start -3.65 2.75) (end 3.65 2.75)
      (stroke (width 0.12) (type solid)) (layer "F.SilkS") (tstamp 9d9f7bb8-0991-4791-bc88-8935b3c66368))
    (fp_line (start 3.65 2.75) (end 3.65 1.6)
      (stroke (width 0.12) (type solid)) (layer "F.SilkS") (tstamp 60da9cd8-c1fa-447d-bc7b-daf38481f1b4))
    (fp_line (start -3.45 -2.75) (end -3.45 2.75)
      (stroke (width 0.05) (type solid)) (layer "F.CrtYd") (tstamp a9e7ed23-435f-4186-9bed-40e4b3341e78))
    (fp_line (start -3.45 2.75) (end 3.45 2.75)
      (stroke (width 0.05) (type solid)) (layer "F.CrtYd") (tstamp 6debbffe-cf13-4423-b489-7f4491880bf2))
    (fp_line (start 3.45 -2.75) (end -3.45 -2.75)
      (stroke (width 0.05) (type solid)) (layer "F.CrtYd") (tstamp 9dfb4bc9-5611-47ec-a6c6-64e2430ab11a))
    (fp_line (start 3.45 2.75) (end 3.45 -2.75)
      (stroke (width 0.05) (type solid)) (layer "F.CrtYd") (tstamp 9efbf333-d19c-4d6a-b860-d31516f4cd7f))
    (fp_line (start -2.5 -2.5) (end -2.5 2.5)
      (stroke (width 0.1) (type solid)) (layer "F.Fab") (tstamp 8d628adc-43db-4ac0-8b60-65f4ef39c174))
    (fp_line (start -2.5 2.5) (end 2.5 2.5)
      (stroke (width 0.1) (type solid)) (layer "F.Fab") (tstamp 9dfe7038-adc6-46c0-abc5-6687d0335957))
    (fp_line (start 2.5 -2.5) (end -2.5 -2.5)
      (stroke (width 0.1) (type solid)) (layer "F.Fab") (tstamp f229079f-4569-4c06-8c7a-74f72ab6a584))
    (fp_line (start 2.5 1.5) (end 1.5 2.5)
      (stroke (width 0.1) (type solid)) (layer "F.Fab") (tstamp 92fe8b5a-f297-4f5f-8c06-5f6d42a09ed5))
    (fp_line (start 2.5 2.5) (end 2.5 -2.5)
      (stroke (width 0.1) (type solid)) (layer "F.Fab") (tstamp 156a20dd-0045-4611-9599-afe9a2401bb2))
    (fp_circle (center 0 0) (end 0 -2)
      (stroke (width 0.1) (type solid)) (fill none) (layer "F.Fab") (tstamp 17d8eee2-6c7c-448f-b9ff-c703082e2119))
    (pad "1" smd rect (at -2.45 -1.65) (size 1.5 0.9) (layers "F.Cu" "F.Paste" "F.Mask")
      (net 1 "VCC") (pinfunction "VDD") (pintype "power_in") (tstamp cf0356c2-a052-413b-9fed-ff738bde7027))
    (pad "2" smd rect (at -2.45 1.65) (size 1.5 0.9) (layers "F.Cu" "F.Paste" "F.Mask")
      (net 5 "Net-(D2-DOUT)") (pinfunction "DOUT") (pintype "output") (tstamp 28772fe3-da14-4135-9ca1-e14a5af0feb0))
    (pad "3" smd rect (at 2.45 1.65) (size 1.5 0.9) (layers "F.Cu" "F.Paste" "F.Mask")
      (net 3 "GND") (pinfunction "VSS") (pintype "power_in") (tstamp 2484842b-12c7-4c79-a3bd-2db73081b2ef))
    (pad "4" smd rect (at 2.45 -1.65) (size 1.5 0.9) (layers "F.Cu" "F.Paste" "F.Mask")
      (net 2 "Net-(D1-DOUT)") (pinfunction "DIN") (pintype "input") (tstamp 35055346-c024-4379-8799-f087aeac616e))
    (model "${KICAD6_3DMODEL_DIR}/LED_SMD.3dshapes/LED_WS2812B_PLCC4_5.0x5.0mm_P3.2mm.wrl"
      (offset (xyz 0 0 0))
      (scale (xyz 1 1 1))
      (rotate (xyz 0 0 0))
    )
  )

  (footprint "TestPoint:TestPoint_THTPad_D2.0mm_Drill1.0mm" (layer "F.Cu")
    (tstamp 9282952c-0ce9-400b-8d8e-9eee376ba183)
    (at 79.278 69.596 90)
    (descr "THT pad as test Point, diameter 2.0mm, hole diameter 1.0mm")
    (tags "test point THT pad")
    (property "Sheetfile" "led_drone.kicad_sch")
    (property "Sheetname" "")
    (property "ki_description" "Generic connector, single row, 01x01, script generated")
    (property "ki_keywords" "connector")
    (path "/52c4dbc4-db1b-4cf0-9699-e728517ed679")
    (attr exclude_from_pos_files)
    (fp_text reference "J2" (at 0 -1.998 90) (layer "F.Fab")
        (effects (font (size 1 1) (thickness 0.15)))
      (tstamp 956d6c16-e915-48ed-83e4-f8ad10259a0b)
    )
    (fp_text value "Conn_01x01_Pin" (at 0 2.05 90) (layer "F.Fab")
        (effects (font (size 1 1) (thickness 0.15)))
      (tstamp ff6ab0de-6d5d-4c20-ad3a-10c492517c72)
    )
    (fp_text user "${REFERENCE}" (at 0 -2 90) (layer "F.Fab")
        (effects (font (size 1 1) (thickness 0.15)))
      (tstamp 52d8fa92-e717-4cac-bbd4-bd7515c4a828)
    )
    (fp_circle (center 0 0) (end 0 1.2)
      (stroke (width 0.12) (type solid)) (fill none) (layer "F.SilkS") (tstamp 431f1d00-73fd-4c08-aa52-1cd282281014))
    (fp_circle (center 0 0) (end 1.5 0)
      (stroke (width 0.05) (type solid)) (fill none) (layer "F.CrtYd") (tstamp db70a451-fc4b-4a9c-97be-fa82e4dec634))
    (pad "1" thru_hole circle (at 0 0 90) (size 2 2) (drill 1) (layers "*.Cu" "*.Mask")
      (net 1 "VCC") (pinfunction "Pin_1") (pintype "passive") (tstamp b4fb4596-0a00-4bc2-aa9b-e4e0a74ccbb9))
  )

  (footprint "MountingHole:MountingHole_2.7mm_M2.5_Pad" (layer "F.Cu")
    (tstamp 95cf0ebc-36d0-4e39-a2dd-87598bd64cff)
    (at 74.168 94.488)
    (descr "Mounting Hole 2.7mm, M2.5")
    (tags "mounting hole 2.7mm m2.5")
    (property "Sheetfile" "led_drone.kicad_sch")
    (property "Sheetname" "")
    (property "ki_description" "Mounting Hole without connection")
    (property "ki_keywords" "mounting hole")
    (path "/9567ad32-2be8-4716-8328-c98de37a1d12")
    (attr exclude_from_pos_files)
    (fp_text reference "H3" (at -0.508 4.064) (layer "F.Fab")
        (effects (font (size 1 1) (thickness 0.15)))
      (tstamp e14f65ec-d3e2-4d9f-bfec-1c5b300431d9)
    )
    (fp_text value "MountingHole" (at 0 3.7) (layer "F.Fab")
        (effects (font (size 1 1) (thickness 0.15)))
      (tstamp 4fd2a03d-decb-411f-a5af-689e57b461e9)
    )
    (fp_text user "${REFERENCE}" (at 0 0) (layer "F.Fab")
        (effects (font (size 1 1) (thickness 0.15)))
      (tstamp 46b828a1-3349-4dc8-8b63-2a6c8eaa236a)
    )
    (fp_circle (center 0 0) (end 2.7 0)
      (stroke (width 0.15) (type solid)) (fill none) (layer "Cmts.User") (tstamp 79f67e53-a48b-477e-a57c-d1b4de2dffd3))
    (fp_circle (center 0 0) (end 2.95 0)
      (stroke (width 0.05) (type solid)) (fill none) (layer "F.CrtYd") (tstamp 19798aa7-a86a-44cf-bf69-3aee8f6d5fa9))
    (pad "1" thru_hole circle (at 0 0) (size 5.4 5.4) (drill 2.7) (layers "*.Cu" "*.Mask") (tstamp d0aacb64-bccd-49d1-9bfa-cfa343ee910a))
  )

  (footprint "LED_SMD:LED_WS2812B_PLCC4_5.0x5.0mm_P3.2mm" (layer "F.Cu")
    (tstamp a654b2fa-c2f7-4188-b7d5-0ed364a7d343)
    (at 94.168 81.154666)
    (descr "https://cdn-shop.adafruit.com/datasheets/WS2812B.pdf")
    (tags "LED RGB NeoPixel")
    (property "MPN" "C114586")
    (property "Sheetfile" "led_drone.kicad_sch")
    (property "Sheetname" "")
    (property "ki_description" "RGB LED with integrated controller")
    (property "ki_keywords" "RGB LED NeoPixel addressable")
    (path "/731df9b8-c97f-412f-9fd6-1a57560eae95")
    (attr smd)
    (fp_text reference "D4" (at 0 0) (layer "F.SilkS")
        (effects (font (size 1 1) (thickness 0.15)))
      (tstamp e5639945-cc53-47f6-a4ac-f721eaee5690)
    )
    (fp_text value "WS2812B" (at 0 4) (layer "F.Fab")
        (effects (font (size 1 1) (thickness 0.15)))
      (tstamp 2e985ae5-3e87-4b2a-b1ee-1dce7e44d5d6)
    )
    (fp_text user "4" (at -4.15 -1.6) (layer "F.SilkS")
        (effects (font (size 1 1) (thickness 0.15)))
      (tstamp 9abdaebd-6f82-4ed4-88f1-4ab13349e411)
    )
    (fp_text user "${REFERENCE}" (at 0 0) (layer "F.Fab")
        (effects (font (size 0.8 0.8) (thickness 0.15)))
      (tstamp a31d20f9-1340-49df-9585-90e31d6bb518)
    )
    (fp_line (start -3.65 -2.75) (end 3.65 -2.75)
      (stroke (width 0.12) (type solid)) (layer "F.SilkS") (tstamp cf321216-a31a-4317-86a9-9c5bffe5ab33))
    (fp_line (start -3.65 2.75) (end 3.65 2.75)
      (stroke (width 0.12) (type solid)) (layer "F.SilkS") (tstamp 94a08a0a-cd1d-4200-aee1-b94cf2f5bb38))
    (fp_line (start 3.65 2.75) (end 3.65 1.6)
      (stroke (width 0.12) (type solid)) (layer "F.SilkS") (tstamp 7de0337a-8b53-4b94-b0df-dc11aa5ecd1e))
    (fp_line (start -3.45 -2.75) (end -3.45 2.75)
      (stroke (width 0.05) (type solid)) (layer "F.CrtYd") (tstamp 1d54f920-fe1c-496e-b431-a2ac74e4e27c))
    (fp_line (start -3.45 2.75) (end 3.45 2.75)
      (stroke (width 0.05) (type solid)) (layer "F.CrtYd") (tstamp d69bd960-72b8-44db-8c53-99355349e371))
    (fp_line (start 3.45 -2.75) (end -3.45 -2.75)
      (stroke (width 0.05) (type solid)) (layer "F.CrtYd") (tstamp ec52748f-90dc-4082-93b9-b8aa8e95f791))
    (fp_line (start 3.45 2.75) (end 3.45 -2.75)
      (stroke (width 0.05) (type solid)) (layer "F.CrtYd") (tstamp b6bf8453-0895-44c5-bc4e-df55d9c38b74))
    (fp_line (start -2.5 -2.5) (end -2.5 2.5)
      (stroke (width 0.1) (type solid)) (layer "F.Fab") (tstamp 201a251f-5947-47cb-9654-9e85f1054222))
    (fp_line (start -2.5 2.5) (end 2.5 2.5)
      (stroke (width 0.1) (type solid)) (layer "F.Fab") (tstamp a2bdee4b-9580-42d9-a9ea-e8fa9174f362))
    (fp_line (start 2.5 -2.5) (end -2.5 -2.5)
      (stroke (width 0.1) (type solid)) (layer "F.Fab") (tstamp ceee6f81-f29e-42db-b782-78b01f9a7a39))
    (fp_line (start 2.5 1.5) (end 1.5 2.5)
      (stroke (width 0.1) (type solid)) (layer "F.Fab") (tstamp 7843c4eb-6bb9-4425-bbcc-c446aa76084c))
    (fp_line (start 2.5 2.5) (end 2.5 -2.5)
      (stroke (width 0.1) (type solid)) (layer "F.Fab") (tstamp 953fbc38-d48d-4cff-a554-a84e0eb65994))
    (fp_circle (center 0 0) (end 0 -2)
      (stroke (width 0.1) (type solid)) (fill none) (layer "F.Fab") (tstamp da81b36e-ce18-44b8-a755-17ea3eaae14c))
    (pad "1" smd rect (at -2.45 -1.65) (size 1.5 0.9) (layers "F.Cu" "F.Paste" "F.Mask")
      (net 1 "VCC") (pinfunction "VDD") (pintype "power_in") (tstamp bccb2dc2-222a-426e-8095-1378f3bd3d73))
    (pad "2" smd rect (at -2.45 1.65) (size 1.5 0.9) (layers "F.Cu" "F.Paste" "F.Mask")
      (net 7 "Net-(D4-DOUT)") (pinfunction "DOUT") (pintype "output") (tstamp dde07922-dfa4-4980-bdb6-5426a2a521b8))
    (pad "3" smd rect (at 2.45 1.65) (size 1.5 0.9) (layers "F.Cu" "F.Paste" "F.Mask")
      (net 3 "GND") (pinfunction "VSS") (pintype "power_in") (tstamp 37706680-b1a6-40e3-8f4c-1c629462775e))
    (pad "4" smd rect (at 2.45 -1.65) (size 1.5 0.9) (layers "F.Cu" "F.Paste" "F.Mask")
      (net 6 "Net-(D3-DOUT)") (pinfunction "DIN") (pintype "input") (tstamp c2fc6438-90ff-44c1-b8cd-64592c92088b))
    (model "${KICAD6_3DMODEL_DIR}/LED_SMD.3dshapes/LED_WS2812B_PLCC4_5.0x5.0mm_P3.2mm.wrl"
      (offset (xyz 0 0 0))
      (scale (xyz 1 1 1))
      (rotate (xyz 0 0 0))
    )
  )

  (footprint "MountingHole:MountingHole_2.7mm_M2.5_Pad" (layer "F.Cu")
    (tstamp b1e56542-7ce8-4a68-80a3-95ab2e289e7e)
    (at 94.168 74.488)
    (descr "Mounting Hole 2.7mm, M2.5")
    (tags "mounting hole 2.7mm m2.5")
    (property "Sheetfile" "led_drone.kicad_sch")
    (property "Sheetname" "")
    (property "ki_description" "Mounting Hole without connection")
    (property "ki_keywords" "mounting hole")
    (path "/da1147eb-f64d-4d6e-b27f-5d40a38f373c")
    (attr exclude_from_pos_files)
    (fp_text reference "H2" (at 0 -3.7) (layer "F.Fab")
        (effects (font (size 1 1) (thickness 0.15)))
      (tstamp fdf931bd-b8bb-45c8-b8b7-5d1d3918e48f)
    )
    (fp_text value "MountingHole" (at 0 3.7) (layer "F.Fab")
        (effects (font (size 1 1) (thickness 0.15)))
      (tstamp b1ddc990-d09e-487f-8770-b07d24efea24)
    )
    (fp_text user "${REFERENCE}" (at 0 0) (layer "F.Fab")
        (effects (font (size 1 1) (thickness 0.15)))
      (tstamp 187ec819-e750-422f-8da4-96b4358ec6b3)
    )
    (fp_circle (center 0 0) (end 2.7 0)
      (stroke (width 0.15) (type solid)) (fill none) (layer "Cmts.User") (tstamp 497b9ede-f4e0-4465-8dda-2e2dcb03a4c9))
    (fp_circle (center 0 0) (end 2.95 0)
      (stroke (width 0.05) (type solid)) (fill none) (layer "F.CrtYd") (tstamp 6b15946a-03ef-4670-b80a-d09444565bae))
    (pad "1" thru_hole circle (at 0 0) (size 5.4 5.4) (drill 2.7) (layers "*.Cu" "*.Mask") (tstamp a3d02d5b-c8aa-403b-b852-81461a944d99))
  )

  (footprint "LED_SMD:LED_WS2812B_PLCC4_5.0x5.0mm_P3.2mm" (layer "F.Cu")
    (tstamp b3a49a1d-d7fc-434f-a388-0da05ee35f43)
    (at 84.168 81.154666)
    (descr "https://cdn-shop.adafruit.com/datasheets/WS2812B.pdf")
    (tags "LED RGB NeoPixel")
    (property "MPN" "C114586")
    (property "Sheetfile" "led_drone.kicad_sch")
    (property "Sheetname" "")
    (property "ki_description" "RGB LED with integrated controller")
    (property "ki_keywords" "RGB LED NeoPixel addressable")
    (path "/0fa1c051-f997-49be-a93e-303bd329014a")
    (attr smd)
    (fp_text reference "D3" (at -0.09 0) (layer "F.SilkS")
        (effects (font (size 1 1) (thickness 0.15)))
      (tstamp da1afde3-f4ad-4380-b77e-fdca1368cb9b)
    )
    (fp_text value "WS2812B" (at 0 4) (layer "F.Fab")
        (effects (font (size 1 1) (thickness 0.15)))
      (tstamp 5c0ed61b-0964-409a-898f-38c933000ee9)
    )
    (fp_text user "3" (at -4.15 -1.6) (layer "F.SilkS")
        (effects (font (size 1 1) (thickness 0.15)))
      (tstamp 765a2f5e-4431-4462-a706-f1fb0a846940)
    )
    (fp_text user "${REFERENCE}" (at 0 0) (layer "F.Fab")
        (effects (font (size 0.8 0.8) (thickness 0.15)))
      (tstamp c9cfe90b-82e2-4357-a1a0-229c2e85e800)
    )
    (fp_line (start -3.65 -2.75) (end 3.65 -2.75)
      (stroke (width 0.12) (type solid)) (layer "F.SilkS") (tstamp 7d4dee85-228f-45d8-ba53-4b4bb5f088cd))
    (fp_line (start -3.65 2.75) (end 3.65 2.75)
      (stroke (width 0.12) (type solid)) (layer "F.SilkS") (tstamp d0f391ea-6724-4c0f-aa4b-601cdadb22a9))
    (fp_line (start 3.65 2.75) (end 3.65 1.6)
      (stroke (width 0.12) (type solid)) (layer "F.SilkS") (tstamp b06ffdf1-ac88-4582-92e1-e1740bd014aa))
    (fp_line (start -3.45 -2.75) (end -3.45 2.75)
      (stroke (width 0.05) (type solid)) (layer "F.CrtYd") (tstamp fd14e8d9-584a-484c-8e9a-3d21b923ddd3))
    (fp_line (start -3.45 2.75) (end 3.45 2.75)
      (stroke (width 0.05) (type solid)) (layer "F.CrtYd") (tstamp 44fc197b-e9b5-4484-888d-9d0e4fc982be))
    (fp_line (start 3.45 -2.75) (end -3.45 -2.75)
      (stroke (width 0.05) (type solid)) (layer "F.CrtYd") (tstamp 73479c4a-201e-4c28-8296-cde43eb55848))
    (fp_line (start 3.45 2.75) (end 3.45 -2.75)
      (stroke (width 0.05) (type solid)) (layer "F.CrtYd") (tstamp a4eef39e-22d4-40b9-bdf4-1cccf966afe5))
    (fp_line (start -2.5 -2.5) (end -2.5 2.5)
      (stroke (width 0.1) (type solid)) (layer "F.Fab") (tstamp cb38950d-5569-45c8-b529-5de01a2e6abb))
    (fp_line (start -2.5 2.5) (end 2.5 2.5)
      (stroke (width 0.1) (type solid)) (layer "F.Fab") (tstamp ae41993b-023e-45d6-8d1e-4ce6d79b562a))
    (fp_line (start 2.5 -2.5) (end -2.5 -2.5)
      (stroke (width 0.1) (type solid)) (layer "F.Fab") (tstamp c249c2b7-09d9-4265-bb53-1c161cbe0a7e))
    (fp_line (start 2.5 1.5) (end 1.5 2.5)
      (stroke (width 0.1) (type solid)) (layer "F.Fab") (tstamp c951daff-a1c0-4ddf-8617-5d9795a0099b))
    (fp_line (start 2.5 2.5) (end 2.5 -2.5)
      (stroke (width 0.1) (type solid)) (layer "F.Fab") (tstamp bd06a893-679f-49e5-999e-293220ccb9e5))
    (fp_circle (center 0 0) (end 0 -2)
      (stroke (width 0.1) (type solid)) (fill none) (layer "F.Fab") (tstamp 3eddfbbf-dfc7-4d73-b368-1ccc6ad62f1e))
    (pad "1" smd rect (at -2.45 -1.65) (size 1.5 0.9) (layers "F.Cu" "F.Paste" "F.Mask")
      (net 1 "VCC") (pinfunction "VDD") (pintype "power_in") (tstamp ed200521-7549-4f69-9c07-b2ccdd7d4ee7))
    (pad "2" smd rect (at -2.45 1.65) (size 1.5 0.9) (layers "F.Cu" "F.Paste" "F.Mask")
      (net 6 "Net-(D3-DOUT)") (pinfunction "DOUT") (pintype "output") (tstamp c823ac9a-a292-47e1-badf-26a96536f1f8))
    (pad "3" smd rect (at 2.45 1.65) (size 1.5 0.9) (layers "F.Cu" "F.Paste" "F.Mask")
      (net 3 "GND") (pinfunction "VSS") (pintype "power_in") (tstamp 89b520fc-c2fd-4d92-9836-d61cd5eb799d))
    (pad "4" smd rect (at 2.45 -1.65) (size 1.5 0.9) (layers "F.Cu" "F.Paste" "F.Mask")
      (net 5 "Net-(D2-DOUT)") (pinfunction "DIN") (pintype "input") (tstamp 285ecff0-3ec4-4f91-a137-c343b4fd60bc))
    (model "${KICAD6_3DMODEL_DIR}/LED_SMD.3dshapes/LED_WS2812B_PLCC4_5.0x5.0mm_P3.2mm.wrl"
      (offset (xyz 0 0 0))
      (scale (xyz 1 1 1))
      (rotate (xyz 0 0 0))
    )
  )

  (footprint "TestPoint:TestPoint_THTPad_D2.0mm_Drill1.0mm" (layer "F.Cu")
    (tstamp ba96ef72-d096-4f87-a465-cd39c5c30827)
    (at 84.328 69.596 90)
    (descr "THT pad as test Point, diameter 2.0mm, hole diameter 1.0mm")
    (tags "test point THT pad")
    (property "Sheetfile" "led_drone.kicad_sch")
    (property "Sheetname" "")
    (property "ki_description" "Generic connector, single row, 01x01, script generated")
    (property "ki_keywords" "connector")
    (path "/14781af9-725a-4ed7-b8a3-f72d69fa167c")
    (attr exclude_from_pos_files)
    (fp_text reference "J3" (at 0 -1.998 90) (layer "F.Fab")
        (effects (font (size 1 1) (thickness 0.15)))
      (tstamp 6055c5ae-f960-4f26-bdb8-a823f4b61098)
    )
    (fp_text value "Conn_01x01_Pin" (at 0 2.05 90) (layer "F.Fab")
        (effects (font (size 1 1) (thickness 0.15)))
      (tstamp cac67450-9a98-4933-86a5-3d32031c7b50)
    )
    (fp_text user "${REFERENCE}" (at 0 -2 90) (layer "F.Fab")
        (effects (font (size 1 1) (thickness 0.15)))
      (tstamp 7f7b2664-f726-46c7-8e4b-c638be82fc9b)
    )
    (fp_circle (center 0 0) (end 0 1.2)
      (stroke (width 0.12) (type solid)) (fill none) (layer "F.SilkS") (tstamp 8544b9e1-8a4d-43ee-9240-117a754f238e))
    (fp_circle (center 0 0) (end 1.5 0)
      (stroke (width 0.05) (type solid)) (fill none) (layer "F.CrtYd") (tstamp 30f3beeb-8fac-4b5e-b663-0d5af14a5f16))
    (pad "1" thru_hole circle (at 0 0 90) (size 2 2) (drill 1) (layers "*.Cu" "*.Mask")
      (net 4 "DIN") (pinfunction "Pin_1") (pintype "passive") (tstamp 5fdbbf66-665d-443b-ad82-b7567cdb361e))
  )

  (footprint "LED_SMD:LED_WS2812B_PLCC4_5.0x5.0mm_P3.2mm" (layer "F.Cu")
    (tstamp e026c847-ebbc-4ea0-8c56-7db51035d55e)
    (at 84.168 74.488)
    (descr "https://cdn-shop.adafruit.com/datasheets/WS2812B.pdf")
    (tags "LED RGB NeoPixel")
    (property "MPN" "C114586")
    (property "Sheetfile" "led_drone.kicad_sch")
    (property "Sheetname" "")
    (property "ki_description" "RGB LED with integrated controller")
    (property "ki_keywords" "RGB LED NeoPixel addressable")
    (path "/fbe3a3c1-e847-445f-abe3-c731e876221c")
    (attr smd)
    (fp_text reference "D1" (at 0.16 0.188) (layer "F.SilkS")
        (effects (font (size 1 1) (thickness 0.15)))
      (tstamp 24639597-cc97-4be8-86ae-2f1cb8e9b9a0)
    )
    (fp_text value "WS2812B" (at 0 4) (layer "F.Fab")
        (effects (font (size 1 1) (thickness 0.15)))
      (tstamp 380f2c38-be60-4dab-950d-11bc52e3517c)
    )
    (fp_text user "1" (at -4.15 -1.6) (layer "F.SilkS")
        (effects (font (size 1 1) (thickness 0.15)))
      (tstamp b04ce1fb-c7ea-4b6e-a6f3-868c1c295787)
    )
    (fp_text user "${REFERENCE}" (at 0 0) (layer "F.Fab")
        (effects (font (size 0.8 0.8) (thickness 0.15)))
      (tstamp 590f7e4d-4726-492a-82a8-7076ec9a78d1)
    )
    (fp_line (start -3.65 -2.75) (end 3.65 -2.75)
      (stroke (width 0.12) (type solid)) (layer "F.SilkS") (tstamp c89677b2-81a2-431d-98a6-f64ef9844078))
    (fp_line (start -3.65 2.75) (end 3.65 2.75)
      (stroke (width 0.12) (type solid)) (layer "F.SilkS") (tstamp d7dbbda3-72c2-4d18-a658-4ae61ec98d8b))
    (fp_line (start 3.65 2.75) (end 3.65 1.6)
      (stroke (width 0.12) (type solid)) (layer "F.SilkS") (tstamp f53ffffe-a54b-4e5e-a053-9990d88f2535))
    (fp_line (start -3.45 -2.75) (end -3.45 2.75)
      (stroke (width 0.05) (type solid)) (layer "F.CrtYd") (tstamp 8878afef-2a05-42ad-8095-d1df89d40f9c))
    (fp_line (start -3.45 2.75) (end 3.45 2.75)
      (stroke (width 0.05) (type solid)) (layer "F.CrtYd") (tstamp cae08a9f-a359-4a19-888a-4e86f57d2260))
    (fp_line (start 3.45 -2.75) (end -3.45 -2.75)
      (stroke (width 0.05) (type solid)) (layer "F.CrtYd") (tstamp 95f5f595-7e0a-46a1-a481-d14bcbfaea1b))
    (fp_line (start 3.45 2.75) (end 3.45 -2.75)
      (stroke (width 0.05) (type solid)) (layer "F.CrtYd") (tstamp a2c2bf12-2cac-4541-a5c9-785629535f23))
    (fp_line (start -2.5 -2.5) (end -2.5 2.5)
      (stroke (width 0.1) (type solid)) (layer "F.Fab") (tstamp 418ff021-b0ec-485f-9e3d-7c000f6da73d))
    (fp_line (start -2.5 2.5) (end 2.5 2.5)
      (stroke (width 0.1) (type solid)) (layer "F.Fab") (tstamp 0421a911-53d7-48c8-9b6c-59d6987e0df7))
    (fp_line (start 2.5 -2.5) (end -2.5 -2.5)
      (stroke (width 0.1) (type solid)) (layer "F.Fab") (tstamp b56b6910-d178-43a2-858e-1a09bc8f80ac))
    (fp_line (start 2.5 1.5) (end 1.5 2.5)
      (stroke (width 0.1) (type solid)) (layer "F.Fab") (tstamp da3e1083-a7d0-4038-9699-4899451382be))
    (fp_line (start 2.5 2.5) (end 2.5 -2.5)
      (stroke (width 0.1) (type solid)) (layer "F.Fab") (tstamp 6b658494-1c0b-4c80-8669-b02c528725e0))
    (fp_circle (center 0 0) (end 0 -2)
      (stroke (width 0.1) (type solid)) (fill none) (layer "F.Fab") (tstamp 3a515f02-cfae-4e39-b413-1a50acb88e4d))
    (pad "1" smd rect (at -2.45 -1.65) (size 1.5 0.9) (layers "F.Cu" "F.Paste" "F.Mask")
      (net 1 "VCC") (pinfunction "VDD") (pintype "power_in") (tstamp 933bebce-d8eb-4d46-a085-ac0378aee956))
    (pad "2" smd rect (at -2.45 1.65) (size 1.5 0.9) (layers "F.Cu" "F.Paste" "F.Mask")
      (net 2 "Net-(D1-DOUT)") (pinfunction "DOUT") (pintype "output") (tstamp 3a296138-00b1-440b-8639-95ef4c97668d))
    (pad "3" smd rect (at 2.45 1.65) (size 1.5 0.9) (layers "F.Cu" "F.Paste" "F.Mask")
      (net 3 "GND") (pinfunction "VSS") (pintype "power_in") (tstamp 82449779-5121-4bcd-9111-a66d2532f27e))
    (pad "4" smd rect (at 2.45 -1.65) (size 1.5 0.9) (layers "F.Cu" "F.Paste" "F.Mask")
      (net 4 "DIN") (pinfunction "DIN") (pintype "input") (tstamp 72c22bdc-ebc7-4438-acb0-4151dc01edd0))
    (model "${KICAD6_3DMODEL_DIR}/LED_SMD.3dshapes/LED_WS2812B_PLCC4_5.0x5.0mm_P3.2mm.wrl"
      (offset (xyz 0 0 0))
      (scale (xyz 1 1 1))
      (rotate (xyz 0 0 0))
    )
  )

  (footprint "LED_SMD:LED_WS2812B_PLCC4_5.0x5.0mm_P3.2mm" (layer "F.Cu")
    (tstamp ffbc6b29-6665-43f4-b7df-b429c6a15c0b)
    (at 84.168 87.821332)
    (descr "https://cdn-shop.adafruit.com/datasheets/WS2812B.pdf")
    (tags "LED RGB NeoPixel")
    (property "MPN" "C114586")
    (property "Sheetfile" "led_drone.kicad_sch")
    (property "Sheetname" "")
    (property "ki_description" "RGB LED with integrated controller")
    (property "ki_keywords" "RGB LED NeoPixel addressable")
    (path "/3b4c2f00-c741-46a1-b8c8-d1dd117a54da")
    (attr smd)
    (fp_text reference "D6" (at 0 0) (layer "F.SilkS")
        (effects (font (size 1 1) (thickness 0.15)))
      (tstamp ec632cd9-94c0-4fb5-83a1-1e873dc9f442)
    )
    (fp_text value "WS2812B" (at 0 4) (layer "F.Fab")
        (effects (font (size 1 1) (thickness 0.15)))
      (tstamp ef7b5326-9bd2-41eb-a78e-9bcb80c197df)
    )
    (fp_text user "6" (at -4.15 -1.6) (layer "F.SilkS")
        (effects (font (size 1 1) (thickness 0.15)))
      (tstamp 449d1744-6745-4436-b417-b29b2d0bd273)
    )
    (fp_text user "${REFERENCE}" (at 0 0) (layer "F.Fab")
        (effects (font (size 0.8 0.8) (thickness 0.15)))
      (tstamp bfee6cb1-84f7-4df7-abd4-17a7ab1adb90)
    )
    (fp_line (start -3.65 -2.75) (end 3.65 -2.75)
      (stroke (width 0.12) (type solid)) (layer "F.SilkS") (tstamp 52569ab3-abdd-4bf8-a53c-9cf733bba321))
    (fp_line (start -3.65 2.75) (end 3.65 2.75)
      (stroke (width 0.12) (type solid)) (layer "F.SilkS") (tstamp 832c3f14-0740-4df8-ba56-02daef4fc97b))
    (fp_line (start 3.65 2.75) (end 3.65 1.6)
      (stroke (width 0.12) (type solid)) (layer "F.SilkS") (tstamp f03e8d0f-e513-4d21-8b13-79fe2501d7df))
    (fp_line (start -3.45 -2.75) (end -3.45 2.75)
      (stroke (width 0.05) (type solid)) (layer "F.CrtYd") (tstamp 350ea435-e561-48db-b5a8-57ee1e282973))
    (fp_line (start -3.45 2.75) (end 3.45 2.75)
      (stroke (width 0.05) (type solid)) (layer "F.CrtYd") (tstamp 8ad13111-48d5-4a34-8731-5ce9a37ce6a6))
    (fp_line (start 3.45 -2.75) (end -3.45 -2.75)
      (stroke (width 0.05) (type solid)) (layer "F.CrtYd") (tstamp bce183d2-9aec-44f0-9e4b-30af90120e13))
    (fp_line (start 3.45 2.75) (end 3.45 -2.75)
      (stroke (width 0.05) (type solid)) (layer "F.CrtYd") (tstamp 25d501d5-fab0-4c83-bf2b-46e7390cbbb4))
    (fp_line (start -2.5 -2.5) (end -2.5 2.5)
      (stroke (width 0.1) (type solid)) (layer "F.Fab") (tstamp 1def1fab-7104-40f7-8ade-5cc122307dec))
    (fp_line (start -2.5 2.5) (end 2.5 2.5)
      (stroke (width 0.1) (type solid)) (layer "F.Fab") (tstamp d4e4118d-44ab-42ac-98b4-17c966eb8eb2))
    (fp_line (start 2.5 -2.5) (end -2.5 -2.5)
      (stroke (width 0.1) (type solid)) (layer "F.Fab") (tstamp 6c2c73de-1aa1-409a-b60a-cfeab88737ba))
    (fp_line (start 2.5 1.5) (end 1.5 2.5)
      (stroke (width 0.1) (type solid)) (layer "F.Fab") (tstamp 150ddd71-5119-4bdc-be7c-7bd0ee0a248f))
    (fp_line (start 2.5 2.5) (end 2.5 -2.5)
      (stroke (width 0.1) (type solid)) (layer "F.Fab") (tstamp 66266592-2a5e-4114-8cea-ea06e6f56b20))
    (fp_circle (center 0 0) (end 0 -2)
      (stroke (width 0.1) (type solid)) (fill none) (layer "F.Fab") (tstamp de2a946b-2bea-4d3c-a092-4463fa2aecbe))
    (pad "1" smd rect (at -2.45 -1.65) (size 1.5 0.9) (layers "F.Cu" "F.Paste" "F.Mask")
      (net 1 "VCC") (pinfunction "VDD") (pintype "power_in") (tstamp 3154c78a-f71d-48a2-80ac-14b82d2309e5))
    (pad "2" smd rect (at -2.45 1.65) (size 1.5 0.9) (layers "F.Cu" "F.Paste" "F.Mask")
      (net 9 "Net-(D6-DOUT)") (pinfunction "DOUT") (pintype "output") (tstamp 1db5f507-398a-4f0c-818b-ec4069b61205))
    (pad "3" smd rect (at 2.45 1.65) (size 1.5 0.9) (layers "F.Cu" "F.Paste" "F.Mask")
      (net 3 "GND") (pinfunction "VSS") (pintype "power_in") (tstamp be8f2f5f-f28a-443d-bc58-556b043a7bf3))
    (pad "4" smd rect (at 2.45 -1.65) (size 1.5 0.9) (layers "F.Cu" "F.Paste" "F.Mask")
      (net 8 "Net-(D5-DOUT)") (pinfunction "DIN") (pintype "input") (tstamp 3b8fe085-1fd4-4b5e-9440-b3fe3abff2e3))
    (model "${KICAD6_3DMODEL_DIR}/LED_SMD.3dshapes/LED_WS2812B_PLCC4_5.0x5.0mm_P3.2mm.wrl"
      (offset (xyz 0 0 0))
      (scale (xyz 1 1 1))
      (rotate (xyz 0 0 0))
    )
  )

  (gr_arc (start 98.552 93.75) (mid 97.145527 97.145527) (end 93.75 98.552)
    (stroke (width 0.1) (type default)) (layer "Edge.Cuts") (tstamp 0e8f3df8-eecb-4138-9a13-2d35c9fb0326))
  (gr_line (start 76.708 68) (end 76.708 70.612)
    (stroke (width 0.1) (type default)) (layer "Edge.Cuts") (tstamp 2d99800e-797d-479c-877a-e0c3b8f70010))
  (gr_line (start 98.552 93.75) (end 98.638 75.5)
    (stroke (width 0.1) (type default)) (layer "Edge.Cuts") (tstamp 35ed2cd1-9f00-451e-a390-05f8f4b5f3b7))
  (gr_arc (start 93.75 70.612) (mid 97.206338 72.043662) (end 98.638 75.5)
    (stroke (width 0.1) (type default)) (layer "Edge.Cuts") (tstamp 42c7796b-5ffc-474f-994e-58fff919cf20))
  (gr_arc (start 91 67.052) (mid 91.670337 67.329663) (end 91.948 68)
    (stroke (width 0.1) (type default)) (layer "Edge.Cuts") (tstamp 45815f3b-6b72-42e8-b136-8d51308cac2c))
  (gr_line (start 91.948 70.612) (end 91.948 68)
    (stroke (width 0.1) (type default)) (layer "Edge.Cuts") (tstamp 45f40af1-1395-4b07-b16d-0480f2bc5581))
  (gr_arc (start 76.708 68) (mid 77.013195 67.263195) (end 77.75 66.958)
    (stroke (width 0.1) (type default)) (layer "Edge.Cuts") (tstamp 4f7a0a6b-ea7b-405f-89b9-0418d2554215))
  (gr_line (start 76.708 70.612) (end 74 70.588)
    (stroke (width 0.1) (type default)) (layer "Edge.Cuts") (tstamp 570ec249-0b59-4ecf-8fff-b69e56f85259))
  (gr_line (start 91 67.052) (end 77.75 66.958)
    (stroke (width 0.1) (type default)) (layer "Edge.Cuts") (tstamp 6c53a79f-a8da-4066-b5bf-4790904d2dcd))
  (gr_line (start 69.088 75.5) (end 69.198 93.5)
    (stroke (width 0.1) (type default)) (layer "Edge.Cuts") (tstamp 864b8ac8-bcce-4d73-99a6-6e61ac48dc79))
  (gr_line (start 74.25 98.552) (end 93.75 98.552)
    (stroke (width 0.1) (type default)) (layer "Edge.Cuts") (tstamp c662ede3-ed8a-42af-82f6-5a0124268c73))
  (gr_line (start 93.75 70.612) (end 91.948 70.612)
    (stroke (width 0.1) (type default)) (layer "Edge.Cuts") (tstamp d26e9b65-97ff-492f-80b3-1464015a5a13))
  (gr_arc (start 69.088 75.5) (mid 70.526691 72.026691) (end 74 70.588)
    (stroke (width 0.1) (type default)) (layer "Edge.Cuts") (tstamp f91ae455-2452-43c4-8d24-45dbc8db4ec3))
  (gr_arc (start 74.25 98.552) (mid 70.677697 97.072303) (end 69.198 93.5)
    (stroke (width 0.1) (type default)) (layer "Edge.Cuts") (tstamp fb94628f-e891-4df8-a6e7-2486f86d1612))
  (gr_text "JLCJLCJLCJLC" (at 80.772 80.772 90) (layer "B.SilkS") (tstamp 0e34707a-5ea1-4a14-ba55-d23f289d85a3)
    (effects (font (size 0.8 0.8) (thickness 0.15)) (justify left bottom mirror))
  )
  (gr_text "DRONE LED v1.0" (at 87.884 78.74 90) (layer "B.SilkS") (tstamp 95c8c951-edb6-4a92-8d0c-8af72b3fdc0e)
    (effects (font (size 1 1) (thickness 0.15)) (justify left bottom mirror))
  )
  (gr_text "VCC" (at 80.5 72.1 90) (layer "B.SilkS") (tstamp b15074a1-8e45-4db6-8267-4c3ff69436aa)
    (effects (font (size 1.5 1.5) (thickness 0.3) bold) (justify left bottom mirror))
  )
  (gr_text "DIN" (at 85.4 72.4 90) (layer "B.SilkS") (tstamp c039a45d-b9d8-4453-8d0d-9b117c847aa2)
    (effects (font (size 1.5 1.5) (thickness 0.3) bold) (justify left bottom mirror))
  )
  (gr_text "DOUT" (at 81.788 94.488) (layer "B.SilkS") (tstamp f1a59142-acb3-42da-a8d1-00c0c6245db9)
    (effects (font (size 1 1) (thickness 0.15)) (justify left bottom mirror))
  )
  (gr_text "GND" (at 90.4 72.3 90) (layer "B.SilkS") (tstamp f1eb4c34-323d-447c-b206-b28993e98489)
    (effects (font (size 1.5 1.5) (thickness 0.3) bold) (justify left bottom mirror))
  )

  (segment (start 79.248 72.644) (end 79.442 72.838) (width 0.5) (layer "F.Cu") (net 1) (tstamp 0d6969d6-c2c5-4761-82a1-d31c48ddc4d5))
  (segment (start 70.931332 86.171332) (end 70.104 85.344) (width 0.5) (layer "F.Cu") (net 1) (tstamp 0db83bdb-724d-42bf-8d9f-29590f518ddf))
  (segment (start 80.138 92.838) (end 81.718 92.838) (width 0.5) (layer "F.Cu") (net 1) (tstamp 1261c314-5f65-45a8-a071-39c4143e5482))
  (segment (start 84.328 77.724) (end 84.328 78.232) (width 0.5) (layer "F.Cu") (net 1) (tstamp 14876345-ccfc-43f4-bf4e-b3f16a73616a))
  (segment (start 73.800666 80.404666) (end 80.818 80.404666) (width 0.5) (layer "F.Cu") (net 1) (tstamp 1b71f223-8a21-4620-8db4-29947f411162))
  (segment (start 81.718 73.082) (end 84.328 75.692) (width 0.5) (layer "F.Cu") (net 1) (tstamp 1e4cda56-03dc-484d-9ced-7967d800856d))
  (segment (start 79.442 72.838) (end 81.718 72.838) (width 0.5) (layer "F.Cu") (net 1) (tstamp 24e46695-6b5e-4318-aa90-27a33ce7088f))
  (segment (start 81.718 72.838) (end 81.718 73.082) (width 0.5) (layer "F.Cu") (net 1) (tstamp 25b04e9e-4e73-4d90-b73d-54f76d3ee833))
  (segment (start 83.055334 79.504666) (end 81.718 79.504666) (width 0.5) (layer "F.Cu") (net 1) (tstamp 26c8339c-7674-470e-898d-d361a27b7dcc))
  (segment (start 87.376 77.724) (end 89.156666 79.504666) (width 0.5) (layer "F.Cu") (net 1) (tstamp 30ce7bbc-95b6-4540-a215-a47adbdd975a))
  (segment (start 81.718 86.171332) (end 79.944668 86.171332) (width 0.5) (layer "F.Cu") (net 1) (tstamp 38c5b6b3-3a3d-4cf4-ba18-64fc65be8e74))
  (segment (start 70.104 90.932) (end 78.232 90.932) (width 0.5) (layer "F.Cu") (net 1) (tstamp 3c1b7589-c010-4a3b-a797-c55f0fead9aa))
  (segment (start 70.104 79.756) (end 70.104 85.344) (width 0.5) (layer "F.Cu") (net 1) (tstamp 3e0f7bab-4b92-43bf-b27d-01a20332647d))
  (segment (start 70.355334 79.504666) (end 70.104 79.756) (width 0.5) (layer "F.Cu") (net 1) (tstamp 3f551d26-b41b-4ce0-b29e-50aaaff3d99d))
  (segment (start 84.328 75.692) (end 84.328 77.724) (width 0.5) (layer "F.Cu") (net 1) (tstamp 49cbccf8-671f-4caa-801a-f77445c564f4))
  (segment (start 70.104 85.344) (end 70.104 90.932) (width 0.5) (layer "F.Cu") (net 1) (tstamp 4c3fc442-d207-454c-9131-2b1f86bc35d8))
  (segment (start 82.861332 85.028) (end 81.718 86.171332) (width 0.5) (layer "F.Cu") (net 1) (tstamp 4ca9501f-9d60-4977-a862-6e7baf7c0d10))
  (segment (start 78.232 90.932) (end 80.138 92.838) (width 0.5) (layer "F.Cu") (net 1) (tstamp 53698583-ed1a-471b-9c55-a17ee071fdfd))
  (segment (start 79.044668 87.071332) (end 72.618 87.071332) (width 0.5) (layer "F.Cu") (net 1) (tstamp 59f67a40-663a-403b-9be6-402d41e43d07))
  (segment (start 89.727332 86.171332) (end 88.584 85.028) (width 0.5) (layer "F.Cu") (net 1) (tstamp 613ff815-9dcb-4a9f-91e0-4a6cab8cebe3))
  (segment (start 89.156666 79.504666) (end 91.718 79.504666) (width 0.5) (layer "F.Cu") (net 1) (tstamp 6cc4b68a-5b17-4346-b455-38e093fa153d))
  (segment (start 84.328 78.232) (end 83.055334 79.504666) (width 0.5) (layer "F.Cu") (net 1) (tstamp 6ff8f3d9-b329-4fae-81ad-7ae3165f05da))
  (segment (start 71.718 79.504666) (end 70.355334 79.504666) (width 0.5) (layer "F.Cu") (net 1) (tstamp 75667aa3-94f2-4fe5-b9da-0b71e8014a67))
  (segment (start 79.944668 86.171332) (end 79.044668 87.071332) (width 0.5) (layer "F.Cu") (net 1) (tstamp b0704e81-63bc-49e8-b1f9-1edc672c7f83))
  (segment (start 79.278 69.596) (end 79.278 72.614) (width 0.5) (layer "F.Cu") (net 1) (tstamp b4d920e2-a315-4a9b-aa03-158a6f1dee94))
  (segment (start 84.328 77.724) (end 87.376 77.724) (width 0.5) (layer "F.Cu") (net 1) (tstamp b6184677-445d-4142-9892-9ef713aa3b07))
  (segment (start 91.718 86.171332) (end 89.727332 86.171332) (width 0.5) (layer "F.Cu") (net 1) (tstamp b9aa61b8-c22d-4220-9fde-1444b2dd8b1d))
  (segment (start 72.900666 79.504666) (end 73.800666 80.404666) (width 0.5) (layer "F.Cu") (net 1) (tstamp c53108af-f121-49af-9a57-9801825149d2))
  (segment (start 72.618 87.071332) (end 71.718 86.171332) (width 0.5) (layer "F.Cu") (net 1) (tstamp c83eab81-3037-4708-a44b-f98131b08526))
  (segment (start 71.718 86.171332) (end 70.931332 86.171332) (width 0.5) (layer "F.Cu") (net 1) (tstamp d12afbba-73a4-474a-9956-ab81e2e30792))
  (segment (start 80.818 80.404666) (end 81.718 79.504666) (width 0.5) (layer "F.Cu") (net 1) (tstamp d5206e81-938f-4cff-8c9c-92b2bff0bedc))
  (segment (start 88.584 85.028) (end 82.861332 85.028) (width 0.5) (layer "F.Cu") (net 1) (tstamp e58cc633-66be-4d52-9f1e-6cf0549efdbe))
  (segment (start 71.718 79.504666) (end 72.900666 79.504666) (width 0.5) (layer "F.Cu") (net 1) (tstamp e83c7a5c-026d-460e-87a0-511d4972eac4))
  (segment (start 79.278 72.614) (end 79.248 72.644) (width 0.5) (layer "F.Cu") (net 1) (tstamp f66df9c7-441f-4ff4-89b8-12bc0d69ce79))
  (segment (start 81.718 76.138) (end 80.326 76.138) (width 0.5) (layer "F.Cu") (net 2) (tstamp 29f98898-19b6-423b-a2a8-3af92c39832f))
  (segment (start 77.975334 79.504666) (end 76.618 79.504666) (width 0.5) (layer "F.Cu") (net 2) (tstamp 31b374f1-eb1e-4172-be7d-b6fd7f7fa742))
  (segment (start 80.326 76.138) (end 78.74 77.724) (width 0.5) (layer "F.Cu") (net 2) (tstamp 523e497f-d61c-47ff-8f5c-df5052442786))
  (segment (start 78.74 78.74) (end 77.975334 79.504666) (width 0.5) (layer "F.Cu") (net 2) (tstamp 75eb0bbd-22f2-4aaa-9897-801749757cb5))
  (segment (start 78.74 77.724) (end 78.74 78.74) (width 0.5) (layer "F.Cu") (net 2) (tstamp 7944f572-da5a-4ea3-befc-9569f478aab7))
  (segment (start 88.899334 82.804666) (end 88.9 82.804) (width 0.5) (layer "F.Cu") (net 3) (tstamp 12f0f4d7-190e-4d06-b591-7f04655ca301))
  (segment (start 89.5 93.75) (end 89.5 94.888) (width 0.5) (layer "F.Cu") (net 3) (tstamp 193cd3b6-3e8e-4fae-95ca-8b73d7737efc))
  (segment (start 86.618 96.138) (end 88.25 96.138) (width 0.5) (layer "F.Cu") (net 3) (tstamp 1c0d7617-6156-42d5-b71b-49b4b47c92cb))
  (segment (start 96.618 82.804666) (end 93.980666 82.804666) (width 0.5) (layer "F.Cu") (net 3) (tstamp 3a6fde8d-3d33-400e-80b0-ce8f343e675d))
  (segment (start 96.618 89.471332) (end 94.043332 89.471332) (width 0.5) (layer "F.Cu") (net 3) (tstamp 52fcf405-ad5b-470d-970d-01a105d5961d))
  (segment (start 89.5 94.888) (end 88.25 96.138) (width 0.5) (layer "F.Cu") (net 3) (tstamp 79cb2b0b-b8f5-43af-87bd-0d80e8cd2fd2))
  (segment (start 76.618 82.804666) (end 79.247334 82.804666) (width 0.5) (layer "F.Cu") (net 3) (tstamp 7f586f95-38de-4c38-9c8c-c987689c2b4a))
  (segment (start 79.184668 89.471332) (end 79.248 89.408) (width 0.5) (layer "F.Cu") (net 3) (tstamp 9d02bef3-d448-4c0a-b0bb-1b33084e159a))
  (segment (start 86.618 82.804666) (end 88.899334 82.804666) (width 0.5) (layer "F.Cu") (net 3) (tstamp a0fc95e4-8b77-4a78-a7c4-2a156c929d5d))
  (segment (start 86.618 89.471332) (end 87.820668 89.471332) (width 0.5) (layer "F.Cu") (net 3) (tstamp cda575c5-900a-477f-bf6f-c526fed4e070))
  (segment (start 94.043332 89.471332) (end 93.98 89.408) (width 0.5) (layer "F.Cu") (net 3) (tstamp cfe5bbb9-52e9-467b-b5bb-26e2afa2bb8a))
  (segment (start 93.980666 82.804666) (end 93.98 82.804) (width 0.5) (layer "F.Cu") (net 3) (tstamp d0140e63-df91-48b3-a83c-d3e4f4307d9a))
  (segment (start 89.378 69.596) (end 89.378 74.706) (width 0.5) (layer "F.Cu") (net 3) (tstamp dc094363-56b2-4d17-a7d5-8c7bb28a5365))
  (segment (start 79.247334 82.804666) (end 79.248 82.804) (width 0.5) (layer "F.Cu") (net 3) (tstamp de7771a1-3888-4a1f-98ab-b1ece44af71d))
  (segment (start 87.820668 89.471332) (end 88.392 88.9) (width 0.5) (layer "F.Cu") (net 3) (tstamp f2a30fba-dcbc-47fd-88fa-5074c46f9836))
  (segment (start 76.618 89.471332) (end 79.184668 89.471332) (width 0.5) (layer "F.Cu") (net 3) (tstamp f460411d-3673-4a9e-a44f-ba0acf297e42))
  (segment (start 87.946 76.138) (end 86.618 76.138) (width 0.5) (layer "F.Cu") (net 3) (tstamp f4790843-1f83-41f7-bfd8-490a7744eee6))
  (segment (start 89.378 74.706) (end 87.946 76.138) (width 0.5) (layer "F.Cu") (net 3) (tstamp f87168db-3f41-4f68-a0bf-6f805cab466f))
  (via (at 93.98 82.804) (size 0.8) (drill 0.4) (layers "F.Cu" "B.Cu") (net 3) (tstamp 4e821640-c58d-4e11-ab29-a1aad994d472))
  (via (at 79.248 89.408) (size 0.8) (drill 0.4) (layers "F.Cu" "B.Cu") (net 3) (tstamp 5cbd5b42-4d24-4895-b4d5-47f0733cd9c0))
  (via (at 88.392 88.9) (size 0.8) (drill 0.4) (layers "F.Cu" "B.Cu") (net 3) (tstamp 6e641441-8245-40d1-ac6d-ff5d2e4f5502))
  (via (at 93.98 89.408) (size 0.8) (drill 0.4) (layers "F.Cu" "B.Cu") (net 3) (tstamp 7767c8e8-c9c4-4f0c-b8c4-3c938d123b3b))
  (via (at 79.248 82.804) (size 0.8) (drill 0.4) (layers "F.Cu" "B.Cu") (net 3) (tstamp b13d6ac9-a74d-46f8-bdc3-86f1eacb00c8))
  (via (at 89.5 93.75) (size 0.8) (drill 0.4) (layers "F.Cu" "B.Cu") (net 3) (tstamp c8f271a9-a366-45b2-9917-030dc428e3a7))
  (via (at 88.9 82.804) (size 0.8) (drill 0.4) (layers "F.Cu" "B.Cu") (net 3) (tstamp e279b1e3-158a-4f98-9299-621783fa9881))
  (segment (start 84.328 72.136) (end 85.03 72.838) (width 0.5) (layer "F.Cu") (net 4) (tstamp 10b24aa3-25bf-4234-b514-c1054d2b5483))
  (segment (start 84.328 69.596) (end 84.328 72.136) (width 0.5) (layer "F.Cu") (net 4) (tstamp a08d7ed4-beea-4feb-a5c9-3faabc0647aa))
  (segment (start 85.03 72.838) (end 86.618 72.838) (width 0.5) (layer "F.Cu") (net 4) (tstamp ef236b87-3f4f-4820-9b37-1965ef03462d))
  (segment (start 71.718 82.804666) (end 71.718 82.714) (width 0.5) (layer "F.Cu") (net 5) (tstamp 6fda62ce-a3ef-42cf-b06f-427837afbf45))
  (segment (start 71.718 82.714) (end 73.152 81.28) (width 0.5) (layer "F.Cu") (net 5) (tstamp 882b680c-d65c-4814-b168-b832b6f74016))
  (segment (start 73.152 81.28) (end 84.842666 81.28) (width 0.5) (layer "F.Cu") (net 5) (tstamp 9cf4abfc-f856-4e2b-b240-82103b0d4db5))
  (segment (start 84.842666 81.28) (end 86.618 79.504666) (width 0.5) (layer "F.Cu") (net 5) (tstamp cde1eb4e-9c31-43ac-a592-904c9fc8c8dc))
  (segment (start 81.718 82.804666) (end 84.518 82.804666) (width 0.5) (layer "F.Cu") (net 6) (tstamp 5b8f9295-502a-41f6-89a4-96b6590b33fa))
  (segment (start 94.842666 81.28) (end 96.618 79.504666) (width 0.5) (layer "F.Cu") (net 6) (tstamp 6be913ff-7894-4e88-afa8-9ebd3383bfb6))
  (segment (start 84.518 82.804666) (end 86.042666 81.28) (width 0.5) (layer "F.Cu") (net 6) (tstamp bb49fedd-c304-41ec-ad43-63b4ac18c317))
  (segment (start 86.042666 81.28) (end 94.842666 81.28) (width 0.5) (layer "F.Cu") (net 6) (tstamp e20a9879-3583-4774-9de9-99bb5707e211))
  (segment (start 90.194666 84.328) (end 78.461332 84.328) (width 0.5) (layer "F.Cu") (net 7) (tstamp 6dc88be8-4807-4dcf-97cd-c53683a1bb36))
  (segment (start 78.461332 84.328) (end 76.618 86.171332) (width 0.5) (layer "F.Cu") (net 7) (tstamp 8c20b8ad-eae9-409a-95ca-aa9cc452aa0a))
  (segment (start 91.718 82.804666) (end 90.194666 84.328) (width 0.5) (layer "F.Cu") (net 7) (tstamp b7d000e0-3634-4afb-864c-510f49312650))
  (segment (start 72.580668 89.471332) (end 74.168 87.884) (width 0.5) (layer "F.Cu") (net 8) (tstamp 2bd07ce7-1605-4104-9597-6d30b01304b0))
  (segment (start 74.168 87.884) (end 82.804 87.884) (width 0.5) (layer "F.Cu") (net 8) (tstamp 4451e391-690d-4252-8382-b8960abca667))
  (segment (start 71.718 89.471332) (end 72.580668 89.471332) (width 0.5) (layer "F.Cu") (net 8) (tstamp 71eafed0-2b94-46a3-bdaa-6f97201833b2))
  (segment (start 84.516668 86.171332) (end 86.618 86.171332) (width 0.5) (layer "F.Cu") (net 8) (tstamp 729b07e6-c94b-42b2-b1dc-b9aafa9569c9))
  (segment (start 82.804 87.884) (end 84.516668 86.171332) (width 0.5) (layer "F.Cu") (net 8) (tstamp 98bf7dc8-cad1-4737-b26d-b5082aba5169))
  (segment (start 85.344 87.884) (end 94.488 87.884) (width 0.5) (layer "F.Cu") (net 9) (tstamp 5c687f8b-ea45-4f8c-b4ff-81a30106922a))
  (segment (start 94.488 87.884) (end 96.200668 86.171332) (width 0.5) (layer "F.Cu") (net 9) (tstamp 5e77cb4c-25a7-4450-b0ab-62d05ee17833))
  (segment (start 83.756668 89.471332) (end 85.344 87.884) (width 0.5) (layer "F.Cu") (net 9) (tstamp a4a579c1-d1f0-444e-94c3-d87f077d4bf8))
  (segment (start 81.718 89.471332) (end 83.756668 89.471332) (width 0.5) (layer "F.Cu") (net 9) (tstamp f63d74c2-e04e-4efa-a714-fc574bdbaff0))
  (segment (start 96.200668 86.171332) (end 96.618 86.171332) (width 0.5) (layer "F.Cu") (net 9) (tstamp fe02d79e-552f-4f73-af43-650b0ed1b01a))
  (segment (start 89.852668 89.471332) (end 88.9 90.424) (width 0.5) (layer "F.Cu") (net 10) (tstamp 00740703-dca9-46c0-a1fc-b56e11aeb038))
  (segment (start 88.9 90.424) (end 88.9 91.948) (width 0.5) (layer "F.Cu") (net 10) (tstamp 0fd022ef-97cc-44a4-90f1-beaa43abf838))
  (segment (start 88.9 91.948) (end 88.01 92.838) (width 0.5) (layer "F.Cu") (net 10) (tstamp 195c5490-e2af-49c3-810d-e093c77adfa2))
  (segment (start 91.718 89.471332) (end 89.852668 89.471332) (width 0.5) (layer "F.Cu") (net 10) (tstamp 50086fd4-7316-41bf-a26a-a69e33ac1054))
  (segment (start 88.01 92.838) (end 86.618 92.838) (width 0.5) (layer "F.Cu") (net 10) (tstamp be96e3fe-6fc6-4593-82dc-284f97b9c87f))
  (segment (start 81.718 96.138) (end 78.866 96.138) (width 0.5) (layer "F.Cu") (net 11) (tstamp 066befd5-cfe1-47b1-999d-b90a7c3ac0e8))
  (segment (start 78.866 96.138) (end 78.74 96.012) (width 0.5) (layer "F.Cu") (net 11) (tstamp dee0f707-21d9-4ed4-8650-83280936e0e4))

  (zone (net 3) (net_name "GND") (layer "B.Cu") (tstamp 99118f9a-3dee-4071-a9bb-b75b544b1c37) (hatch edge 0.5)
    (connect_pads (clearance 0.5))
    (min_thickness 0.25) (filled_areas_thickness no)
    (fill yes (thermal_gap 0.5) (thermal_bridge_width 0.5))
    (polygon
      (pts
        (xy 77.216 73.12)
        (xy 72.596 73)
        (xy 72.596 95.544)
        (xy 95.544 95.794)
        (xy 95.544 73.12)
        (xy 91.44 73.12)
        (xy 91.44 67.564)
        (xy 77.216 67.564)
      )
    )
    (filled_polygon
      (layer "B.Cu")
      (pts
        (xy 91.383039 67.583685)
        (xy 91.428794 67.636489)
        (xy 91.44 67.688)
        (xy 91.44 72.77551)
        (xy 91.424528 72.835491)
        (xy 91.279905 73.097168)
        (xy 91.142339 73.429281)
        (xy 91.042828 73.774694)
        (xy 91.042826 73.774703)
        (xy 90.982614 74.129085)
        (xy 90.982612 74.129097)
        (xy 90.962457 74.487999)
        (xy 90.982612 74.846902)
        (xy 90.982614 74.846914)
        (xy 91.042826 75.201296)
        (xy 91.042828 75.201305)
        (xy 91.12888 75.5)
        (xy 91.142341 75.546724)
        (xy 91.279906 75.878833)
        (xy 91.453789 76.193452)
        (xy 91.661806 76.486623)
        (xy 91.901339 76.754661)
        (xy 92.169377 76.994194)
        (xy 92.462548 77.202211)
        (xy 92.777167 77.376094)
        (xy 93.109276 77.513659)
        (xy 93.4547 77.613173)
        (xy 93.809093 77.673387)
        (xy 94.168 77.693543)
        (xy 94.526907 77.673387)
        (xy 94.8813 77.613173)
        (xy 95.226724 77.513659)
        (xy 95.372549 77.453255)
        (xy 95.442016 77.445787)
        (xy 95.504495 77.477062)
        (xy 95.540148 77.53715)
        (xy 95.544 77.567817)
        (xy 95.544 91.408182)
        (xy 95.524315 91.475221)
        (xy 95.471511 91.520976)
        (xy 95.402353 91.53092)
        (xy 95.372548 91.522743)
        (xy 95.286689 91.487179)
        (xy 95.226724 91.462341)
        (xy 95.22672 91.462339)
        (xy 95.226718 91.462339)
        (xy 94.881305 91.362828)
        (xy 94.881296 91.362826)
        (xy 94.526914 91.302614)
        (xy 94.526902 91.302612)
        (xy 94.168 91.282457)
        (xy 93.809097 91.302612)
        (xy 93.809085 91.302614)
        (xy 93.454703 91.362826)
        (xy 93.454694 91.362828)
        (xy 93.109281 91.462339)
        (xy 92.777168 91.599905)
        (xy 92.462545 91.77379)
        (xy 92.169377 91.981805)
        (xy 91.901339 92.221339)
        (xy 91.661805 92.489377)
        (xy 91.45379 92.782545)
        (xy 91.279905 93.097168)
        (xy 91.142339 93.429281)
        (xy 91.042828 93.774694)
        (xy 91.042826 93.774703)
        (xy 90.982614 94.129085)
        (xy 90.982612 94.129097)
        (xy 90.962457 94.488)
        (xy 90.982612 94.846902)
        (xy 90.982614 94.846914)
        (xy 91.042826 95.201296)
        (xy 91.042828 95.201305)
        (xy 91.142338 95.546718)
        (xy 91.153416 95.573462)
        (xy 91.160883 95.642931)
        (xy 91.129607 95.70541)
        (xy 91.069518 95.741061)
        (xy 91.037503 95.744905)
        (xy 77.342959 95.595714)
        (xy 77.276138 95.5753)
        (xy 77.230961 95.522001)
        (xy 77.221772 95.452738)
        (xy 77.225156 95.437394)
        (xy 77.253735 95.338194)
        (xy 77.293173 95.2013)
        (xy 77.353387 94.846907)
        (xy 77.373543 94.488)
        (xy 77.353387 94.129093)
        (xy 77.293173 93.7747)
        (xy 77.193659 93.429276)
        (xy 77.056094 93.097167)
        (xy 76.882211 92.782548)
        (xy 76.674194 92.489377)
        (xy 76.434661 92.221339)
        (xy 76.166623 91.981806)
        (xy 76.166622 91.981805)
        (xy 75.873454 91.77379)
        (xy 75.558831 91.599905)
        (xy 75.472086 91.563974)
        (xy 75.226724 91.462341)
        (xy 75.22672 91.462339)
        (xy 75.226718 91.462339)
        (xy 74.881305 91.362828)
        (xy 74.881296 91.362826)
        (xy 74.526914 91.302614)
        (xy 74.526902 91.302612)
        (xy 74.193994 91.283916)
        (xy 74.168 91.282457)
        (xy 74.167999 91.282457)
        (xy 73.809097 91.302612)
        (xy 73.809085 91.302614)
        (xy 73.454703 91.362826)
        (xy 73.454694 91.362828)
        (xy 73.109281 91.462339)
        (xy 72.777167 91.599905)
        (xy 72.774033 91.601415)
        (xy 72.773304 91.599902)
        (xy 72.71151 91.613531)
        (xy 72.645976 91.589303)
        (xy 72.603943 91.53349)
        (xy 72.596 91.489822)
        (xy 72.596 77.486176)
        (xy 72.615685 77.419137)
        (xy 72.668489 77.373382)
        (xy 72.737647 77.363438)
        (xy 72.773596 77.375526)
        (xy 72.773884 77.374928)
        (xy 72.773953 77.374763)
        (xy 72.773962 77.374766)
        (xy 72.774047 77.374591)
        (xy 72.777154 77.376086)
        (xy 72.777167 77.376094)
        (xy 73.109276 77.513659)
        (xy 73.4547 77.613173)
        (xy 73.809093 77.673387)
        (xy 74.168 77.693543)
        (xy 74.526907 77.673387)
        (xy 74.8813 77.613173)
        (xy 75.226724 77.513659)
        (xy 75.558833 77.376094)
        (xy 75.873452 77.202211)
        (xy 76.166623 76.994194)
        (xy 76.434661 76.754661)
        (xy 76.674194 76.486623)
        (xy 76.882211 76.193452)
        (xy 77.056094 75.878833)
        (xy 77.193659 75.546724)
        (xy 77.293173 75.2013)
        (xy 77.353387 74.846907)
        (xy 77.373543 74.488)
        (xy 77.353387 74.129093)
        (xy 77.293173 73.7747)
        (xy 77.193659 73.429276)
        (xy 77.136969 73.292417)
        (xy 77.129501 73.222949)
        (xy 77.160776 73.160469)
        (xy 77.195784 73.139697)
        (xy 77.216 73.12)
        (xy 77.216 69.596005)
        (xy 77.772357 69.596005)
        (xy 77.79289 69.843812)
        (xy 77.792892 69.843824)
        (xy 77.853936 70.084881)
        (xy 77.953826 70.312606)
        (xy 78.089833 70.520782)
        (xy 78.089836 70.520785)
        (xy 78.258256 70.703738)
        (xy 78.454491 70.856474)
        (xy 78.454493 70.856475)
        (xy 78.672332 70.974364)
        (xy 78.67319 70.974828)
        (xy 78.888281 71.048669)
        (xy 78.906964 71.055083)
        (xy 78.908386 71.055571)
        (xy 79.153665 71.0965)
        (xy 79.402335 71.0965)
        (xy 79.647614 71.055571)
        (xy 79.88281 70.974828)
        (xy 80.101509 70.856474)
        (xy 80.297744 70.703738)
        (xy 80.466164 70.520785)
        (xy 80.602173 70.312607)
        (xy 80.702063 70.084881)
        (xy 80.763108 69.843821)
        (xy 80.783643 69.596005)
        (xy 82.822357 69.596005)
        (xy 82.84289 69.843812)
        (xy 82.842892 69.843824)
        (xy 82.903936 70.084881)
        (xy 83.003826 70.312606)
        (xy 83.139833 70.520782)
        (xy 83.139836 70.520785)
        (xy 83.308256 70.703738)
        (xy 83.504491 70.856474)
        (xy 83.504493 70.856475)
        (xy 83.722332 70.974364)
        (xy 83.72319 70.974828)
        (xy 83.938281 71.048669)
        (xy 83.956964 71.055083)
        (xy 83.958386 71.055571)
        (xy 84.203665 71.0965)
        (xy 84.452335 71.0965)
        (xy 84.697614 71.055571)
        (xy 84.93281 70.974828)
        (xy 85.151509 70.856474)
        (xy 85.347744 70.703738)
        (xy 85.516164 70.520785)
        (xy 85.652173 70.312607)
        (xy 85.752063 70.084881)
        (xy 85.813108 69.843821)
        (xy 85.833643 69.596005)
        (xy 87.872858 69.596005)
        (xy 87.893385 69.843729)
        (xy 87.893387 69.843738)
        (xy 87.954412 70.084717)
        (xy 88.054266 70.312364)
        (xy 88.154564 70.465882)
        (xy 88.894923 69.725523)
        (xy 88.918507 69.805844)
        (xy 88.996239 69.926798)
        (xy 89.1049 70.020952)
        (xy 89.235685 70.08068)
        (xy 89.245466 70.082086)
        (xy 88.507942 70.819609)
        (xy 88.554768 70.856055)
        (xy 88.55477 70.856056)
        (xy 88.773385 70.974364)
        (xy 88.773396 70.974369)
        (xy 89.008506 71.055083)
        (xy 89.253707 71.096)
        (xy 89.502293 71.096)
        (xy 89.747493 71.055083)
        (xy 89.982603 70.974369)
        (xy 89.982614 70.974364)
        (xy 90.201228 70.856057)
        (xy 90.201231 70.856055)
        (xy 90.248056 70.819609)
        (xy 89.510533 70.082086)
        (xy 89.520315 70.08068)
        (xy 89.6511 70.020952)
        (xy 89.759761 69.926798)
        (xy 89.837493 69.805844)
        (xy 89.861076 69.725524)
        (xy 90.601434 70.465882)
        (xy 90.701731 70.312369)
        (xy 90.801587 70.084717)
        (xy 90.862612 69.843738)
        (xy 90.862614 69.843729)
        (xy 90.883141 69.596005)
        (xy 90.883141 69.595994)
        (xy 90.862614 69.34827)
        (xy 90.862612 69.348261)
        (xy 90.801587 69.107282)
        (xy 90.701731 68.87963)
        (xy 90.601434 68.726116)
        (xy 89.861076 69.466475)
        (xy 89.837493 69.386156)
        (xy 89.759761 69.265202)
        (xy 89.6511 69.171048)
        (xy 89.520315 69.11132)
        (xy 89.510534 69.109913)
        (xy 90.248057 68.37239)
        (xy 90.248056 68.372389)
        (xy 90.201229 68.335943)
        (xy 89.982614 68.217635)
        (xy 89.982603 68.21763)
        (xy 89.747493 68.136916)
        (xy 89.502293 68.096)
        (xy 89.253707 68.096)
        (xy 89.008506 68.136916)
        (xy 88.773396 68.21763)
        (xy 88.77339 68.217632)
        (xy 88.554761 68.335949)
        (xy 88.507942 68.372388)
        (xy 88.507942 68.37239)
        (xy 89.245466 69.109913)
        (xy 89.235685 69.11132)
        (xy 89.1049 69.171048)
        (xy 88.996239 69.265202)
        (xy 88.918507 69.386156)
        (xy 88.894923 69.466475)
        (xy 88.154564 68.726116)
        (xy 88.054267 68.879632)
        (xy 87.954412 69.107282)
        (xy 87.893387 69.348261)
        (xy 87.893385 69.34827)
        (xy 87.872858 69.595994)
        (xy 87.872858 69.596005)
        (xy 85.833643 69.596005)
        (xy 85.833643 69.596)
        (xy 85.827686 69.524111)
        (xy 85.813109 69.348187)
        (xy 85.813107 69.348175)
        (xy 85.752063 69.107118)
        (xy 85.652173 68.879393)
        (xy 85.516166 68.671217)
        (xy 85.494557 68.647744)
        (xy 85.347744 68.488262)
        (xy 85.151509 68.335526)
        (xy 85.151507 68.335525)
        (xy 85.151506 68.335524)
        (xy 84.932811 68.217172)
        (xy 84.932802 68.217169)
        (xy 84.697616 68.136429)
        (xy 84.452335 68.0955)
        (xy 84.203665 68.0955)
        (xy 83.958383 68.136429)
        (xy 83.723197 68.217169)
        (xy 83.723188 68.217172)
        (xy 83.504493 68.335524)
        (xy 83.308257 68.488261)
        (xy 83.139833 68.671217)
        (xy 83.003826 68.879393)
        (xy 82.903936 69.107118)
        (xy 82.842892 69.348175)
        (xy 82.84289 69.348187)
        (xy 82.822357 69.595994)
        (xy 82.822357 69.596005)
        (xy 80.783643 69.596005)
        (xy 80.783643 69.596)
        (xy 80.777686 69.524111)
        (xy 80.763109 69.348187)
        (xy 80.763107 69.348175)
        (xy 80.702063 69.107118)
        (xy 80.602173 68.879393)
        (xy 80.466166 68.671217)
        (xy 80.444557 68.647744)
        (xy 80.297744 68.488262)
        (xy 80.101509 68.335526)
        (xy 80.101507 68.335525)
        (xy 80.101506 68.335524)
        (xy 79.882811 68.217172)
        (xy 79.882802 68.217169)
        (xy 79.647616 68.136429)
        (xy 79.402335 68.0955)
        (xy 79.153665 68.0955)
        (xy 78.908383 68.136429)
        (xy 78.673197 68.217169)
        (xy 78.673188 68.217172)
        (xy 78.454493 68.335524)
        (xy 78.258257 68.488261)
        (xy 78.089833 68.671217)
        (xy 77.953826 68.879393)
        (xy 77.853936 69.107118)
        (xy 77.792892 69.348175)
        (xy 77.79289 69.348187)
        (xy 77.772357 69.595994)
        (xy 77.772357 69.596005)
        (xy 77.216 69.596005)
        (xy 77.216 67.688)
        (xy 77.235685 67.620961)
        (xy 77.288489 67.575206)
        (xy 77.34 67.564)
        (xy 91.316 67.564)
      )
    )
  )
)
