<?xml version="1.0" standalone="no"?>
 <!DOCTYPE svg PUBLIC "-//W3C//DTD SVG 1.1//EN" 
 "http://www.w3.org/Graphics/SVG/1.1/DTD/svg11.dtd"> 
<svg
  xmlns:svg="http://www.w3.org/2000/svg"
  xmlns="http://www.w3.org/2000/svg"
  xmlns:xlink="http://www.w3.org/1999/xlink"
  version="1.1"
  width="297.0022mm" height="210.0072mm" viewBox="0.0000 0.0000 297.0022 210.0072">
<title>SVG Image created as attiny84_holder-F_Cu.svg date 2024/03/17 21:43:40 </title>
  <desc>Image generated by PCBNEW </desc>
<g style="fill:#000000; fill-opacity:1.0000;stroke:#000000; stroke-opacity:1.0000;
stroke-linecap:round; stroke-linejoin:round;"
 transform="translate(0 0) scale(1 1)">
<path style="fill:#000000; fill-opacity:1.0000; stroke:none;fill-rule:evenodd;"
d="M 190.2022,59.1250
190.1832,59.0293
190.1290,58.9482
190.0479,58.8940
189.9522,58.8750
189.1522,58.8750
189.0565,58.8940
188.9754,58.9482
188.9212,59.0293
188.9022,59.1250
188.9022,60.3750
188.9212,60.4707
188.9754,60.5518
189.0565,60.6060
189.1522,60.6250
189.9522,60.6250
190.0479,60.6060
190.1290,60.5518
190.1832,60.4707
190.2022,60.3750
Z" /> 
<path style="fill:#000000; fill-opacity:1.0000; stroke:none;fill-rule:evenodd;"
d="M 187.1022,59.1250
187.0832,59.0293
187.0290,58.9482
186.9479,58.8940
186.8522,58.8750
186.0522,58.8750
185.9565,58.8940
185.8754,58.9482
185.8212,59.0293
185.8022,59.1250
185.8022,60.3750
185.8212,60.4707
185.8754,60.5518
185.9565,60.6060
186.0522,60.6250
186.8522,60.6250
186.9479,60.6060
187.0290,60.5518
187.0832,60.4707
187.1022,60.3750
Z" /> 
</g>
<g style="fill:none; 
stroke:#000000; stroke-width:1.7000; stroke-opacity:1; 
stroke-linecap:round; stroke-linejoin:round;">
<path d="M198.2260 64.8000
L197.6260 64.8000
" />
<path d="M198.2260 62.2600
L197.6260 62.2600
" />
<path d="M198.2260 59.7200
L197.6260 59.7200
" />
<path d="M198.2260 57.1800
L197.6260 57.1800
" />
<path d="M198.2260 54.6400
L197.6260 54.6400
" />
<path d="M198.2260 52.1000
L197.6260 52.1000
" />
<path d="M203.2260 64.8000
L202.6260 64.8000
" />
<path d="M203.2260 62.2600
L202.6260 62.2600
" />
<path d="M203.2260 59.7200
L202.6260 59.7200
" />
<path d="M203.2260 57.1800
L202.6260 57.1800
" />
<path d="M203.2260 54.6400
L202.6260 54.6400
" />
<path d="M203.2260 52.1000
L202.6260 52.1000
" />
<path d="M190.5772 77.3250
L190.5772 77.9250
" />
<path d="M188.0372 77.3250
L188.0372 77.9250
" />
<path d="M190.5772 74.7850
L190.5772 75.3850
" />
<path d="M188.0372 74.7850
L188.0372 75.3850
" />
<path d="M190.5772 72.2450
L190.5772 72.8450
" />
<path d="M188.0372 72.2450
L188.0372 72.8450
" />
<path d="M174.1260 52.1000
L174.7260 52.1000
" />
<path d="M174.1260 54.6400
L174.7260 54.6400
" />
<path d="M174.1260 57.1800
L174.7260 57.1800
" />
<path d="M174.1260 59.7200
L174.7260 59.7200
" />
<path d="M174.1260 62.2600
L174.7260 62.2600
" />
<path d="M174.1260 64.8000
L174.7260 64.8000
" />
<path d="M174.1260 67.3400
L174.7260 67.3400
" />
<path d="M179.1260 52.1000
L179.7260 52.1000
" />
<path d="M179.1260 54.6400
L179.7260 54.6400
" />
<path d="M179.1260 57.1800
L179.7260 57.1800
" />
<path d="M179.1260 59.7200
L179.7260 59.7200
" />
<path d="M179.1260 62.2600
L179.7260 62.2600
" />
<path d="M179.1260 64.8000
L179.7260 64.8000
" />
<path d="M179.1260 67.3400
L179.7260 67.3400
" />
</g>
<g style="fill:none; 
stroke:#000000; stroke-width:1.0000; stroke-opacity:1; 
stroke-linecap:round; stroke-linejoin:round;">
<path d="M202.9260 52.1000
L197.9260 52.1000
" />
</g>
<g style="fill:none; 
stroke:#000000; stroke-width:0.8000; stroke-opacity:1; 
stroke-linecap:round; stroke-linejoin:round;">
<path d="M190.5772 72.5450
L190.5772 61.7000
" />
<path d="M189.5522 59.7500
L189.5522 60.6750
" />
<path d="M189.5522 60.6750
L190.5772 61.7000
" />
<path d="M179.4560 59.7500
L179.4260 59.7200
" />
<path d="M186.4522 59.7500
L179.4560 59.7500
" />
<path d="M188.0372 72.5450
L188.0372 55.8650
" />
<path d="M191.8022 52.1000
L197.9260 52.1000
" />
<path d="M188.0372 55.8650
L191.8022 52.1000
" />
<path d="M190.5772 77.6250
L195.3022 72.9000
" />
<path d="M202.9260 64.8000
L197.9260 64.8000
" />
<path d="M195.3022 72.9000
L195.3022 65.7000
" />
<path d="M195.3022 65.7000
L196.2022 64.8000
" />
<path d="M196.2022 64.8000
L197.9260 64.8000
" />
<path d="M193.4022 72.2600
L190.5772 75.0850
" />
<path d="M202.9260 62.2600
L197.9260 62.2600
" />
<path d="M193.4022 63.7500
L193.4022 72.2600
" />
<path d="M194.8922 62.2600
L193.4022 63.7500
" />
<path d="M197.9260 62.2600
L194.8922 62.2600
" />
<path d="M188.0372 75.0850
L186.9872 75.0850
" />
<path d="M179.4260 67.3400
L174.4260 67.3400
" />
<path d="M184.9022 69.3000
L182.9422 67.3400
" />
<path d="M186.9872 75.0850
L184.9022 73.0000
" />
<path d="M182.9422 67.3400
L179.4260 67.3400
" />
<path d="M184.9022 73.0000
L184.9022 69.3000
" />
<path d="M171.8022 52.1000
L171.7022 52.2000
" />
<path d="M171.7022 69.5000
L172.6022 70.4000
" />
<path d="M174.4260 52.1000
L179.4260 52.1000
" />
<path d="M174.4260 52.1000
L171.8022 52.1000
" />
<path d="M182.7022 74.0000
L186.3272 77.6250
" />
<path d="M182.7022 71.2500
L182.7022 74.0000
" />
<path d="M181.8522 70.4000
L182.7022 71.2500
" />
<path d="M186.3272 77.6250
L188.0372 77.6250
" />
<path d="M172.6022 70.4000
L181.8522 70.4000
" />
<path d="M171.7022 52.2000
L171.7022 69.5000
" />
<path d="M179.4260 54.6400
L174.4260 54.6400
" />
<path d="M179.4260 57.1800
L174.4260 57.1800
" />
<path d="M179.4260 62.2600
L174.4260 62.2600
" />
<path d="M179.4260 64.8000
L174.4260 64.8000
" />
<path d="M202.9260 59.7200
L197.9260 59.7200
" />
<path d="M202.9260 57.1800
L197.9260 57.1800
" />
<path d="M202.9260 54.6400
L197.9260 54.6400
" />
<path d="M179.4260 59.7200
L174.4260 59.7200
" />
</g>
<g style="fill:#FFFFFF; fill-opacity:1.0000; stroke:none;">
<circle cx="197.9260" cy="64.8000" r="0.5000" /> 
</g>
<g style="fill:#FFFFFF; fill-opacity:1.0000; stroke:none;">
<circle cx="197.9260" cy="62.2600" r="0.5000" /> 
</g>
<g style="fill:#FFFFFF; fill-opacity:1.0000; stroke:none;">
<circle cx="197.9260" cy="59.7200" r="0.5000" /> 
</g>
<g style="fill:#FFFFFF; fill-opacity:1.0000; stroke:none;">
<circle cx="197.9260" cy="57.1800" r="0.5000" /> 
</g>
<g style="fill:#FFFFFF; fill-opacity:1.0000; stroke:none;">
<circle cx="197.9260" cy="54.6400" r="0.5000" /> 
</g>
<g style="fill:#FFFFFF; fill-opacity:1.0000; stroke:none;">
<circle cx="197.9260" cy="52.1000" r="0.5000" /> 
</g>
<g style="fill:#FFFFFF; fill-opacity:1.0000; stroke:none;">
<circle cx="202.9260" cy="64.8000" r="0.5000" /> 
</g>
<g style="fill:#FFFFFF; fill-opacity:1.0000; stroke:none;">
<circle cx="202.9260" cy="62.2600" r="0.5000" /> 
</g>
<g style="fill:#FFFFFF; fill-opacity:1.0000; stroke:none;">
<circle cx="202.9260" cy="59.7200" r="0.5000" /> 
</g>
<g style="fill:#FFFFFF; fill-opacity:1.0000; stroke:none;">
<circle cx="202.9260" cy="57.1800" r="0.5000" /> 
</g>
<g style="fill:#FFFFFF; fill-opacity:1.0000; stroke:none;">
<circle cx="202.9260" cy="54.6400" r="0.5000" /> 
</g>
<g style="fill:#FFFFFF; fill-opacity:1.0000; stroke:none;">
<circle cx="202.9260" cy="52.1000" r="0.5000" /> 
</g>
<g style="fill:#FFFFFF; fill-opacity:1.0000; stroke:none;">
<circle cx="190.5772" cy="77.6250" r="0.5000" /> 
</g>
<g style="fill:#FFFFFF; fill-opacity:1.0000; stroke:none;">
<circle cx="188.0372" cy="77.6250" r="0.5000" /> 
</g>
<g style="fill:#FFFFFF; fill-opacity:1.0000; stroke:none;">
<circle cx="190.5772" cy="75.0850" r="0.5000" /> 
</g>
<g style="fill:#FFFFFF; fill-opacity:1.0000; stroke:none;">
<circle cx="188.0372" cy="75.0850" r="0.5000" /> 
</g>
<g style="fill:#FFFFFF; fill-opacity:1.0000; stroke:none;">
<circle cx="190.5772" cy="72.5450" r="0.5000" /> 
</g>
<g style="fill:#FFFFFF; fill-opacity:1.0000; stroke:none;">
<circle cx="188.0372" cy="72.5450" r="0.5000" /> 
</g>
<g style="fill:#FFFFFF; fill-opacity:1.0000; stroke:none;">
<circle cx="174.4260" cy="52.1000" r="0.5000" /> 
</g>
<g style="fill:#FFFFFF; fill-opacity:1.0000; stroke:none;">
<circle cx="174.4260" cy="54.6400" r="0.5000" /> 
</g>
<g style="fill:#FFFFFF; fill-opacity:1.0000; stroke:none;">
<circle cx="174.4260" cy="57.1800" r="0.5000" /> 
</g>
<g style="fill:#FFFFFF; fill-opacity:1.0000; stroke:none;">
<circle cx="174.4260" cy="59.7200" r="0.5000" /> 
</g>
<g style="fill:#FFFFFF; fill-opacity:1.0000; stroke:none;">
<circle cx="174.4260" cy="62.2600" r="0.5000" /> 
</g>
<g style="fill:#FFFFFF; fill-opacity:1.0000; stroke:none;">
<circle cx="174.4260" cy="64.8000" r="0.5000" /> 
</g>
<g style="fill:#FFFFFF; fill-opacity:1.0000; stroke:none;">
<circle cx="174.4260" cy="67.3400" r="0.5000" /> 
</g>
<g style="fill:#FFFFFF; fill-opacity:1.0000; stroke:none;">
<circle cx="179.4260" cy="52.1000" r="0.5000" /> 
</g>
<g style="fill:#FFFFFF; fill-opacity:1.0000; stroke:none;">
<circle cx="179.4260" cy="54.6400" r="0.5000" /> 
</g>
<g style="fill:#FFFFFF; fill-opacity:1.0000; stroke:none;">
<circle cx="179.4260" cy="57.1800" r="0.5000" /> 
</g>
<g style="fill:#FFFFFF; fill-opacity:1.0000; stroke:none;">
<circle cx="179.4260" cy="59.7200" r="0.5000" /> 
</g>
<g style="fill:#FFFFFF; fill-opacity:1.0000; stroke:none;">
<circle cx="179.4260" cy="62.2600" r="0.5000" /> 
</g>
<g style="fill:#FFFFFF; fill-opacity:1.0000; stroke:none;">
<circle cx="179.4260" cy="64.8000" r="0.5000" /> 
</g>
<g style="fill:#FFFFFF; fill-opacity:1.0000; stroke:none;">
<circle cx="179.4260" cy="67.3400" r="0.5000" /> 
</g>
<g style="fill:none; 
stroke:#000000; stroke-width:0.1000; stroke-opacity:1; 
stroke-linecap:round; stroke-linejoin:round;">
<path d="M203.6022 69.9000 A4.0000 4.0000 0.0 0 0 207.6022 65.9000" />
<path d="M181.3022 76.0000
L181.3022 78.5000
" />
<path d="M181.3022 78.5000 A4.0000 4.0000 0.0 0 0 185.3022 82.5000" />
<path d="M201.9022 69.9000
L203.6022 69.9000
" />
<path d="M185.3022 82.5000
L193.9022 82.5000
" />
<path d="M207.6022 53.4000 A4.0000 4.0000 0.0 0 0 203.6022 49.4000" />
<path d="M174.0022 49.4000
L203.6022 49.4000
" />
<path d="M170.0022 53.4000
L170.0306 68.0716
" />
<path d="M193.9022 82.5000 A4.0000 4.0000 0.0 0 0 197.9022 78.5000" />
<path d="M207.6022 65.9000
L207.6022 53.4000
" />
<path d="M170.0306 68.0716 A4.0000 4.0000 0.0 0 0 174.0306 72.0716" />
<path d="M197.9022 78.5000
L197.9022 73.9000
" />
<path d="M201.9022 69.9000 A4.0000 4.0000 0.0 0 0 197.9022 73.9000" />
<path d="M174.0022 49.4000 A4.0000 4.0000 0.0 0 0 170.0022 53.4000" />
<path d="M174.0306 72.0716
L177.3022 72.0000
" />
<path d="M181.3022 76.0000 A4.0000 4.0000 0.0 0 0 177.3022 72.0000" />
</g> 
</svg>
