G04 #@! TF.GenerationSoftware,KiCad,Pcbnew,(7.0.0-0)*
G04 #@! TF.CreationDate,2023-05-24T21:18:02+02:00*
G04 #@! TF.ProjectId,attiny84_breakout,61747469-6e79-4383-945f-627265616b6f,rev?*
G04 #@! TF.SameCoordinates,PX6cd0720PY58c97e0*
G04 #@! TF.FileFunction,Soldermask,Top*
G04 #@! TF.FilePolarity,Negative*
%FSLAX46Y46*%
G04 Gerber Fmt 4.6, Leading zero omitted, Abs format (unit mm)*
G04 Created by KiCad (PCBNEW (7.0.0-0)) date 2023-05-24 21:18:02*
%MOMM*%
%LPD*%
G01*
G04 APERTURE LIST*
G04 Aperture macros list*
%AMRoundRect*
0 Rectangle with rounded corners*
0 $1 Rounding radius*
0 $2 $3 $4 $5 $6 $7 $8 $9 X,Y pos of 4 corners*
0 Add a 4 corners polygon primitive as box body*
4,1,4,$2,$3,$4,$5,$6,$7,$8,$9,$2,$3,0*
0 Add four circle primitives for the rounded corners*
1,1,$1+$1,$2,$3*
1,1,$1+$1,$4,$5*
1,1,$1+$1,$6,$7*
1,1,$1+$1,$8,$9*
0 Add four rect primitives between the rounded corners*
20,1,$1+$1,$2,$3,$4,$5,0*
20,1,$1+$1,$4,$5,$6,$7,0*
20,1,$1+$1,$6,$7,$8,$9,0*
20,1,$1+$1,$8,$9,$2,$3,0*%
G04 Aperture macros list end*
%ADD10RoundRect,0.250000X-0.312500X-0.625000X0.312500X-0.625000X0.312500X0.625000X-0.312500X0.625000X0*%
%ADD11RoundRect,0.150000X-0.825000X-0.150000X0.825000X-0.150000X0.825000X0.150000X-0.825000X0.150000X0*%
%ADD12RoundRect,0.250000X-0.375000X-0.625000X0.375000X-0.625000X0.375000X0.625000X-0.375000X0.625000X0*%
%ADD13RoundRect,0.250000X0.325000X0.650000X-0.325000X0.650000X-0.325000X-0.650000X0.325000X-0.650000X0*%
%ADD14O,2.300000X1.700000*%
G04 APERTURE END LIST*
D10*
G04 #@! TO.C,R1*
X14837500Y15230000D03*
X17762500Y15230000D03*
G04 #@! TD*
D11*
G04 #@! TO.C,U1*
X13950000Y9400000D03*
X13950000Y8130000D03*
X13950000Y6860000D03*
X13950000Y5590000D03*
X13950000Y4320000D03*
X13950000Y3050000D03*
X13950000Y1780000D03*
X18900000Y1780000D03*
X18900000Y3050000D03*
X18900000Y4320000D03*
X18900000Y5590000D03*
X18900000Y6860000D03*
X18900000Y8130000D03*
X18900000Y9400000D03*
G04 #@! TD*
D12*
G04 #@! TO.C,D1*
X14900000Y18430000D03*
X17700000Y18430000D03*
G04 #@! TD*
D13*
G04 #@! TO.C,C1*
X17775000Y12030000D03*
X14825000Y12030000D03*
G04 #@! TD*
D14*
G04 #@! TO.C,J2*
X7199999Y17739999D03*
X7199999Y15199999D03*
X7199999Y12659999D03*
X7199999Y10119999D03*
X7199999Y7579999D03*
X7199999Y5039999D03*
X7199999Y2499999D03*
G04 #@! TD*
G04 #@! TO.C,J3*
X25699999Y5039999D03*
X25699999Y7579999D03*
X25699999Y10119999D03*
X25699999Y12659999D03*
X25699999Y15199999D03*
X25699999Y17739999D03*
G04 #@! TD*
M02*
