G04 #@! TF.GenerationSoftware,KiCad,Pcbnew,8.0.1*
G04 #@! TF.CreationDate,2024-03-17T21:52:43+01:00*
G04 #@! TF.ProjectId,attiny84_holder,61747469-6e79-4383-945f-686f6c646572,rev?*
G04 #@! TF.SameCoordinates,PX507d780PY4e95300*
G04 #@! TF.FileFunction,Profile,NP*
%FSLAX46Y46*%
G04 Gerber Fmt 4.6, Leading zero omitted, Abs format (unit mm)*
G04 Created by KiCad (PCBNEW 8.0.1) date 2024-03-17 21:52:43*
%MOMM*%
%LPD*%
G01*
G04 APERTURE LIST*
G04 #@! TA.AperFunction,Profile*
%ADD10C,0.100000*%
G04 #@! TD*
G04 APERTURE END LIST*
D10*
X9000000Y12500000D02*
G75*
G02*
X5000000Y16500000I0J4000000D01*
G01*
X31300000Y6400000D02*
X31300000Y3900000D01*
X31300000Y3900000D02*
G75*
G02*
X27300000Y-100000I-4000000J0D01*
G01*
X10700000Y12500000D02*
X9000000Y12500000D01*
X27300000Y-100000D02*
X18700000Y-100000D01*
X5000000Y29000000D02*
G75*
G02*
X9000000Y33000000I4000000J0D01*
G01*
X38600000Y33000000D02*
X9000000Y33000000D01*
X42600000Y29000000D02*
X42571573Y14328427D01*
X18700000Y-100000D02*
G75*
G02*
X14700000Y3900000I0J4000000D01*
G01*
X5000000Y16500000D02*
X5000000Y29000000D01*
X42571573Y14328427D02*
G75*
G02*
X38571573Y10328427I-3999973J-27D01*
G01*
X14700000Y3900000D02*
X14700000Y8500000D01*
X10700000Y12500000D02*
G75*
G02*
X14700000Y8500000I0J-4000000D01*
G01*
X38600000Y33000000D02*
G75*
G02*
X42600000Y29000000I0J-4000000D01*
G01*
X38571573Y10328427D02*
X35300000Y10400000D01*
X31300000Y6400000D02*
G75*
G02*
X35300000Y10400000I4000000J0D01*
G01*
M02*
