G04 #@! TF.GenerationSoftware,KiCad,Pcbnew,(7.0.0-0)*
G04 #@! TF.CreationDate,2023-06-03T22:35:08+02:00*
G04 #@! TF.ProjectId,attiny84_holder,61747469-6e79-4383-945f-686f6c646572,rev?*
G04 #@! TF.SameCoordinates,PX507d780PY2f1c8c0*
G04 #@! TF.FileFunction,Other,User*
%FSLAX46Y46*%
G04 Gerber Fmt 4.6, Leading zero omitted, Abs format (unit mm)*
G04 Created by KiCad (PCBNEW (7.0.0-0)) date 2023-06-03 22:35:08*
%MOMM*%
%LPD*%
G01*
G04 APERTURE LIST*
%ADD10C,0.150000*%
G04 APERTURE END LIST*
D10*
X24376190Y-20102857D02*
X25900000Y-20102857D01*
X25476190Y-31202857D02*
X27000000Y-31202857D01*
X26238095Y-31964761D02*
X26238095Y-30440952D01*
X22376190Y-3364761D02*
X22376190Y-1364761D01*
X23233333Y-3269523D02*
X23519047Y-3364761D01*
X23519047Y-3364761D02*
X23995238Y-3364761D01*
X23995238Y-3364761D02*
X24185714Y-3269523D01*
X24185714Y-3269523D02*
X24280952Y-3174285D01*
X24280952Y-3174285D02*
X24376190Y-2983809D01*
X24376190Y-2983809D02*
X24376190Y-2793333D01*
X24376190Y-2793333D02*
X24280952Y-2602857D01*
X24280952Y-2602857D02*
X24185714Y-2507619D01*
X24185714Y-2507619D02*
X23995238Y-2412380D01*
X23995238Y-2412380D02*
X23614285Y-2317142D01*
X23614285Y-2317142D02*
X23423809Y-2221904D01*
X23423809Y-2221904D02*
X23328571Y-2126666D01*
X23328571Y-2126666D02*
X23233333Y-1936190D01*
X23233333Y-1936190D02*
X23233333Y-1745714D01*
X23233333Y-1745714D02*
X23328571Y-1555238D01*
X23328571Y-1555238D02*
X23423809Y-1460000D01*
X23423809Y-1460000D02*
X23614285Y-1364761D01*
X23614285Y-1364761D02*
X24090476Y-1364761D01*
X24090476Y-1364761D02*
X24376190Y-1460000D01*
X25233333Y-3364761D02*
X25233333Y-1364761D01*
X25233333Y-1364761D02*
X25995238Y-1364761D01*
X25995238Y-1364761D02*
X26185714Y-1460000D01*
X26185714Y-1460000D02*
X26280952Y-1555238D01*
X26280952Y-1555238D02*
X26376190Y-1745714D01*
X26376190Y-1745714D02*
X26376190Y-2031428D01*
X26376190Y-2031428D02*
X26280952Y-2221904D01*
X26280952Y-2221904D02*
X26185714Y-2317142D01*
X26185714Y-2317142D02*
X25995238Y-2412380D01*
X25995238Y-2412380D02*
X25233333Y-2412380D01*
M02*
