M48
; DRILL file {KiCad 9.0.0} date 2025-02-27T20:40:08+0100
; FORMAT={-:-/ absolute / metric / decimal}
; #@! TF.CreationDate,2025-02-27T20:40:08+01:00
; #@! TF.GenerationSoftware,Kicad,Pcbnew,9.0.0
; #@! TF.FileFunction,MixedPlating,1,2
FMAT,2
METRIC
; #@! TA.AperFunction,Plated,PTH,ComponentDrill
T1C1.000
%
G90
G05
T1
X2.974Y26.974
X2.974Y24.434
X2.974Y21.894
X2.974Y19.354
X2.974Y16.814
X2.974Y14.274
X2.974Y11.734
X2.974Y9.194
X2.974Y6.654
X20.754Y26.974
X20.754Y24.434
X20.754Y21.894
X20.754Y19.354
X20.754Y16.814
X20.754Y14.274
X20.754Y11.734
X20.754Y9.194
X20.754Y6.654
X20.754Y4.114
M30
