<?xml version="1.0" standalone="no"?>
 <!DOCTYPE svg PUBLIC "-//W3C//DTD SVG 1.1//EN" 
 "http://www.w3.org/Graphics/SVG/1.1/DTD/svg11.dtd"> 
<svg
  xmlns:svg="http://www.w3.org/2000/svg"
  xmlns="http://www.w3.org/2000/svg"
  xmlns:xlink="http://www.w3.org/1999/xlink"
  version="1.1"
  width="297.0022mm" height="210.0072mm" viewBox="0.0000 0.0000 297.0022 210.0072">
<title>SVG Image created as stm8_breakout-F_Cu.svg date 2024/03/29 19:42:10 </title>
  <desc>Image generated by PCBNEW </desc>
<g style="fill:#000000; fill-opacity:1.0000;stroke:#000000; stroke-opacity:1.0000;
stroke-linecap:round; stroke-linejoin:round;"
 transform="translate(0 0) scale(1 1)">
<path style="fill:#000000; fill-opacity:1.0000; stroke:none;fill-rule:evenodd;"
d="M 216.4512,64.8710
216.5469,64.8520
216.6280,64.7978
216.6822,64.7167
216.7012,64.6210
216.7012,63.9460
216.6822,63.8503
216.6280,63.7692
216.5469,63.7150
216.4512,63.6960
215.5012,63.6960
215.4055,63.7150
215.3244,63.7692
215.2702,63.8503
215.2512,63.9460
215.2512,64.6210
215.2702,64.7167
215.3244,64.7978
215.4055,64.8520
215.5012,64.8710
Z" /> 
<path style="fill:#000000; fill-opacity:1.0000; stroke:none;fill-rule:evenodd;"
d="M 216.4512,62.7960
216.5469,62.7770
216.6280,62.7228
216.6822,62.6417
216.7012,62.5460
216.7012,61.8710
216.6822,61.7753
216.6280,61.6942
216.5469,61.6400
216.4512,61.6210
215.5012,61.6210
215.4055,61.6400
215.3244,61.6942
215.2702,61.7753
215.2512,61.8710
215.2512,62.5460
215.2702,62.6417
215.3244,62.7228
215.4055,62.7770
215.5012,62.7960
Z" /> 
<path style="fill:#000000; fill-opacity:1.0000; stroke:none;fill-rule:evenodd;"
d="M 212.1052,65.1500
212.0862,65.0543
212.0320,64.9732
211.9509,64.9190
211.8552,64.9000
211.0302,64.9000
210.9345,64.9190
210.8534,64.9732
210.7992,65.0543
210.7802,65.1500
210.7802,66.4500
210.7992,66.5457
210.8534,66.6268
210.9345,66.6810
211.0302,66.7000
211.8552,66.7000
211.9509,66.6810
212.0320,66.6268
212.0862,66.5457
212.1052,66.4500
Z" /> 
<path style="fill:#000000; fill-opacity:1.0000; stroke:none;fill-rule:evenodd;"
d="M 208.9802,65.1500
208.9612,65.0543
208.9070,64.9732
208.8259,64.9190
208.7302,64.9000
207.9052,64.9000
207.8095,64.9190
207.7284,64.9732
207.6742,65.0543
207.6552,65.1500
207.6552,66.4500
207.6742,66.5457
207.7284,66.6268
207.8095,66.6810
207.9052,66.7000
208.7302,66.7000
208.8259,66.6810
208.9070,66.6268
208.9612,66.5457
208.9802,66.4500
Z" /> 
<path style="fill:#000000; fill-opacity:1.0000; stroke:none;fill-rule:evenodd;"
d="M 213.2262,57.1730
213.2186,57.1347
213.1969,57.1023
213.1645,57.0806
213.1262,57.0730
211.8512,57.0730
211.8129,57.0806
211.7805,57.1023
211.7588,57.1347
211.7512,57.1730
211.7512,57.3730
211.7588,57.4113
211.7805,57.4437
211.8129,57.4654
211.8512,57.4730
213.1262,57.4730
213.1645,57.4654
213.1969,57.4437
213.2186,57.4113
213.2262,57.3730
Z" /> 
<path style="fill:#000000; fill-opacity:1.0000; stroke:none;fill-rule:evenodd;"
d="M 213.2262,57.8230
213.2186,57.7847
213.1969,57.7523
213.1645,57.7306
213.1262,57.7230
211.8512,57.7230
211.8129,57.7306
211.7805,57.7523
211.7588,57.7847
211.7512,57.8230
211.7512,58.0230
211.7588,58.0613
211.7805,58.0937
211.8129,58.1154
211.8512,58.1230
213.1262,58.1230
213.1645,58.1154
213.1969,58.0937
213.2186,58.0613
213.2262,58.0230
Z" /> 
<path style="fill:#000000; fill-opacity:1.0000; stroke:none;fill-rule:evenodd;"
d="M 213.2262,58.4730
213.2186,58.4347
213.1969,58.4023
213.1645,58.3806
213.1262,58.3730
211.8512,58.3730
211.8129,58.3806
211.7805,58.4023
211.7588,58.4347
211.7512,58.4730
211.7512,58.6730
211.7588,58.7113
211.7805,58.7437
211.8129,58.7654
211.8512,58.7730
213.1262,58.7730
213.1645,58.7654
213.1969,58.7437
213.2186,58.7113
213.2262,58.6730
Z" /> 
<path style="fill:#000000; fill-opacity:1.0000; stroke:none;fill-rule:evenodd;"
d="M 213.2262,59.1230
213.2186,59.0847
213.1969,59.0523
213.1645,59.0306
213.1262,59.0230
211.8512,59.0230
211.8129,59.0306
211.7805,59.0523
211.7588,59.0847
211.7512,59.1230
211.7512,59.3230
211.7588,59.3613
211.7805,59.3937
211.8129,59.4154
211.8512,59.4230
213.1262,59.4230
213.1645,59.4154
213.1969,59.3937
213.2186,59.3613
213.2262,59.3230
Z" /> 
<path style="fill:#000000; fill-opacity:1.0000; stroke:none;fill-rule:evenodd;"
d="M 213.2262,59.7730
213.2186,59.7347
213.1969,59.7023
213.1645,59.6806
213.1262,59.6730
211.8512,59.6730
211.8129,59.6806
211.7805,59.7023
211.7588,59.7347
211.7512,59.7730
211.7512,59.9730
211.7588,60.0113
211.7805,60.0437
211.8129,60.0654
211.8512,60.0730
213.1262,60.0730
213.1645,60.0654
213.1969,60.0437
213.2186,60.0113
213.2262,59.9730
Z" /> 
<path style="fill:#000000; fill-opacity:1.0000; stroke:none;fill-rule:evenodd;"
d="M 213.2262,60.4230
213.2186,60.3847
213.1969,60.3523
213.1645,60.3306
213.1262,60.3230
211.8512,60.3230
211.8129,60.3306
211.7805,60.3523
211.7588,60.3847
211.7512,60.4230
211.7512,60.6230
211.7588,60.6613
211.7805,60.6937
211.8129,60.7154
211.8512,60.7230
213.1262,60.7230
213.1645,60.7154
213.1969,60.6937
213.2186,60.6613
213.2262,60.6230
Z" /> 
<path style="fill:#000000; fill-opacity:1.0000; stroke:none;fill-rule:evenodd;"
d="M 213.2262,61.0730
213.2186,61.0347
213.1969,61.0023
213.1645,60.9806
213.1262,60.9730
211.8512,60.9730
211.8129,60.9806
211.7805,61.0023
211.7588,61.0347
211.7512,61.0730
211.7512,61.2730
211.7588,61.3113
211.7805,61.3437
211.8129,61.3654
211.8512,61.3730
213.1262,61.3730
213.1645,61.3654
213.1969,61.3437
213.2186,61.3113
213.2262,61.2730
Z" /> 
<path style="fill:#000000; fill-opacity:1.0000; stroke:none;fill-rule:evenodd;"
d="M 213.2262,61.7230
213.2186,61.6847
213.1969,61.6523
213.1645,61.6306
213.1262,61.6230
211.8512,61.6230
211.8129,61.6306
211.7805,61.6523
211.7588,61.6847
211.7512,61.7230
211.7512,61.9230
211.7588,61.9613
211.7805,61.9937
211.8129,62.0154
211.8512,62.0230
213.1262,62.0230
213.1645,62.0154
213.1969,61.9937
213.2186,61.9613
213.2262,61.9230
Z" /> 
<path style="fill:#000000; fill-opacity:1.0000; stroke:none;fill-rule:evenodd;"
d="M 213.2262,62.3730
213.2186,62.3347
213.1969,62.3023
213.1645,62.2806
213.1262,62.2730
211.8512,62.2730
211.8129,62.2806
211.7805,62.3023
211.7588,62.3347
211.7512,62.3730
211.7512,62.5730
211.7588,62.6113
211.7805,62.6437
211.8129,62.6654
211.8512,62.6730
213.1262,62.6730
213.1645,62.6654
213.1969,62.6437
213.2186,62.6113
213.2262,62.5730
Z" /> 
<path style="fill:#000000; fill-opacity:1.0000; stroke:none;fill-rule:evenodd;"
d="M 213.2262,63.0230
213.2186,62.9847
213.1969,62.9523
213.1645,62.9306
213.1262,62.9230
211.8512,62.9230
211.8129,62.9306
211.7805,62.9523
211.7588,62.9847
211.7512,63.0230
211.7512,63.2230
211.7588,63.2613
211.7805,63.2937
211.8129,63.3154
211.8512,63.3230
213.1262,63.3230
213.1645,63.3154
213.1969,63.2937
213.2186,63.2613
213.2262,63.2230
Z" /> 
<path style="fill:#000000; fill-opacity:1.0000; stroke:none;fill-rule:evenodd;"
d="M 207.5012,63.0230
207.4936,62.9847
207.4719,62.9523
207.4395,62.9306
207.4012,62.9230
206.1262,62.9230
206.0879,62.9306
206.0555,62.9523
206.0338,62.9847
206.0262,63.0230
206.0262,63.2230
206.0338,63.2613
206.0555,63.2937
206.0879,63.3154
206.1262,63.3230
207.4012,63.3230
207.4395,63.3154
207.4719,63.2937
207.4936,63.2613
207.5012,63.2230
Z" /> 
<path style="fill:#000000; fill-opacity:1.0000; stroke:none;fill-rule:evenodd;"
d="M 207.5012,62.3730
207.4936,62.3347
207.4719,62.3023
207.4395,62.2806
207.4012,62.2730
206.1262,62.2730
206.0879,62.2806
206.0555,62.3023
206.0338,62.3347
206.0262,62.3730
206.0262,62.5730
206.0338,62.6113
206.0555,62.6437
206.0879,62.6654
206.1262,62.6730
207.4012,62.6730
207.4395,62.6654
207.4719,62.6437
207.4936,62.6113
207.5012,62.5730
Z" /> 
<path style="fill:#000000; fill-opacity:1.0000; stroke:none;fill-rule:evenodd;"
d="M 207.5012,61.7230
207.4936,61.6847
207.4719,61.6523
207.4395,61.6306
207.4012,61.6230
206.1262,61.6230
206.0879,61.6306
206.0555,61.6523
206.0338,61.6847
206.0262,61.7230
206.0262,61.9230
206.0338,61.9613
206.0555,61.9937
206.0879,62.0154
206.1262,62.0230
207.4012,62.0230
207.4395,62.0154
207.4719,61.9937
207.4936,61.9613
207.5012,61.9230
Z" /> 
<path style="fill:#000000; fill-opacity:1.0000; stroke:none;fill-rule:evenodd;"
d="M 207.5012,61.0730
207.4936,61.0347
207.4719,61.0023
207.4395,60.9806
207.4012,60.9730
206.1262,60.9730
206.0879,60.9806
206.0555,61.0023
206.0338,61.0347
206.0262,61.0730
206.0262,61.2730
206.0338,61.3113
206.0555,61.3437
206.0879,61.3654
206.1262,61.3730
207.4012,61.3730
207.4395,61.3654
207.4719,61.3437
207.4936,61.3113
207.5012,61.2730
Z" /> 
<path style="fill:#000000; fill-opacity:1.0000; stroke:none;fill-rule:evenodd;"
d="M 207.5012,60.4230
207.4936,60.3847
207.4719,60.3523
207.4395,60.3306
207.4012,60.3230
206.1262,60.3230
206.0879,60.3306
206.0555,60.3523
206.0338,60.3847
206.0262,60.4230
206.0262,60.6230
206.0338,60.6613
206.0555,60.6937
206.0879,60.7154
206.1262,60.7230
207.4012,60.7230
207.4395,60.7154
207.4719,60.6937
207.4936,60.6613
207.5012,60.6230
Z" /> 
<path style="fill:#000000; fill-opacity:1.0000; stroke:none;fill-rule:evenodd;"
d="M 207.5012,59.7730
207.4936,59.7347
207.4719,59.7023
207.4395,59.6806
207.4012,59.6730
206.1262,59.6730
206.0879,59.6806
206.0555,59.7023
206.0338,59.7347
206.0262,59.7730
206.0262,59.9730
206.0338,60.0113
206.0555,60.0437
206.0879,60.0654
206.1262,60.0730
207.4012,60.0730
207.4395,60.0654
207.4719,60.0437
207.4936,60.0113
207.5012,59.9730
Z" /> 
<path style="fill:#000000; fill-opacity:1.0000; stroke:none;fill-rule:evenodd;"
d="M 207.5012,59.1230
207.4936,59.0847
207.4719,59.0523
207.4395,59.0306
207.4012,59.0230
206.1262,59.0230
206.0879,59.0306
206.0555,59.0523
206.0338,59.0847
206.0262,59.1230
206.0262,59.3230
206.0338,59.3613
206.0555,59.3937
206.0879,59.4154
206.1262,59.4230
207.4012,59.4230
207.4395,59.4154
207.4719,59.3937
207.4936,59.3613
207.5012,59.3230
Z" /> 
<path style="fill:#000000; fill-opacity:1.0000; stroke:none;fill-rule:evenodd;"
d="M 207.5012,58.4730
207.4936,58.4347
207.4719,58.4023
207.4395,58.3806
207.4012,58.3730
206.1262,58.3730
206.0879,58.3806
206.0555,58.4023
206.0338,58.4347
206.0262,58.4730
206.0262,58.6730
206.0338,58.7113
206.0555,58.7437
206.0879,58.7654
206.1262,58.7730
207.4012,58.7730
207.4395,58.7654
207.4719,58.7437
207.4936,58.7113
207.5012,58.6730
Z" /> 
<path style="fill:#000000; fill-opacity:1.0000; stroke:none;fill-rule:evenodd;"
d="M 207.5012,57.8230
207.4936,57.7847
207.4719,57.7523
207.4395,57.7306
207.4012,57.7230
206.1262,57.7230
206.0879,57.7306
206.0555,57.7523
206.0338,57.7847
206.0262,57.8230
206.0262,58.0230
206.0338,58.0613
206.0555,58.0937
206.0879,58.1154
206.1262,58.1230
207.4012,58.1230
207.4395,58.1154
207.4719,58.0937
207.4936,58.0613
207.5012,58.0230
Z" /> 
<path style="fill:#000000; fill-opacity:1.0000; stroke:none;fill-rule:evenodd;"
d="M 207.5012,57.1730
207.4936,57.1347
207.4719,57.1023
207.4395,57.0806
207.4012,57.0730
206.1262,57.0730
206.0879,57.0806
206.0555,57.1023
206.0338,57.1347
206.0262,57.1730
206.0262,57.3730
206.0338,57.4113
206.0555,57.4437
206.0879,57.4654
206.1262,57.4730
207.4012,57.4730
207.4395,57.4654
207.4719,57.4437
207.4936,57.4113
207.5012,57.3730
Z" /> 
<path style="fill:#000000; fill-opacity:1.0000; stroke:none;fill-rule:evenodd;"
d="M 212.0577,71.0750
212.0387,70.9793
211.9845,70.8982
211.9034,70.8440
211.8077,70.8250
210.8827,70.8250
210.7870,70.8440
210.7059,70.8982
210.6517,70.9793
210.6327,71.0750
210.6327,72.3250
210.6517,72.4207
210.7059,72.5018
210.7870,72.5560
210.8827,72.5750
211.8077,72.5750
211.9034,72.5560
211.9845,72.5018
212.0387,72.4207
212.0577,72.3250
Z" /> 
<path style="fill:#000000; fill-opacity:1.0000; stroke:none;fill-rule:evenodd;"
d="M 209.0827,71.0750
209.0637,70.9793
209.0095,70.8982
208.9284,70.8440
208.8327,70.8250
207.9077,70.8250
207.8120,70.8440
207.7309,70.8982
207.6767,70.9793
207.6577,71.0750
207.6577,72.3250
207.6767,72.4207
207.7309,72.5018
207.8120,72.5560
207.9077,72.5750
208.8327,72.5750
208.9284,72.5560
209.0095,72.5018
209.0637,72.4207
209.0827,72.3250
Z" /> 
<path style="fill:#000000; fill-opacity:1.0000; stroke:none;fill-rule:evenodd;"
d="M 214.8281,51.7187
214.8134,51.6174
214.7620,51.5124
214.6794,51.4298
214.5744,51.3784
214.4731,51.3637
213.4331,51.3637
213.3318,51.3784
213.2268,51.4298
213.1442,51.5124
213.0929,51.6174
213.0781,51.7187
213.0781,52.4287
213.0929,52.5300
213.1442,52.6350
213.2268,52.7176
213.3318,52.7689
213.4331,52.7837
214.4731,52.7837
214.5744,52.7689
214.6794,52.7176
214.7620,52.6350
214.8134,52.5300
214.8281,52.4287
Z" /> 
<path style="fill:#000000; fill-opacity:1.0000; stroke:none;fill-rule:evenodd;"
d="M 206.8960,51.7024
206.8812,51.6011
206.8299,51.4961
206.7473,51.4134
206.6423,51.3621
206.5410,51.3474
205.5010,51.3474
205.3997,51.3621
205.2947,51.4134
205.2121,51.4961
205.1608,51.6011
205.1460,51.7024
205.1460,52.4124
205.1608,52.5137
205.2121,52.6186
205.2947,52.7013
205.3997,52.7526
205.5010,52.7674
206.5410,52.7674
206.6423,52.7526
206.7473,52.7013
206.8299,52.6186
206.8812,52.5137
206.8960,52.4124
Z" /> 
<path style="fill:#000000; fill-opacity:1.0000; stroke:none;fill-rule:evenodd;"
d="M 211.4802,68.2500
211.4612,68.1543
211.4070,68.0732
211.3259,68.0190
211.2302,68.0000
210.5302,68.0000
210.4345,68.0190
210.3534,68.0732
210.2992,68.1543
210.2802,68.2500
210.2802,69.1500
210.2992,69.2457
210.3534,69.3268
210.4345,69.3810
210.5302,69.4000
211.2302,69.4000
211.3259,69.3810
211.4070,69.3268
211.4612,69.2457
211.4802,69.1500
Z" /> 
<path style="fill:#000000; fill-opacity:1.0000; stroke:none;fill-rule:evenodd;"
d="M 209.4802,68.2500
209.4612,68.1543
209.4070,68.0732
209.3259,68.0190
209.2302,68.0000
208.5302,68.0000
208.4345,68.0190
208.3534,68.0732
208.2992,68.1543
208.2802,68.2500
208.2802,69.1500
208.2992,69.2457
208.3534,69.3268
208.4345,69.3810
208.5302,69.4000
209.2302,69.4000
209.3259,69.3810
209.4070,69.3268
209.4612,69.2457
209.4802,69.1500
Z" /> 
<path style="fill:#000000; fill-opacity:1.0000; stroke:none;fill-rule:evenodd;"
d="M 208.5092,48.6750
208.5282,48.7707
208.5824,48.8518
208.6635,48.9060
208.7592,48.9250
209.4342,48.9250
209.5299,48.9060
209.6110,48.8518
209.6652,48.7707
209.6842,48.6750
209.6842,47.7250
209.6652,47.6293
209.6110,47.5482
209.5299,47.4940
209.4342,47.4750
208.7592,47.4750
208.6635,47.4940
208.5824,47.5482
208.5282,47.6293
208.5092,47.7250
Z" /> 
<path style="fill:#000000; fill-opacity:1.0000; stroke:none;fill-rule:evenodd;"
d="M 210.5842,48.6750
210.6032,48.7707
210.6574,48.8518
210.7385,48.9060
210.8342,48.9250
211.5092,48.9250
211.6049,48.9060
211.6860,48.8518
211.7402,48.7707
211.7592,48.6750
211.7592,47.7250
211.7402,47.6293
211.6860,47.5482
211.6049,47.4940
211.5092,47.4750
210.8342,47.4750
210.7385,47.4940
210.6574,47.5482
210.6032,47.6293
210.5842,47.7250
Z" /> 
</g>
<g style="fill:none; 
stroke:#000000; stroke-width:1.7000; stroke-opacity:1; 
stroke-linecap:round; stroke-linejoin:round;">
<path d="M218.9782 48.7680
L219.5782 48.7680
" />
<path d="M218.9782 51.3080
L219.5782 51.3080
" />
<path d="M218.9782 53.8480
L219.5782 53.8480
" />
<path d="M218.9782 56.3880
L219.5782 56.3880
" />
<path d="M218.9782 58.9280
L219.5782 58.9280
" />
<path d="M218.9782 61.4680
L219.5782 61.4680
" />
<path d="M218.9782 64.0080
L219.5782 64.0080
" />
<path d="M218.9782 66.5480
L219.5782 66.5480
" />
<path d="M218.9782 69.0880
L219.5782 69.0880
" />
<path d="M218.9782 71.6280
L219.5782 71.6280
" />
<path d="M201.1982 48.7680
L201.7982 48.7680
" />
<path d="M201.1982 51.3080
L201.7982 51.3080
" />
<path d="M201.1982 53.8480
L201.7982 53.8480
" />
<path d="M201.1982 56.3880
L201.7982 56.3880
" />
<path d="M201.1982 58.9280
L201.7982 58.9280
" />
<path d="M201.1982 61.4680
L201.7982 61.4680
" />
<path d="M201.1982 64.0080
L201.7982 64.0080
" />
<path d="M201.1982 66.5480
L201.7982 66.5480
" />
<path d="M201.1982 69.0880
L201.7982 69.0880
" />
<path d="M201.1982 71.6280
L201.7982 71.6280
" />
</g>
<g style="fill:none; 
stroke:#000000; stroke-width:0.8000; stroke-opacity:1; 
stroke-linecap:round; stroke-linejoin:round;">
<path d="M216.2517 64.2835
L218.5162 66.5480
" />
<path d="M215.9762 64.2835
L216.2517 64.2835
" />
<path d="M218.5162 66.5480
L219.2782 66.5480
" />
</g>
<g style="fill:none; 
stroke:#000000; stroke-width:0.4000; stroke-opacity:1; 
stroke-linecap:round; stroke-linejoin:round;">
<path d="M214.1657 62.4730
L215.9762 64.2835
" />
<path d="M212.4887 62.4730
L214.1657 62.4730
" />
</g>
<g style="fill:none; 
stroke:#000000; stroke-width:0.8000; stroke-opacity:1; 
stroke-linecap:round; stroke-linejoin:round;">
<path d="M219.2782 64.0080
L219.0242 64.0080
" />
</g>
<g style="fill:none; 
stroke:#000000; stroke-width:0.4000; stroke-opacity:1; 
stroke-linecap:round; stroke-linejoin:round;">
<path d="M212.4887 61.1730
L214.9407 61.1730
" />
</g>
<g style="fill:none; 
stroke:#000000; stroke-width:0.8000; stroke-opacity:1; 
stroke-linecap:round; stroke-linejoin:round;">
<path d="M217.2247 62.2085
L215.9762 62.2085
" />
<path d="M219.0242 64.0080
L217.2247 62.2085
" />
</g>
<g style="fill:none; 
stroke:#000000; stroke-width:0.4000; stroke-opacity:1; 
stroke-linecap:round; stroke-linejoin:round;">
<path d="M214.9407 61.1730
L215.9762 62.2085
" />
<path d="M210.7792 61.8230
L210.4022 62.2000
" />
<path d="M212.4887 61.8230
L210.7792 61.8230
" />
<path d="M210.4022 64.7595
L211.4427 65.8000
" />
<path d="M210.4022 62.2000
L210.4022 64.7595
" />
<path d="M211.1912 59.2230
L209.8802 57.9120
" />
<path d="M212.4887 59.2230
L216.1892 59.2230
" />
<path d="M209.8802 57.9120
L209.8802 55.6260
" />
<path d="M206.0210 52.0574
L209.0841 52.0574
" />
<path d="M209.0967 52.0700
L209.0967 48.2000
" />
<path d="M212.4887 59.2230
L211.1912 59.2230
" />
<path d="M209.0841 52.0574
L209.0967 52.0700
" />
<path d="M209.8802 55.6260
L209.0967 54.8425
" />
<path d="M216.1892 59.2230
L219.0242 56.3880
" />
<path d="M209.0967 54.8425
L209.0967 52.0700
" />
<path d="M219.0242 56.3880
L219.2782 56.3880
" />
<path d="M217.7542 51.3080
L219.2782 51.3080
" />
<path d="M216.9922 52.0700
L217.7542 51.3080
" />
<path d="M212.4887 57.9230
L213.2861 57.9230
" />
<path d="M216.9922 54.2169
L216.9922 52.0700
" />
<path d="M213.2861 57.9230
L216.9922 54.2169
" />
<path d="M206.7637 61.1730
L204.3332 61.1730
" />
<path d="M204.3332 61.1730
L201.4982 64.0080
" />
<path d="M215.7222 50.2920
L217.2462 48.7680
" />
<path d="M212.4887 57.2730
L215.7222 54.0395
" />
<path d="M215.7222 54.0395
L215.7222 50.2920
" />
<path d="M217.2462 48.7680
L219.2782 48.7680
" />
<path d="M212.4887 58.5730
L214.2992 58.5730
" />
<path d="M214.2992 58.5730
L219.0242 53.8480
" />
<path d="M219.0242 53.8480
L219.2782 53.8480
" />
<path d="M206.7637 59.2230
L204.3332 59.2230
" />
<path d="M204.3332 59.2230
L201.4982 56.3880
" />
<path d="M218.4452 61.4680
L217.5002 60.5230
" />
<path d="M219.2782 61.4680
L218.4452 61.4680
" />
<path d="M212.4887 60.5230
L217.5002 60.5230
" />
<path d="M206.7637 58.5730
L204.9532 58.5730
" />
<path d="M204.3842 58.0040
L204.3842 56.7340
" />
<path d="M204.9532 58.5730
L204.3842 58.0040
" />
<path d="M204.3842 56.7340
L201.4982 53.8480
" />
<path d="M206.7637 62.4730
L205.8272 62.4730
" />
<path d="M204.5462 63.7540
L204.5462 66.0400
" />
<path d="M205.8272 62.4730
L204.5462 63.7540
" />
<path d="M204.5462 66.0400
L201.4982 69.0880
" />
<path d="M217.2822 68.5800
L218.7702 68.5800
" />
<path d="M218.7702 68.5800
L219.2782 69.0880
" />
<path d="M212.4887 63.1230
L212.6429 63.2772
" />
<path d="M212.6429 63.2772
L212.6429 63.9407
" />
<path d="M212.6429 63.9407
L217.2822 68.5800
" />
<path d="M219.2782 58.9280
L218.1912 58.9280
" />
<path d="M218.1912 58.9280
L217.2462 59.8730
" />
<path d="M212.4887 59.8730
L217.2462 59.8730
" />
<path d="M206.7637 60.5230
L203.5302 60.5230
" />
<path d="M202.5852 61.4680
L203.5302 60.5230
" />
<path d="M201.4982 61.4680
L202.5852 61.4680
" />
<path d="M206.7637 63.1230
L206.4825 63.4042
" />
<path d="M206.4825 63.4042
L206.4825 66.6437
" />
<path d="M206.4825 66.6437
L201.4982 71.6280
" />
<path d="M203.5302 52.1385
L206.7637 55.3720
" />
<path d="M203.0222 48.7680
L203.5302 49.2760
" />
<path d="M201.4982 48.7680
L203.0222 48.7680
" />
<path d="M206.7637 55.3720
L206.7637 57.2730
" />
<path d="M203.5302 49.2760
L203.5302 52.1385
" />
<path d="M204.9532 61.8230
L203.5302 63.2460
" />
<path d="M203.5302 64.5160
L201.4982 66.5480
" />
<path d="M203.5302 63.2460
L203.5302 64.5160
" />
<path d="M206.7637 61.8230
L204.9532 61.8230
" />
<path d="M205.8272 57.9230
L205.3082 57.4040
" />
<path d="M206.7637 57.9230
L205.8272 57.9230
" />
<path d="M205.3082 57.4040
L205.3082 55.1180
" />
<path d="M205.3082 55.1180
L201.4982 51.3080
" />
<path d="M201.4982 58.9280
L202.5852 58.9280
" />
<path d="M206.7637 59.8730
L203.5302 59.8730
" />
<path d="M202.5852 58.9280
L203.5302 59.8730
" />
<path d="M208.3702 71.7000
L208.3702 69.2100
" />
<path d="M208.3702 69.2100
L208.8802 68.7000
" />
<path d="M218.7702 71.1200
L219.2782 71.6280
" />
<path d="M212.6742 68.0720
L215.7222 71.1200
" />
<path d="M215.7222 71.1200
L218.7702 71.1200
" />
<path d="M210.8802 68.0720
L212.6742 68.0720
" />
<path style="fill:#000000; fill-opacity:1.0000; stroke:none;fill-rule:evenodd;"
d="M 200.3744,46.4935
200.2936,46.5474
200.2397,46.6282
200.2207,46.7235
200.2207,47.3440
200.2397,47.4393
200.2936,47.5201
200.3744,47.5741
200.4697,47.5930
200.5650,47.5741
200.5827,47.5659
200.6798,47.5164
200.6798,47.5164
200.6798,47.5164
200.8820,47.4508
201.0919,47.4175
201.0919,47.4175
201.9045,47.4175
201.9045,47.4175
202.1144,47.4508
202.3166,47.5164
202.5060,47.6129
202.6780,47.7379
202.8283,47.8882
202.8283,47.8882
202.8840,47.9649
202.9553,48.0308
203.0465,48.0644
203.0854,48.0675
203.0912,48.0675
203.1996,48.0891
203.2112,48.0914
203.2265,48.0944
203.2793,48.1163
203.3540,48.1472
203.3744,48.1609
203.3746,48.1610
203.3746,48.1610
203.3746,48.1610
203.4687,48.2239
203.4687,48.2239
204.0743,48.8295
204.0743,48.8295
204.1043,48.8743
204.1043,48.8743
204.1510,48.9442
204.1510,48.9442
204.2038,49.0717
204.2038,49.0717
204.2307,49.2070
204.2307,51.2758
204.2497,51.3711
204.3036,51.4518
204.3844,51.5058
204.4797,51.5248
204.5750,51.5058
204.6558,51.4518
204.7028,51.3864
204.7759,51.2389
204.7759,51.2389
204.8925,51.0939
204.8925,51.0939
205.0375,50.9773
205.0375,50.9773
205.2042,50.8946
205.2945,50.8721
205.3848,50.8497
205.3848,50.8497
205.3848,50.8497
205.4266,50.8469
205.4266,50.8469
205.4266,50.8469
205.4266,50.8469
206.6154,50.8469
206.6154,50.8469
206.6572,50.8497
206.6572,50.8497
206.8378,50.8946
207.0045,50.9773
207.0045,50.9773
207.1495,51.0939
207.1495,51.0939
207.2661,51.2389
207.2680,51.2420
207.2711,51.2452
207.2745,51.2494
207.2749,51.2491
207.3353,51.3120
207.4243,51.3510
207.4778,51.3569
208.1472,51.3569
208.2425,51.3379
208.3233,51.2839
208.3772,51.2031
208.3962,51.1079
208.3962,49.4718
208.3772,49.3765
208.3233,49.2957
208.3016,49.2765
208.2905,49.2677
208.2905,49.2677
208.2905,49.2677
208.1665,49.1437
208.0744,48.9943
208.0192,48.8278
208.0087,48.7250
208.0087,47.6750
208.0192,47.5722
208.0365,47.5201
208.0705,47.4175
208.0744,47.4057
208.1665,47.2563
208.2905,47.1323
208.4399,47.0402
208.4399,47.0402
208.4399,47.0402
208.4399,47.0402
208.6064,46.9850
208.6064,46.9850
208.6064,46.9850
208.7092,46.9745
208.7092,46.9745
209.4842,46.9745
209.5870,46.9850
209.7535,47.0402
209.9029,47.1323
210.0269,47.2563
210.1190,47.4057
210.1742,47.5722
210.1742,47.5722
210.1847,47.6750
210.1847,48.7250
210.1847,48.7250
210.1742,48.8278
210.1356,48.9442
210.1190,48.9943
210.0269,49.1437
209.9029,49.2677
209.9029,49.2677
209.9029,49.2677
209.8918,49.2765
209.8288,49.3505
209.7989,49.4429
209.7972,49.4718
209.7972,54.4492
209.8162,54.5445
209.8701,54.6253
210.4243,55.1795
210.4243,55.1795
210.4601,55.2329
210.4601,55.2329
210.5010,55.2942
210.5010,55.2942
210.5538,55.4217
210.5538,55.4217
210.5807,55.5570
210.5807,57.5187
210.5997,57.6140
210.6536,57.6948
210.8345,57.8757
210.9153,57.9297
211.0106,57.9486
211.1059,57.9297
211.1867,57.8757
211.2407,57.7949
211.2575,57.7321
211.2662,57.6662
211.2662,57.6662
211.2662,57.6662
211.2672,57.6624
211.2677,57.6546
211.2683,57.6501
211.2680,57.6500
211.2735,57.5655
211.2672,57.5335
211.2662,57.5298
211.2662,57.5298
211.2507,57.4124
211.2507,57.1336
211.2662,57.0162
211.3267,56.8702
211.4229,56.7447
211.4229,56.7447
211.4229,56.7447
211.5484,56.6485
211.5484,56.6485
211.5484,56.6485
211.6944,56.5880
211.6944,56.5880
211.8118,56.5725
211.8118,56.5725
212.0954,56.5725
212.1907,56.5535
212.2715,56.4996
214.9488,53.8223
215.0027,53.7415
215.0217,53.6462
215.0217,50.2230
215.0486,50.0877
215.0486,50.0877
215.0496,50.0852
215.0496,50.0852
215.0947,49.9765
215.1014,49.9602
215.1781,49.8455
215.2254,49.7981
215.2757,49.7479
215.2757,49.7479
216.7997,48.2239
216.9144,48.1472
216.9144,48.1472
216.9144,48.1472
217.0419,48.0944
217.0419,48.0944
217.1772,48.0675
217.1772,48.0675
217.1772,48.0675
217.6910,48.0675
217.7862,48.0485
217.8670,47.9946
217.8924,47.9649
217.9481,47.8882
217.9481,47.8882
218.0984,47.7379
218.1850,47.6750
218.2704,47.6129
218.4598,47.5164
218.4598,47.5164
218.4598,47.5164
218.6620,47.4508
218.8719,47.4175
218.8719,47.4175
219.6845,47.4175
219.6845,47.4175
219.8944,47.4508
220.0966,47.5164
220.2860,47.6129
220.4580,47.7379
220.6083,47.8882
220.7332,48.0602
220.8298,48.2496
220.8954,48.4518
220.9287,48.6617
220.9287,48.8743
220.8954,49.0842
220.8330,49.2765
220.8298,49.2864
220.7333,49.4758
220.6083,49.6478
220.6083,49.6478
220.4580,49.7981
220.4051,49.8366
220.3391,49.9079
220.3055,49.9990
220.3093,50.0961
220.3500,50.1844
220.4051,50.2394
220.4580,50.2779
220.6083,50.4282
220.7332,50.6002
220.8298,50.7896
220.8954,50.9918
220.9287,51.2017
220.9287,51.4143
220.8954,51.6242
220.8954,51.6242
220.8298,51.8264
220.7333,52.0158
220.6432,52.1397
220.6083,52.1878
220.4580,52.3381
220.4051,52.3766
220.3391,52.4479
220.3055,52.5390
220.3093,52.6361
220.3500,52.7244
220.4051,52.7794
220.4580,52.8179
220.6083,52.9682
220.7332,53.1402
220.8298,53.3296
220.8954,53.5318
220.9287,53.7417
220.9287,53.9543
220.8954,54.1642
220.8954,54.1642
220.8298,54.3664
220.7333,54.5558
220.6828,54.6253
220.6083,54.7278
220.4580,54.8781
220.4051,54.9166
220.3391,54.9879
220.3055,55.0790
220.3093,55.1761
220.3500,55.2644
220.4051,55.3194
220.4580,55.3579
220.6083,55.5082
220.7332,55.6802
220.8298,55.8696
220.8954,56.0718
220.9287,56.2817
220.9287,56.4943
220.8954,56.7042
220.8415,56.8702
220.8298,56.9064
220.7333,57.0958
220.7058,57.1336
220.6083,57.2678
220.4580,57.4181
220.4051,57.4566
220.3391,57.5279
220.3055,57.6190
220.3093,57.7161
220.3500,57.8044
220.4051,57.8594
220.4580,57.8979
220.6083,58.0482
220.7332,58.2202
220.8298,58.4096
220.8954,58.6118
220.9287,58.8217
220.9287,59.0343
220.8954,59.2442
220.8571,59.3624
220.8298,59.4464
220.7333,59.6358
220.6622,59.7336
220.6083,59.8078
220.4580,59.9581
220.4051,59.9966
220.3391,60.0679
220.3055,60.1590
220.3093,60.2561
220.3500,60.3444
220.4051,60.3994
220.4580,60.4379
220.6083,60.5882
220.7332,60.7602
220.8298,60.9496
220.8954,61.1518
220.9287,61.3617
220.9287,61.5743
220.8954,61.7842
220.8752,61.8466
220.8298,61.9864
220.7333,62.1758
220.6083,62.3478
220.4580,62.4981
220.2860,62.6231
220.0966,62.7196
219.8944,62.7852
219.7450,62.8089
219.6538,62.8425
219.5825,62.9085
219.5691,62.9290
219.5322,62.9920
219.5322,62.9920
219.5322,62.9920
218.3929,62.7641
218.2957,62.7640
218.2059,62.8011
218.1680,62.8322
217.8630,63.1372
217.8090,63.2180
217.7901,63.3133
217.8029,63.3920
218.2745,64.8068
218.2525,64.8678
218.2571,64.9649
218.2984,65.0528
218.3226,65.0809
218.4110,65.1693
218.4918,65.2233
218.5871,65.2423
218.6522,65.2320
218.6524,65.2330
218.6620,65.2308
218.8719,65.1975
218.8719,65.1975
219.6845,65.1975
219.6845,65.1975
219.8944,65.2308
220.0966,65.2964
220.2860,65.3929
220.4580,65.5179
220.6083,65.6682
220.7332,65.8402
220.8298,66.0296
220.8954,66.2318
220.9287,66.4417
220.9287,66.6543
220.8954,66.8642
220.8375,67.0427
220.8298,67.0664
220.7333,67.2558
220.6296,67.3984
220.6083,67.4278
220.4580,67.5781
220.4051,67.6166
220.3391,67.6879
220.3055,67.7790
220.3093,67.8761
220.3500,67.9644
220.4051,68.0194
220.4580,68.0579
220.6083,68.2082
220.7332,68.3802
220.8298,68.5696
220.8954,68.7718
220.9287,68.9817
220.9287,69.1943
220.8954,69.4042
220.8560,69.5258
220.8298,69.6064
220.7333,69.7958
220.6582,69.8991
220.6083,69.9678
220.4580,70.1181
220.4051,70.1566
220.3391,70.2279
220.3055,70.3190
220.3093,70.4161
220.3500,70.5044
220.4051,70.5594
220.4580,70.5979
220.6083,70.7482
220.7332,70.9202
220.8298,71.1096
220.8954,71.3118
220.9287,71.5217
220.9287,71.7343
220.8954,71.9442
220.8797,71.9926
220.8298,72.1464
220.7333,72.3358
220.6083,72.5078
220.4580,72.6581
220.2860,72.7831
220.0966,72.8796
219.8944,72.9452
219.8206,72.9569
219.6845,72.9785
219.6845,72.9785
219.6845,72.9785
219.6845,72.9785
218.8719,72.9785
218.8719,72.9785
218.8719,72.9785
218.8719,72.9785
218.7727,72.9628
218.6620,72.9452
218.4598,72.8796
218.2704,72.7831
218.0984,72.6581
217.9481,72.5078
217.8231,72.3358
217.7266,72.1464
217.6767,71.9926
217.6292,71.9078
217.5529,71.8476
217.4594,71.8213
217.4398,71.8205
215.6532,71.8205
215.5855,71.8070
215.5179,71.7936
215.5179,71.7936
215.5179,71.7936
215.3904,71.7408
215.2757,71.6641
212.4570,68.8454
212.3762,68.7915
212.2809,68.7725
212.2297,68.7725
212.1344,68.7915
212.0536,68.8454
211.9997,68.9262
211.9807,69.0215
211.9807,69.2000
211.9806,69.2008
211.9702,69.3028
211.9206,69.4526
211.9150,69.4693
211.8229,69.6187
211.6989,69.7427
211.5495,69.8348
211.5495,69.8348
211.5495,69.8348
211.3859,69.8890
211.3830,69.8900
211.2802,69.9005
210.4802,69.9005
210.3774,69.8900
210.2109,69.8348
210.0615,69.7427
210.0563,69.7374
209.9755,69.6835
209.8802,69.6645
209.7849,69.6835
209.7041,69.7374
209.6989,69.7427
209.5495,69.8348
209.5495,69.8348
209.5495,69.8348
209.3859,69.8890
209.3830,69.8900
209.2944,69.8991
209.2015,69.9276
209.1266,69.9895
209.0812,70.0753
209.0707,70.1468
209.0707,70.2010
209.0897,70.2963
209.1436,70.3771
209.1890,70.4130
209.3014,70.4823
209.4254,70.6063
209.5175,70.7557
209.5727,70.9222
209.5727,70.9222
209.5832,71.0250
209.5832,72.3750
209.5727,72.4778
209.5727,72.4778
209.5175,72.6443
209.5090,72.6581
209.4254,72.7937
209.3014,72.9177
209.1520,73.0098
208.9855,73.0650
208.8827,73.0755
208.8827,73.0755
207.8577,73.0755
207.8577,73.0755
207.7549,73.0650
207.5884,73.0098
207.4390,72.9177
207.3150,72.7937
207.2229,72.6443
207.1677,72.4778
207.1572,72.3750
207.1572,71.0250
207.1677,70.9222
207.2229,70.7557
207.3150,70.6063
207.4390,70.4823
207.4390,70.4823
207.4390,70.4823
207.5514,70.4130
207.6226,70.3468
207.6630,70.2585
207.6697,70.2010
207.6697,69.1410
207.6697,69.1410
207.6966,69.0057
207.6966,69.0057
207.7494,68.8782
207.7503,68.8765
207.7508,68.8748
207.7541,68.8669
207.7533,68.8666
207.7785,68.7836
207.7797,68.7592
207.7797,68.2000
207.7797,68.2000
207.7902,68.0972
207.8454,67.9307
207.9375,67.7813
208.0615,67.6573
208.2109,67.5652
208.2109,67.5652
208.2109,67.5652
208.2109,67.5652
208.3774,67.5100
208.3774,67.5100
208.3774,67.5100
208.4802,67.4995
208.4802,67.4995
209.2802,67.4995
209.3830,67.5100
209.5495,67.5652
209.6989,67.6573
209.6989,67.6573
209.6989,67.6573
209.7041,67.6626
209.7849,67.7165
209.8802,67.7355
209.9755,67.7165
210.0563,67.6626
210.0615,67.6573
210.2109,67.5652
210.2109,67.5652
210.2109,67.5652
210.2109,67.5652
210.3774,67.5100
210.3774,67.5100
210.4138,67.5063
210.5067,67.4777
210.5269,67.4656
210.5484,67.4512
210.5484,67.4512
210.5510,67.4495
210.6197,67.3808
210.6569,67.2910
210.6569,67.1939
210.6197,67.1041
210.5671,67.0471
210.5616,67.0427
210.5615,67.0427
210.4375,66.9187
210.3454,66.7693
210.2902,66.6028
210.2797,66.5000
210.2797,65.7308
210.2607,65.6355
210.2068,65.5547
210.0965,65.4444
209.8581,65.2060
209.7814,65.0913
209.7286,64.9638
209.7239,64.9403
209.7149,64.8946
209.7149,64.8946
209.7149,64.8946
209.7017,64.8285
209.7017,62.1310
209.7286,61.9957
209.7451,61.9559
209.7814,61.8682
209.7814,61.8682
209.7959,61.8466
209.8581,61.7535
209.8581,61.7535
209.8581,61.7535
210.3327,61.2789
210.3327,61.2789
210.4474,61.2022
210.4474,61.2022
210.4474,61.2022
210.5749,61.1494
210.5749,61.1494
210.7102,61.1225
210.7102,61.1225
210.7102,61.1225
211.0355,61.1225
211.1308,61.1035
211.2115,61.0496
211.2655,60.9688
211.2845,60.8735
211.2690,60.7959
211.2704,60.7955
211.2662,60.7798
211.2662,60.7798
211.2662,60.7798
211.2507,60.6624
211.2507,60.3836
211.2662,60.2662
211.2662,60.2662
211.2672,60.2624
211.2677,60.2546
211.2683,60.2501
211.2680,60.2500
211.2735,60.1655
211.2672,60.1335
211.2662,60.1298
211.2662,60.1298
211.2654,60.1243
211.2342,60.0323
211.1701,59.9592
211.0830,59.9162
211.0671,59.9125
210.9869,59.8966
210.9869,59.8966
210.9869,59.8966
210.8594,59.8438
210.7447,59.7671
209.3361,58.3585
209.2594,58.2438
209.2066,58.1163
209.1797,57.9810
209.1797,57.8430
209.1797,56.0193
209.1607,55.9240
209.1068,55.8432
208.5526,55.2890
208.4794,55.1795
208.4759,55.1743
208.4330,55.0708
208.4231,55.0468
208.4114,54.9879
208.4043,54.9524
208.4043,54.9524
208.4043,54.9524
208.3962,54.9115
208.3962,53.0069
208.3772,52.9116
208.3233,52.8308
208.2425,52.7768
208.1472,52.7579
207.4778,52.7579
207.3826,52.7768
207.3018,52.8308
207.2680,52.8728
207.2661,52.8758
207.1495,53.0209
207.1495,53.0209
207.0045,53.1374
207.0045,53.1374
206.8378,53.2201
206.8378,53.2201
206.8378,53.2201
206.6572,53.2650
206.6572,53.2650
206.6572,53.2650
206.6218,53.2674
206.6154,53.2679
206.2514,53.2679
206.1561,53.2868
206.0753,53.3408
206.0213,53.4216
206.0024,53.5169
206.0213,53.6121
206.0753,53.6929
207.3078,54.9255
207.3845,55.0402
207.3845,55.0402
207.4373,55.1677
207.4373,55.1677
207.4614,55.2890
207.4642,55.3030
207.4642,56.3827
207.4832,56.4780
207.5371,56.5588
207.6179,56.6128
207.7040,56.6485
207.7040,56.6485
207.8295,56.7447
207.8295,56.7447
207.9257,56.8702
207.9257,56.8702
207.9257,56.8702
207.9481,56.9241
207.9862,57.0162
208.0017,57.1336
208.0017,57.4124
207.9862,57.5298
207.9852,57.5336
207.9847,57.5414
207.9841,57.5459
207.9844,57.5460
207.9789,57.6305
207.9852,57.6624
207.9862,57.6662
208.0017,57.7836
208.0017,58.0624
207.9862,58.1798
207.9852,58.1836
207.9847,58.1914
207.9841,58.1959
207.9844,58.1960
207.9789,58.2805
207.9852,58.3124
207.9862,58.3162
208.0017,58.4336
208.0017,58.7124
207.9862,58.8298
207.9852,58.8336
207.9847,58.8414
207.9841,58.8459
207.9844,58.8460
207.9789,58.9305
207.9852,58.9624
207.9862,58.9662
208.0017,59.0836
208.0017,59.3624
207.9862,59.4798
207.9852,59.4836
207.9847,59.4914
207.9841,59.4959
207.9844,59.4960
207.9789,59.5805
207.9852,59.6124
207.9862,59.6162
208.0017,59.7336
208.0017,60.0124
207.9862,60.1298
207.9852,60.1336
207.9847,60.1414
207.9841,60.1459
207.9844,60.1460
207.9789,60.2305
207.9852,60.2624
207.9862,60.2662
208.0017,60.3836
208.0017,60.6624
207.9862,60.7798
207.9852,60.7836
207.9847,60.7914
207.9841,60.7959
207.9844,60.7960
207.9789,60.8805
207.9852,60.9124
207.9862,60.9162
208.0017,61.0336
208.0017,61.3124
207.9862,61.4298
207.9852,61.4336
207.9847,61.4414
207.9841,61.4459
207.9844,61.4460
207.9789,61.5305
207.9852,61.5624
207.9862,61.5662
208.0017,61.6836
208.0017,61.9624
207.9862,62.0798
207.9852,62.0836
207.9847,62.0914
207.9841,62.0959
207.9844,62.0960
207.9789,62.1805
207.9852,62.2124
207.9862,62.2162
208.0017,62.3336
208.0017,62.6124
207.9862,62.7298
207.9852,62.7336
207.9847,62.7414
207.9841,62.7459
207.9844,62.7460
207.9789,62.8305
207.9852,62.8624
207.9862,62.8662
208.0017,62.9836
208.0017,63.2624
207.9862,63.3798
207.9599,63.4435
207.9257,63.5258
207.8295,63.6513
207.7040,63.7475
207.5580,63.8080
207.4406,63.8235
207.4320,63.8235
207.3367,63.8424
207.2559,63.8964
207.2019,63.9772
207.1829,64.0725
207.1829,66.7127
207.1560,66.8481
207.1560,66.8481
207.1032,66.9756
207.1032,66.9756
207.1032,66.9756
207.0266,67.0903
204.9927,69.1241
203.1472,70.9696
203.0933,71.0504
203.0743,71.1457
203.0865,71.2226
203.1154,71.3118
203.1487,71.5217
203.1487,71.7343
203.1154,71.9442
203.0997,71.9926
203.0498,72.1464
202.9533,72.3358
202.8283,72.5078
202.6780,72.6581
202.5060,72.7831
202.3166,72.8796
202.1144,72.9452
202.0406,72.9569
201.9045,72.9785
201.9045,72.9785
201.9045,72.9785
201.9045,72.9785
201.0919,72.9785
201.0919,72.9785
201.0919,72.9785
201.0919,72.9785
200.9927,72.9628
200.8820,72.9452
200.6798,72.8796
200.5827,72.8301
200.4892,72.8037
200.3928,72.8152
200.3080,72.8626
200.2478,72.9389
200.2215,73.0324
200.2207,73.0520
200.2207,73.4185
200.2397,73.5138
200.2936,73.5946
200.3744,73.6485
200.4697,73.6675
221.3227,73.6675
221.4180,73.6485
221.4988,73.5946
221.5527,73.5138
221.5717,73.4185
221.5717,46.7235
221.5527,46.6282
221.4988,46.5474
221.4180,46.4935
221.3227,46.4745
200.4697,46.4745
Z" /> 
</g>
<g style="fill:#FFFFFF; fill-opacity:1.0000; stroke:none;">
<circle cx="219.2782" cy="48.7680" r="0.5000" /> 
</g>
<g style="fill:#FFFFFF; fill-opacity:1.0000; stroke:none;">
<circle cx="219.2782" cy="51.3080" r="0.5000" /> 
</g>
<g style="fill:#FFFFFF; fill-opacity:1.0000; stroke:none;">
<circle cx="219.2782" cy="53.8480" r="0.5000" /> 
</g>
<g style="fill:#FFFFFF; fill-opacity:1.0000; stroke:none;">
<circle cx="219.2782" cy="56.3880" r="0.5000" /> 
</g>
<g style="fill:#FFFFFF; fill-opacity:1.0000; stroke:none;">
<circle cx="219.2782" cy="58.9280" r="0.5000" /> 
</g>
<g style="fill:#FFFFFF; fill-opacity:1.0000; stroke:none;">
<circle cx="219.2782" cy="61.4680" r="0.5000" /> 
</g>
<g style="fill:#FFFFFF; fill-opacity:1.0000; stroke:none;">
<circle cx="219.2782" cy="64.0080" r="0.5000" /> 
</g>
<g style="fill:#FFFFFF; fill-opacity:1.0000; stroke:none;">
<circle cx="219.2782" cy="66.5480" r="0.5000" /> 
</g>
<g style="fill:#FFFFFF; fill-opacity:1.0000; stroke:none;">
<circle cx="219.2782" cy="69.0880" r="0.5000" /> 
</g>
<g style="fill:#FFFFFF; fill-opacity:1.0000; stroke:none;">
<circle cx="219.2782" cy="71.6280" r="0.5000" /> 
</g>
<g style="fill:#FFFFFF; fill-opacity:1.0000; stroke:none;">
<circle cx="201.4982" cy="48.7680" r="0.5000" /> 
</g>
<g style="fill:#FFFFFF; fill-opacity:1.0000; stroke:none;">
<circle cx="201.4982" cy="51.3080" r="0.5000" /> 
</g>
<g style="fill:#FFFFFF; fill-opacity:1.0000; stroke:none;">
<circle cx="201.4982" cy="53.8480" r="0.5000" /> 
</g>
<g style="fill:#FFFFFF; fill-opacity:1.0000; stroke:none;">
<circle cx="201.4982" cy="56.3880" r="0.5000" /> 
</g>
<g style="fill:#FFFFFF; fill-opacity:1.0000; stroke:none;">
<circle cx="201.4982" cy="58.9280" r="0.5000" /> 
</g>
<g style="fill:#FFFFFF; fill-opacity:1.0000; stroke:none;">
<circle cx="201.4982" cy="61.4680" r="0.5000" /> 
</g>
<g style="fill:#FFFFFF; fill-opacity:1.0000; stroke:none;">
<circle cx="201.4982" cy="64.0080" r="0.5000" /> 
</g>
<g style="fill:#FFFFFF; fill-opacity:1.0000; stroke:none;">
<circle cx="201.4982" cy="66.5480" r="0.5000" /> 
</g>
<g style="fill:#FFFFFF; fill-opacity:1.0000; stroke:none;">
<circle cx="201.4982" cy="69.0880" r="0.5000" /> 
</g>
<g style="fill:#FFFFFF; fill-opacity:1.0000; stroke:none;">
<circle cx="201.4982" cy="71.6280" r="0.5000" /> 
<path style="fill:none; 
stroke:#000000; stroke-width:0.0500; stroke-opacity:1; 
stroke-linecap:round; stroke-linejoin:round;fill:none"
d="M 222.0722,45.9740
199.7202,45.9740
199.7202,74.1680
222.0722,74.1680
Z" /> 
</g> 
</svg>
